<svg xmlns="http://www.w3.org/2000/svg" width="841.266" height="477.82" viewBox="0 0 841.266 477.82">
  <g id="image_4" data-name="image 4" transform="translate(-110.734 -376.154)">
    <g id="currency" transform="translate(595.5 377.154)">
      <path id="Path_4960" data-name="Path 4960" d="M139.242,79.235a40.565,40.565,0,0,0-6.085.454V73.483h-.3l.3-33.059V21.11C133.157,14.419,116.9,9,96.829,9S60.5,14.419,60.5,21.11v94.454c0,6.691,16.257,12.11,36.329,12.11,1.362,0,2.725-.03,4.057-.061a39.378,39.378,0,1,0,38.357-48.377Zm-32.09,9.809c-.727.061-1.453.121-2.21.182C105.669,89.165,106.4,89.1,107.152,89.044Z" transform="translate(-6.974 -6.974)" fill="#79e6c3"/>
      <path id="Path_4961" data-name="Path 4961" d="M173.527,205a3.029,3.029,0,0,0-3.027,3v.03a3.026,3.026,0,0,0,6.053,0V208A3.029,3.029,0,0,0,173.527,205Z" transform="translate(-83.671 -143.636)"/>
      <path id="Path_4962" data-name="Path 4962" d="M89.855-1C70.3-1,50.5,4.207,50.5,14.137V108.59c0,9.93,19.8,15.137,39.355,15.137h1.756a42.387,42.387,0,1,0,40.627-54.492c-1.029,0-2.028.03-3.058.121,0-2,.03-32,.03-35.9V14.137h0C129.211,4.207,109.412-1,89.855-1Zm2.059,99.569c-.7,0-1.393.03-2.059.03-9.385,0-18.164-1.211-24.733-3.391-6.781-2.271-8.567-4.723-8.567-5.691V78.892c7.356,4.42,20.374,6.69,33.3,6.69,3.148,0,6.267-.121,9.264-.394A42.767,42.767,0,0,0,91.914,98.569ZM106.173,78.2a96.1,96.1,0,0,1-16.348,1.332c-9.385,0-18.164-1.211-24.733-3.391-6.781-2.271-8.567-4.723-8.567-5.691V60.758a31.848,31.848,0,0,0,5.358,2.482,74.924,74.924,0,0,0,15.863,3.481,3.038,3.038,0,0,0,.333-6.055c-.969-.151-11.625-1.241-18.134-4.935-2.6-1.483-2.906-2.361-3.36-3.209-.091-.424,0,.424-.03-10.868,7.356,4.42,20.374,6.69,33.3,6.69,9.9,0,19.254-1.271,26.4-3.633a33.553,33.553,0,0,0,6.9-3.027V52.463a3.235,3.235,0,0,1-1.029,1.514c-.03,0-4.723,4.874-20.5,6.69h-.03a2.989,2.989,0,0,0-2.634,2.513,3.029,3.029,0,0,0,3,3.512c3.633,0,15.5-2.543,21.222-5.964v9.445A42.809,42.809,0,0,0,106.173,78.2Zm16.983-25.7Zm0-19.163c-.091,1.029-2.089,3.451-8.81,5.661-6.539,2.149-15.228,3.33-24.491,3.33-9.385,0-18.164-1.211-24.7-3.391-6.781-2.271-8.567-4.723-8.567-5.691V22.613c7.356,4.42,20.374,6.66,33.271,6.66,12.927,0,25.975-2.271,33.3-6.66ZM65.122,8.445c6.569-2.18,15.349-3.391,24.733-3.391s18.164,1.211,24.733,3.391c6.781,2.271,8.567,4.723,8.567,5.691s-1.786,3.421-8.567,5.691c-6.569,2.18-15.349,3.391-24.733,3.391s-18.164-1.211-24.733-3.391c-6.781-2.24-8.567-4.692-8.567-5.691C56.555,13.168,58.341,10.716,65.122,8.445Zm0,105.836c-6.781-2.271-8.567-4.723-8.567-5.691V97.964c7.356,4.42,20.374,6.69,33.3,6.69h.575a42.9,42.9,0,0,0-.151,13.018h-.424C80.471,117.672,71.691,116.461,65.122,114.281Zm103.444-2.664a36.327,36.327,0,0,1-71.687,8.325v-.03h0a36.321,36.321,0,1,1,71.687-8.295Z"/>
      <path id="Path_4963" data-name="Path 4963" d="M290.037,316.132a9.106,9.106,0,0,0,9.079,9.079,3.027,3.027,0,1,1,0,6.053,5.465,5.465,0,0,1-3.934-2.3,3.028,3.028,0,0,0-4.631,3.9,12.223,12.223,0,0,0,5.538,3.934v3.541a3.026,3.026,0,0,0,6.053,0V336.8a9.082,9.082,0,0,0-3.026-17.644,3.027,3.027,0,1,1,0-6.053,4.868,4.868,0,0,1,3.269,1.574,3.018,3.018,0,0,0,4.207-4.328,11.863,11.863,0,0,0-4.449-2.784v-3.541a3.027,3.027,0,0,0-6.053,0v3.541A9.079,9.079,0,0,0,290.037,316.132Z" transform="translate(-166.877 -210.556)"/>
    </g>
    <g id="shopping-cart" transform="translate(140.377 467.244)">
      <path id="Path_4964" data-name="Path 4964" d="M191.87,171.572a8.563,8.563,0,0,1,0,17.126H78.308a8.587,8.587,0,0,1-8.325-6.594L37.409,43.126H18.539a8.563,8.563,0,0,1,0-17.126H44.154a8.587,8.587,0,0,1,8.325,6.594c2.775,11.86,29.671,126.519,32.574,138.978Z" transform="translate(-5.718 -5.718)" fill="#79e6c3"/>
      <path id="Path_4965" data-name="Path 4965" d="M207.126,406A17.126,17.126,0,1,1,190,423.126,17.121,17.121,0,0,1,207.126,406Z" transform="translate(-108.892 -223.534)" fill="#79e6c3"/>
      <path id="Path_4966" data-name="Path 4966" d="M373.126,406A17.126,17.126,0,1,1,356,423.126,17.121,17.121,0,0,1,373.126,406Z" transform="translate(-204.125 -223.534)" fill="#79e6c3"/>
      <path id="Path_4967" data-name="Path 4967" d="M390.281,444.563A4.282,4.282,0,1,0,386,440.282,4.294,4.294,0,0,0,390.281,444.563Z" transform="translate(-221.163 -240.689)"/>
      <path id="Path_4968" data-name="Path 4968" d="M224.282,444.563A4.282,4.282,0,1,0,220,440.282,4.294,4.294,0,0,0,224.282,444.563Z" transform="translate(-126.051 -240.689)"/>
      <path id="Path_4969" data-name="Path 4969" d="M217.77,68.873A4.293,4.293,0,0,0,214.4,67.25H60.646L50.908,25.866A12.754,12.754,0,0,0,38.438,16H12.813a12.813,12.813,0,1,0,0,25.625h15.46l31.86,135.343A12.754,12.754,0,0,0,72.6,186.833h8.542a21.354,21.354,0,1,0,34.167,0h36.729a21.354,21.354,0,1,0,34.167,0h0a12.812,12.812,0,1,0,0-25.625H82.769l-4.015-17.083H190.607a12.754,12.754,0,0,0,12.428-9.695L218.5,72.589A4.267,4.267,0,0,0,217.77,68.873Zm-15.247,32.544H175.232l3.2-25.625h30.494Zm-50.481,8.542H165.58l-3.2,25.625H139.229V122.771a4.271,4.271,0,0,0-8.542,0v12.812H107.54l-3.2-25.625h13.539a4.271,4.271,0,1,0,0-8.542H103.269l-3.2-25.625h30.622V88.6a4.271,4.271,0,1,0,8.542,0V75.792h30.622l-3.2,25.625H152.042a4.271,4.271,0,0,0,0,8.542ZM91.481,75.792l3.2,25.625H68.675L62.653,75.792Zm19.56,123.854a12.812,12.812,0,1,1-12.812-12.812A12.85,12.85,0,0,1,111.042,199.646Zm70.9,0a12.813,12.813,0,1,1-12.812-12.812A12.85,12.85,0,0,1,181.938,199.646Zm4.271-29.9a4.271,4.271,0,0,1,0,8.542H72.6A4.215,4.215,0,0,1,68.461,175l-33.4-141.92H12.813a4.271,4.271,0,0,1,0-8.542H38.438A4.215,4.215,0,0,1,42.58,27.83L69.145,140.708h0l6.833,29.042ZM70.682,109.958H95.709l3.2,25.625H76.7Zm124.11,22.379a4.249,4.249,0,0,1-4.143,3.246H170.961l3.2-25.625h26.223Z"/>
      <path id="Path_4970" data-name="Path 4970" d="M310.282,216a4.282,4.282,0,1,0,4.281,4.282A4.294,4.294,0,0,0,310.282,216Z" transform="translate(-175.326 -114.593)"/>
    </g>
    <g id="tag" transform="translate(630.975 698.987)">
      <path id="Path_4971" data-name="Path 4971" d="M135.113,33.579a6.056,6.056,0,1,0,0,8.564A6.064,6.064,0,0,0,135.113,33.579Zm8.534-8.564a18.34,18.34,0,0,1,.212,25.9l12.983,12.62a6.064,6.064,0,0,1,0,8.564l-85.4,85.038a6.064,6.064,0,0,1-8.564,0L49.47,143.736a18.459,18.459,0,0,1-24.513-24.513L11.52,105.786a6.064,6.064,0,0,1,0-8.564l85.069-85.4a6.064,6.064,0,0,1,8.564,0L117.773,24.8A18.3,18.3,0,0,1,143.648,25.015Z" transform="translate(-6.768 -7.003)" fill="#79e6c3"/>
      <path id="Path_4972" data-name="Path 4972" d="M65.1,138.709,137.239,66.6l42.733,42.733-72.139,72.109Z" transform="translate(-45.291 -46.361)" fill="#fff"/>
      <path id="Path_4973" data-name="Path 4973" d="M245.732,181.629a6.084,6.084,0,1,1-8.6,0A6.092,6.092,0,0,1,245.732,181.629Z" transform="translate(-164.123 -125.442)" fill="#79e6c3"/>
      <path id="Path_4974" data-name="Path 4974" d="M247.461,299.081A6.08,6.08,0,1,1,241.38,293,6.1,6.1,0,0,1,247.461,299.081Z" transform="translate(-164.088 -204.356)" fill="#79e6c3"/>
      <path id="Path_4975" data-name="Path 4975" d="M165.951,195.051a3.031,3.031,0,1,0-4.287,0A3.028,3.028,0,0,0,165.951,195.051Z" transform="translate(-112.103 -132.422)"/>
      <path id="Path_4976" data-name="Path 4976" d="M241.183,185.483a9.115,9.115,0,1,0-12.891,0A9.12,9.12,0,0,0,241.183,185.483Zm-8.6-8.6a3.031,3.031,0,1,1,0,4.287A3.028,3.028,0,0,1,232.58,176.88Z" transform="translate(-157.355 -118.531)"/>
      <path id="Path_4977" data-name="Path 4977" d="M228.293,285.641a9.115,9.115,0,1,0,12.891,0A9.12,9.12,0,0,0,228.293,285.641Zm8.6,8.6a3.031,3.031,0,1,1,0-4.287A3.028,3.028,0,0,1,236.9,294.245Z" transform="translate(-157.355 -197.365)"/>
      <path id="Path_4978" data-name="Path 4978" d="M174.959,244.451a3.046,3.046,0,0,0,3.587,2.371l42.989-8.6a3.041,3.041,0,0,0-1.216-5.959l-42.989,8.6A3.046,3.046,0,0,0,174.959,244.451Z" transform="translate(-122.05 -161.957)"/>
      <path id="Path_4979" data-name="Path 4979" d="M130.536,56.6a3.122,3.122,0,0,0-2.146.877L96.647,89.219a3.014,3.014,0,0,0,4.263,4.263l29.626-29.6,38.484,38.484-67.868,67.868L62.668,131.753,83.83,110.592a3.014,3.014,0,1,0-4.263-4.263L56.259,129.637a3.011,3.011,0,0,0,0,4.263l42.746,42.746a3.011,3.011,0,0,0,4.263,0l72.13-72.13a3.011,3.011,0,0,0,0-4.263L132.682,57.477A2.992,2.992,0,0,0,130.536,56.6Z" transform="translate(-38.522 -39.401)"/>
      <path id="Path_4980" data-name="Path 4980" d="M149.815.869,136.83,13.884a21.433,21.433,0,0,0-25.577-.242L100.629,2.685l-.03-.03a9.052,9.052,0,0,0-12.834,0L2.681,88.1a9.079,9.079,0,0,0,0,12.834L14.7,112.952A21.508,21.508,0,0,0,42.06,140.315l12.016,12.016a9.079,9.079,0,0,0,12.834,0l85.447-85.084a9.079,9.079,0,0,0,0-12.834l-.03-.03L141.37,43.759a21.343,21.343,0,0,0-.242-25.577L154.113,5.2a3.014,3.014,0,0,0,0-4.268A3.052,3.052,0,0,0,149.815.869ZM135.044,41.761a3.033,3.033,0,0,0,.03,4.3l12.985,12.622a3.042,3.042,0,0,1,0,4.268L62.612,148.033a3.014,3.014,0,0,1-4.268,0L44.905,134.624a3.047,3.047,0,0,0-2.149-.878,3.1,3.1,0,0,0-1.271.272,15.431,15.431,0,0,1-20.492-20.492,3.007,3.007,0,0,0-.605-3.42L6.979,96.7a3.051,3.051,0,0,1,0-4.3L92.033,6.923a3.014,3.014,0,0,1,4.268,0l12.592,12.985a3.022,3.022,0,0,0,4.3.03,15.254,15.254,0,0,1,19.281-1.725l-4.419,4.449a9.055,9.055,0,1,0,4.3,4.268l4.449-4.449A15.236,15.236,0,0,1,135.044,41.761Zm-8.778-13.046a3.018,3.018,0,1,1-4.268,0A3.014,3.014,0,0,1,126.266,28.716Z" transform="translate(0 0)"/>
    </g>
    <path id="Path_4999" data-name="Path 4999" d="M13.414-10.26l-.608-2.28Q12.274-14.4,11.8-16.492T10.792-20.52H10.64q-.418,1.976-.912,4.047T8.7-12.54l-.608,2.28Zm1.14,4.37h-7.6L5.434,0h-5.7l7.79-24.776h6.688L22,0H16.074ZM21.66-18.848h5.624l2.432,8.892q.38,1.406.741,2.869T31.2-4.142h.152q.342-1.482.7-2.945t.741-2.869l2.47-8.892h5.358L34.466,0h-6.46ZM42.332-9.424a10.722,10.722,0,0,1,.76-4.123,9.756,9.756,0,0,1,2-3.116,8.672,8.672,0,0,1,2.831-1.957,8.311,8.311,0,0,1,3.306-.684,8.407,8.407,0,0,1,3.515.684,6.942,6.942,0,0,1,2.508,1.9,8.055,8.055,0,0,1,1.5,2.869,12.492,12.492,0,0,1,.494,3.591,11.587,11.587,0,0,1-.076,1.387q-.076.627-.152.969H47.728a4.714,4.714,0,0,0,1.691,3.135A5.252,5.252,0,0,0,52.63-3.8,7.757,7.757,0,0,0,56.7-5.054l1.862,3.382A12.379,12.379,0,0,1,55.347-.114a11.283,11.283,0,0,1-3.477.57,10.492,10.492,0,0,1-3.762-.665,8.67,8.67,0,0,1-3.04-1.938,8.862,8.862,0,0,1-2.014-3.1A11.293,11.293,0,0,1,42.332-9.424Zm12.16-1.938a4.522,4.522,0,0,0-.722-2.66,2.765,2.765,0,0,0-2.432-1.026A3.415,3.415,0,0,0,49-14.155a4.564,4.564,0,0,0-1.311,2.793Zm8.816-7.486h4.56l.38,3.306H68.4a7.292,7.292,0,0,1,2.47-2.85,5.372,5.372,0,0,1,2.888-.912,7.421,7.421,0,0,1,1.311.095,4.006,4.006,0,0,1,.931.285L75.088-14.1a9.013,9.013,0,0,0-.988-.228,6.547,6.547,0,0,0-1.064-.076,4.075,4.075,0,0,0-2.223.76,5.5,5.5,0,0,0-1.919,2.7V0H63.308Zm13.528,13.6A5.277,5.277,0,0,1,79.344-9.88q2.508-1.672,8.094-2.242a3.118,3.118,0,0,0-.76-1.995,2.875,2.875,0,0,0-2.2-.741,6.884,6.884,0,0,0-2.432.456,17.081,17.081,0,0,0-2.584,1.254l-1.976-3.686A19.758,19.758,0,0,1,81.3-18.62a12.974,12.974,0,0,1,4.237-.684,7.216,7.216,0,0,1,5.567,2.071q1.919,2.071,1.919,6.441V0h-4.56l-.418-1.938h-.114A11.854,11.854,0,0,1,85.367-.209a6.569,6.569,0,0,1-2.945.665A5.863,5.863,0,0,1,80.1.019,5.046,5.046,0,0,1,78.356-1.2,5.628,5.628,0,0,1,77.235-3,6.134,6.134,0,0,1,76.836-5.244Zm5.32-.418a1.57,1.57,0,0,0,.589,1.349,2.587,2.587,0,0,0,1.577.437,3.149,3.149,0,0,0,1.672-.418,7.987,7.987,0,0,0,1.444-1.178V-8.778A10.2,10.2,0,0,0,83.3-7.562,2.3,2.3,0,0,0,82.156-5.662Zm19.266,8.018a1.741,1.741,0,0,0,1.14,1.615,7.051,7.051,0,0,0,3.04.551,6.456,6.456,0,0,0,3.116-.665A1.925,1.925,0,0,0,109.934,2.2a1.156,1.156,0,0,0-.741-1.178,5.9,5.9,0,0,0-2.147-.3h-1.938q-.988,0-1.6-.057a7.2,7.2,0,0,1-1.064-.171A2.553,2.553,0,0,0,101.422,2.356Zm-4.6.874q0-2.28,2.7-3.8V-.722a4.227,4.227,0,0,1-1.254-1.254,3.493,3.493,0,0,1-.494-1.938,3.523,3.523,0,0,1,.608-1.957A5.809,5.809,0,0,1,99.9-7.448V-7.6a6.371,6.371,0,0,1-1.767-1.957,5.528,5.528,0,0,1-.779-2.945A6.511,6.511,0,0,1,98-15.485a6.311,6.311,0,0,1,1.729-2.128,7.354,7.354,0,0,1,2.489-1.273,10.213,10.213,0,0,1,2.926-.418,8.552,8.552,0,0,1,2.926.456h6.878v4.066h-3a3.791,3.791,0,0,1,.437,1.064,5.483,5.483,0,0,1,.171,1.406,6.526,6.526,0,0,1-.57,2.831,5.381,5.381,0,0,1-1.577,1.976,6.832,6.832,0,0,1-2.356,1.159,10.683,10.683,0,0,1-2.907.38,7.412,7.412,0,0,1-2.28-.38,1.907,1.907,0,0,0-.532.608,1.791,1.791,0,0,0-.152.8,1.132,1.132,0,0,0,.627,1.064,5.066,5.066,0,0,0,2.223.342h3.04a10.375,10.375,0,0,1,5.339,1.121,3.96,3.96,0,0,1,1.843,3.667,5.182,5.182,0,0,1-.741,2.717A6.621,6.621,0,0,1,112.4,6.1,11.308,11.308,0,0,1,109.1,7.505a17.1,17.1,0,0,1-4.37.513,15.8,15.8,0,0,1-3.1-.285,9.266,9.266,0,0,1-2.508-.855A4.5,4.5,0,0,1,97.432,5.4,3.813,3.813,0,0,1,96.824,3.23Zm8.322-12.578a2.44,2.44,0,0,0,1.843-.779,3.336,3.336,0,0,0,.741-2.375,3.158,3.158,0,0,0-.741-2.261,2.44,2.44,0,0,0-1.843-.779,2.47,2.47,0,0,0-1.843.76,3.146,3.146,0,0,0-.741,2.28,3.336,3.336,0,0,0,.741,2.375A2.44,2.44,0,0,0,105.146-9.348ZM116.7-9.424a10.722,10.722,0,0,1,.76-4.123,9.756,9.756,0,0,1,2-3.116,8.672,8.672,0,0,1,2.831-1.957,8.311,8.311,0,0,1,3.306-.684,8.407,8.407,0,0,1,3.515.684,6.942,6.942,0,0,1,2.508,1.9,8.055,8.055,0,0,1,1.5,2.869,12.492,12.492,0,0,1,.494,3.591,11.585,11.585,0,0,1-.076,1.387q-.076.627-.152.969H122.094a4.714,4.714,0,0,0,1.691,3.135A5.252,5.252,0,0,0,127-3.8a7.757,7.757,0,0,0,4.066-1.254l1.862,3.382a12.379,12.379,0,0,1-3.211,1.558,11.283,11.283,0,0,1-3.477.57,10.492,10.492,0,0,1-3.762-.665,8.67,8.67,0,0,1-3.04-1.938,8.862,8.862,0,0,1-2.014-3.1A11.293,11.293,0,0,1,116.7-9.424Zm12.16-1.938a4.522,4.522,0,0,0-.722-2.66,2.765,2.765,0,0,0-2.432-1.026,3.415,3.415,0,0,0-2.337.893,4.564,4.564,0,0,0-1.311,2.793ZM156.256.456a11.446,11.446,0,0,1-4.579-.893A9.956,9.956,0,0,1,148.124-3a11.782,11.782,0,0,1-2.3-4.066,16.778,16.778,0,0,1-.817-5.434,16.606,16.606,0,0,1,.817-5.415,11.2,11.2,0,0,1,2.3-3.99,9.87,9.87,0,0,1,3.553-2.47,11.889,11.889,0,0,1,4.579-.855,11.889,11.889,0,0,1,4.579.855,9.763,9.763,0,0,1,3.553,2.489,11.4,11.4,0,0,1,2.3,4.009A16.477,16.477,0,0,1,167.5-12.5a16.778,16.778,0,0,1-.817,5.434A11.782,11.782,0,0,1,164.388-3a9.956,9.956,0,0,1-3.553,2.565A11.446,11.446,0,0,1,156.256.456Zm0-4.826a4.627,4.627,0,0,0,4.028-2.185,10.46,10.46,0,0,0,1.482-5.947,9.918,9.918,0,0,0-1.482-5.814,4.684,4.684,0,0,0-4.028-2.09,4.7,4.7,0,0,0-4.009,2.09,9.823,9.823,0,0,0-1.5,5.814,13.1,13.1,0,0,0,.4,3.363,8.66,8.66,0,0,0,1.1,2.565,4.942,4.942,0,0,0,1.729,1.634A4.615,4.615,0,0,0,156.256-4.37Zm15.656-14.478h4.56l.38,3.306H177a7.292,7.292,0,0,1,2.47-2.85,5.372,5.372,0,0,1,2.888-.912,7.421,7.421,0,0,1,1.311.095,4.006,4.006,0,0,1,.931.285l-.912,4.826a9.013,9.013,0,0,0-.988-.228,6.547,6.547,0,0,0-1.064-.076,4.075,4.075,0,0,0-2.223.76,5.5,5.5,0,0,0-1.919,2.7V0h-5.586Zm13.946,9.424a12.04,12.04,0,0,1,.665-4.142,10.025,10.025,0,0,1,1.748-3.1,7.582,7.582,0,0,1,2.508-1.957,6.652,6.652,0,0,1,2.907-.684,5.679,5.679,0,0,1,2.622.532,9.306,9.306,0,0,1,2.014,1.444l-.228-2.888v-6.422h5.586V0h-4.56l-.38-1.862h-.152A8.836,8.836,0,0,1,196.27-.209a5.975,5.975,0,0,1-2.7.665A7.238,7.238,0,0,1,190.4-.228a6.848,6.848,0,0,1-2.432-1.957,9.241,9.241,0,0,1-1.558-3.1A14.321,14.321,0,0,1,185.858-9.424ZM191.6-9.5a7.357,7.357,0,0,0,.893,4.1A2.893,2.893,0,0,0,195.016-4.1a3.569,3.569,0,0,0,1.653-.38,4.2,4.2,0,0,0,1.425-1.33v-7.714a4.456,4.456,0,0,0-1.558-.95,4.911,4.911,0,0,0-1.558-.266,2.984,2.984,0,0,0-2.356,1.273A6.289,6.289,0,0,0,191.6-9.5Zm16.112.076a10.722,10.722,0,0,1,.76-4.123,9.756,9.756,0,0,1,1.995-3.116,8.672,8.672,0,0,1,2.831-1.957A8.311,8.311,0,0,1,216.6-19.3a8.407,8.407,0,0,1,3.515.684,6.942,6.942,0,0,1,2.508,1.9,8.055,8.055,0,0,1,1.5,2.869,12.492,12.492,0,0,1,.494,3.591,11.585,11.585,0,0,1-.076,1.387q-.076.627-.152.969H213.1a4.714,4.714,0,0,0,1.691,3.135,5.252,5.252,0,0,0,3.211.969,7.757,7.757,0,0,0,4.066-1.254l1.862,3.382a12.379,12.379,0,0,1-3.211,1.558,11.283,11.283,0,0,1-3.477.57,10.492,10.492,0,0,1-3.762-.665,8.67,8.67,0,0,1-3.04-1.938,8.862,8.862,0,0,1-2.014-3.1A11.293,11.293,0,0,1,207.708-9.424Zm12.16-1.938a4.522,4.522,0,0,0-.722-2.66,2.765,2.765,0,0,0-2.432-1.026,3.415,3.415,0,0,0-2.337.893,4.564,4.564,0,0,0-1.311,2.793Zm8.816-7.486h4.56l.38,3.306h.152a7.292,7.292,0,0,1,2.47-2.85,5.372,5.372,0,0,1,2.888-.912,7.421,7.421,0,0,1,1.311.095,4.006,4.006,0,0,1,.931.285l-.912,4.826a9.013,9.013,0,0,0-.988-.228,6.547,6.547,0,0,0-1.064-.076,4.075,4.075,0,0,0-2.223.76,5.5,5.5,0,0,0-1.919,2.7V0h-5.586Zm20.634-5.928h5.928l3,11.552q.532,2.052.969,3.971t1.007,3.971h.152q.57-2.052,1.007-3.971t.969-3.971l2.926-11.552h5.738L263.53,0H256.8Zm22.04,19.532a5.277,5.277,0,0,1,2.508-4.636q2.508-1.672,8.094-2.242a3.118,3.118,0,0,0-.76-1.995,2.875,2.875,0,0,0-2.2-.741,6.884,6.884,0,0,0-2.432.456,17.081,17.081,0,0,0-2.584,1.254L272-16.834a19.759,19.759,0,0,1,3.819-1.786,12.974,12.974,0,0,1,4.237-.684,7.216,7.216,0,0,1,5.567,2.071q1.919,2.071,1.919,6.441V0h-4.56l-.418-1.938h-.114a11.855,11.855,0,0,1-2.565,1.729,6.569,6.569,0,0,1-2.945.665,5.863,5.863,0,0,1-2.318-.437A5.046,5.046,0,0,1,272.878-1.2,5.628,5.628,0,0,1,271.757-3,6.134,6.134,0,0,1,271.358-5.244Zm5.32-.418a1.57,1.57,0,0,0,.589,1.349,2.587,2.587,0,0,0,1.577.437,3.149,3.149,0,0,0,1.672-.418,7.988,7.988,0,0,0,1.444-1.178V-8.778a10.2,10.2,0,0,0-4.142,1.216A2.3,2.3,0,0,0,276.678-5.662Zm15.846-20.976h5.586V-5.624a1.771,1.771,0,0,0,.323,1.216.926.926,0,0,0,.665.342h.323a1.222,1.222,0,0,0,.361-.076L300.466,0a5.935,5.935,0,0,1-1.159.323,9,9,0,0,1-1.653.133A5.788,5.788,0,0,1,295.222,0a3.929,3.929,0,0,1-1.577-1.273,5.406,5.406,0,0,1-.855-1.976,11.668,11.668,0,0,1-.266-2.6Zm10.868,7.79h5.586V-7.866a4.955,4.955,0,0,0,.57,2.812,2.087,2.087,0,0,0,1.786.76,3.089,3.089,0,0,0,1.786-.494,7.2,7.2,0,0,0,1.558-1.6V-18.848h5.586V0H315.7l-.418-2.622h-.114a10.209,10.209,0,0,1-2.6,2.261,6.438,6.438,0,0,1-3.325.817,5.034,5.034,0,0,1-4.465-2.014,9.74,9.74,0,0,1-1.387-5.586Zm20.862,9.424a10.723,10.723,0,0,1,.76-4.123,9.756,9.756,0,0,1,1.995-3.116,8.672,8.672,0,0,1,2.831-1.957,8.311,8.311,0,0,1,3.306-.684,8.407,8.407,0,0,1,3.515.684,6.942,6.942,0,0,1,2.508,1.9,8.055,8.055,0,0,1,1.5,2.869,12.492,12.492,0,0,1,.494,3.591,11.582,11.582,0,0,1-.076,1.387q-.076.627-.152.969H329.65a4.714,4.714,0,0,0,1.691,3.135,5.252,5.252,0,0,0,3.211.969,7.757,7.757,0,0,0,4.066-1.254l1.862,3.382a12.379,12.379,0,0,1-3.211,1.558,11.283,11.283,0,0,1-3.477.57,10.492,10.492,0,0,1-3.762-.665,8.67,8.67,0,0,1-3.04-1.938,8.862,8.862,0,0,1-2.014-3.1A11.294,11.294,0,0,1,324.254-9.424Zm12.16-1.938a4.522,4.522,0,0,0-.722-2.66,2.765,2.765,0,0,0-2.432-1.026,3.415,3.415,0,0,0-2.337.893,4.564,4.564,0,0,0-1.311,2.793Z" transform="translate(111 734)"/>
    <path id="Path_5001" data-name="Path 5001" d="M7.752-20.064H.912v-4.712H20.14v4.712h-6.8V0H7.752ZM19.57-9.424a10.934,10.934,0,0,1,.76-4.2,9.211,9.211,0,0,1,2.033-3.1,8.774,8.774,0,0,1,2.945-1.919,9.275,9.275,0,0,1,3.458-.665,9.131,9.131,0,0,1,3.439.665,8.822,8.822,0,0,1,2.926,1.919,9.211,9.211,0,0,1,2.033,3.1,10.934,10.934,0,0,1,.76,4.2,10.934,10.934,0,0,1-.76,4.2,9.211,9.211,0,0,1-2.033,3.1A8.822,8.822,0,0,1,32.205-.209a9.131,9.131,0,0,1-3.439.665,9.275,9.275,0,0,1-3.458-.665,8.774,8.774,0,0,1-2.945-1.919,9.211,9.211,0,0,1-2.033-3.1A10.934,10.934,0,0,1,19.57-9.424Zm5.738,0a7.667,7.667,0,0,0,.855,3.914,2.824,2.824,0,0,0,2.6,1.444A2.835,2.835,0,0,0,31.35-5.51a7.53,7.53,0,0,0,.874-3.914,7.53,7.53,0,0,0-.874-3.914,2.835,2.835,0,0,0-2.584-1.444,2.824,2.824,0,0,0-2.6,1.444A7.667,7.667,0,0,0,25.308-9.424Zm17.214-5.054H39.938V-18.62l2.888-.228.646-5.016h4.636v5.016H52.63v4.37H48.108v7.562a3.28,3.28,0,0,0,.665,2.3,2.318,2.318,0,0,0,1.767.7,3.981,3.981,0,0,0,.931-.114,6.211,6.211,0,0,0,.855-.266L53.2-.228Q52.44,0,51.414.228A11.131,11.131,0,0,1,49.02.456a7.522,7.522,0,0,1-2.983-.532,5.224,5.224,0,0,1-2.014-1.482,6.03,6.03,0,0,1-1.14-2.3,11.529,11.529,0,0,1-.361-2.983ZM55.176-5.244A5.277,5.277,0,0,1,57.684-9.88q2.508-1.672,8.094-2.242a3.118,3.118,0,0,0-.76-1.995,2.875,2.875,0,0,0-2.2-.741,6.884,6.884,0,0,0-2.432.456A17.081,17.081,0,0,0,57.8-13.148l-1.976-3.686a19.758,19.758,0,0,1,3.819-1.786,12.974,12.974,0,0,1,4.237-.684,7.216,7.216,0,0,1,5.567,2.071q1.919,2.071,1.919,6.441V0H66.8l-.418-1.938h-.114A11.854,11.854,0,0,1,63.707-.209a6.569,6.569,0,0,1-2.945.665A5.863,5.863,0,0,1,58.444.019,5.046,5.046,0,0,1,56.7-1.2,5.628,5.628,0,0,1,55.575-3,6.134,6.134,0,0,1,55.176-5.244Zm5.32-.418a1.57,1.57,0,0,0,.589,1.349,2.587,2.587,0,0,0,1.577.437,3.149,3.149,0,0,0,1.672-.418,7.987,7.987,0,0,0,1.444-1.178V-8.778a10.2,10.2,0,0,0-4.142,1.216A2.3,2.3,0,0,0,60.5-5.662ZM76.152-26.638h5.586V-5.624a1.771,1.771,0,0,0,.323,1.216.926.926,0,0,0,.665.342h.323a1.222,1.222,0,0,0,.361-.076L84.094,0a5.936,5.936,0,0,1-1.159.323,9,9,0,0,1-1.653.133A5.788,5.788,0,0,1,78.85,0a3.929,3.929,0,0,1-1.577-1.273,5.406,5.406,0,0,1-.855-1.976,11.669,11.669,0,0,1-.266-2.6Zm24.814,13.262h2.85a5.266,5.266,0,0,0,3.363-.931,3.323,3.323,0,0,0,1.159-2.755,2.758,2.758,0,0,0-1.159-2.546,6.41,6.41,0,0,0-3.363-.722h-2.85ZM108.756,0l-4.75-8.93h-3.04V0H95.342V-24.776h8.93a17.238,17.238,0,0,1,3.705.38,8.63,8.63,0,0,1,3.04,1.273,6.287,6.287,0,0,1,2.071,2.375,8.025,8.025,0,0,1,.76,3.686,7.771,7.771,0,0,1-1.216,4.5,7.466,7.466,0,0,1-3.192,2.641L115.026,0Zm8.056-9.424a10.722,10.722,0,0,1,.76-4.123,9.756,9.756,0,0,1,2-3.116A8.672,8.672,0,0,1,122.4-18.62,8.311,8.311,0,0,1,125.7-19.3a8.407,8.407,0,0,1,3.515.684,6.942,6.942,0,0,1,2.508,1.9,8.055,8.055,0,0,1,1.5,2.869,12.492,12.492,0,0,1,.494,3.591,11.585,11.585,0,0,1-.076,1.387q-.076.627-.152.969H122.208A4.714,4.714,0,0,0,123.9-4.769a5.252,5.252,0,0,0,3.211.969,7.757,7.757,0,0,0,4.066-1.254l1.862,3.382a12.379,12.379,0,0,1-3.211,1.558,11.283,11.283,0,0,1-3.477.57,10.492,10.492,0,0,1-3.762-.665,8.67,8.67,0,0,1-3.04-1.938,8.862,8.862,0,0,1-2.014-3.1A11.293,11.293,0,0,1,116.812-9.424Zm12.16-1.938a4.522,4.522,0,0,0-.722-2.66,2.765,2.765,0,0,0-2.432-1.026,3.415,3.415,0,0,0-2.337.893,4.564,4.564,0,0,0-1.311,2.793Zm6.384-7.486h5.624l2.432,8.892q.38,1.406.741,2.869t.741,2.945h.152q.342-1.482.7-2.945t.741-2.869l2.47-8.892h5.358L148.162,0H141.7Zm20.482,9.424a10.722,10.722,0,0,1,.76-4.123,9.756,9.756,0,0,1,1.995-3.116,8.672,8.672,0,0,1,2.831-1.957,8.311,8.311,0,0,1,3.306-.684,8.407,8.407,0,0,1,3.515.684,6.942,6.942,0,0,1,2.508,1.9,8.055,8.055,0,0,1,1.5,2.869,12.492,12.492,0,0,1,.494,3.591,11.585,11.585,0,0,1-.076,1.387q-.076.627-.152.969H161.234a4.714,4.714,0,0,0,1.691,3.135,5.252,5.252,0,0,0,3.211.969A7.757,7.757,0,0,0,170.2-5.054l1.862,3.382a12.379,12.379,0,0,1-3.211,1.558,11.283,11.283,0,0,1-3.477.57,10.492,10.492,0,0,1-3.762-.665,8.67,8.67,0,0,1-3.04-1.938,8.862,8.862,0,0,1-2.014-3.1A11.293,11.293,0,0,1,155.838-9.424ZM168-11.362a4.522,4.522,0,0,0-.722-2.66,2.765,2.765,0,0,0-2.432-1.026,3.415,3.415,0,0,0-2.337.893,4.564,4.564,0,0,0-1.311,2.793Zm8.626-7.486h4.56l.38,2.394h.152a15.2,15.2,0,0,1,2.66-1.995,6.514,6.514,0,0,1,3.382-.855,5.034,5.034,0,0,1,4.465,2.014A9.74,9.74,0,0,1,193.61-11.7V0h-5.586V-10.982a5.1,5.1,0,0,0-.551-2.812,2.034,2.034,0,0,0-1.767-.76,3.372,3.372,0,0,0-1.824.475,10.677,10.677,0,0,0-1.672,1.349V0h-5.586Zm21.546,0h5.586V-7.866a4.955,4.955,0,0,0,.57,2.812,2.087,2.087,0,0,0,1.786.76,3.089,3.089,0,0,0,1.786-.494,7.2,7.2,0,0,0,1.558-1.6V-18.848h5.586V0h-4.56l-.418-2.622h-.114a10.208,10.208,0,0,1-2.6,2.261,6.438,6.438,0,0,1-3.325.817,5.034,5.034,0,0,1-4.465-2.014,9.74,9.74,0,0,1-1.387-5.586Zm20.672,9.424a10.722,10.722,0,0,1,.76-4.123,9.756,9.756,0,0,1,1.995-3.116,8.672,8.672,0,0,1,2.831-1.957,8.311,8.311,0,0,1,3.306-.684,8.407,8.407,0,0,1,3.515.684,6.942,6.942,0,0,1,2.508,1.9,8.055,8.055,0,0,1,1.5,2.869,12.492,12.492,0,0,1,.494,3.591,11.585,11.585,0,0,1-.076,1.387q-.076.627-.152.969H224.238a4.714,4.714,0,0,0,1.691,3.135,5.252,5.252,0,0,0,3.211.969,7.757,7.757,0,0,0,4.066-1.254l1.862,3.382a12.379,12.379,0,0,1-3.211,1.558,11.283,11.283,0,0,1-3.477.57,10.492,10.492,0,0,1-3.762-.665,8.67,8.67,0,0,1-3.04-1.938,8.862,8.862,0,0,1-2.014-3.1A11.293,11.293,0,0,1,218.842-9.424ZM231-11.362a4.522,4.522,0,0,0-.722-2.66,2.765,2.765,0,0,0-2.432-1.026,3.415,3.415,0,0,0-2.337.893,4.564,4.564,0,0,0-1.311,2.793Z" transform="translate(590 569)"/>
    <path id="Path_5000" data-name="Path 5000" d="M7.752-20.064H.912v-4.712H20.14v4.712h-6.8V0H7.752ZM19.57-9.424a10.934,10.934,0,0,1,.76-4.2,9.211,9.211,0,0,1,2.033-3.1,8.774,8.774,0,0,1,2.945-1.919,9.275,9.275,0,0,1,3.458-.665,9.131,9.131,0,0,1,3.439.665,8.822,8.822,0,0,1,2.926,1.919,9.211,9.211,0,0,1,2.033,3.1,10.934,10.934,0,0,1,.76,4.2,10.934,10.934,0,0,1-.76,4.2,9.211,9.211,0,0,1-2.033,3.1A8.822,8.822,0,0,1,32.205-.209a9.131,9.131,0,0,1-3.439.665,9.275,9.275,0,0,1-3.458-.665,8.774,8.774,0,0,1-2.945-1.919,9.211,9.211,0,0,1-2.033-3.1A10.934,10.934,0,0,1,19.57-9.424Zm5.738,0a7.667,7.667,0,0,0,.855,3.914,2.824,2.824,0,0,0,2.6,1.444A2.835,2.835,0,0,0,31.35-5.51a7.53,7.53,0,0,0,.874-3.914,7.53,7.53,0,0,0-.874-3.914,2.835,2.835,0,0,0-2.584-1.444,2.824,2.824,0,0,0-2.6,1.444A7.667,7.667,0,0,0,25.308-9.424Zm17.214-5.054H39.938V-18.62l2.888-.228.646-5.016h4.636v5.016H52.63v4.37H48.108v7.562a3.28,3.28,0,0,0,.665,2.3,2.318,2.318,0,0,0,1.767.7,3.981,3.981,0,0,0,.931-.114,6.211,6.211,0,0,0,.855-.266L53.2-.228Q52.44,0,51.414.228A11.131,11.131,0,0,1,49.02.456a7.522,7.522,0,0,1-2.983-.532,5.224,5.224,0,0,1-2.014-1.482,6.03,6.03,0,0,1-1.14-2.3,11.529,11.529,0,0,1-.361-2.983ZM55.176-5.244A5.277,5.277,0,0,1,57.684-9.88q2.508-1.672,8.094-2.242a3.118,3.118,0,0,0-.76-1.995,2.875,2.875,0,0,0-2.2-.741,6.884,6.884,0,0,0-2.432.456A17.081,17.081,0,0,0,57.8-13.148l-1.976-3.686a19.758,19.758,0,0,1,3.819-1.786,12.974,12.974,0,0,1,4.237-.684,7.216,7.216,0,0,1,5.567,2.071q1.919,2.071,1.919,6.441V0H66.8l-.418-1.938h-.114A11.854,11.854,0,0,1,63.707-.209a6.569,6.569,0,0,1-2.945.665A5.863,5.863,0,0,1,58.444.019,5.046,5.046,0,0,1,56.7-1.2,5.628,5.628,0,0,1,55.575-3,6.134,6.134,0,0,1,55.176-5.244Zm5.32-.418a1.57,1.57,0,0,0,.589,1.349,2.587,2.587,0,0,0,1.577.437,3.149,3.149,0,0,0,1.672-.418,7.987,7.987,0,0,0,1.444-1.178V-8.778a10.2,10.2,0,0,0-4.142,1.216A2.3,2.3,0,0,0,60.5-5.662ZM76.152-26.638h5.586V-5.624a1.771,1.771,0,0,0,.323,1.216.926.926,0,0,0,.665.342h.323a1.222,1.222,0,0,0,.361-.076L84.094,0a5.936,5.936,0,0,1-1.159.323,9,9,0,0,1-1.653.133A5.788,5.788,0,0,1,78.85,0a3.929,3.929,0,0,1-1.577-1.273,5.406,5.406,0,0,1-.855-1.976,11.669,11.669,0,0,1-.266-2.6ZM105.412.456a11.446,11.446,0,0,1-4.579-.893A9.956,9.956,0,0,1,97.28-3a11.782,11.782,0,0,1-2.3-4.066,16.778,16.778,0,0,1-.817-5.434,16.605,16.605,0,0,1,.817-5.415,11.2,11.2,0,0,1,2.3-3.99,9.87,9.87,0,0,1,3.553-2.47,11.889,11.889,0,0,1,4.579-.855,11.889,11.889,0,0,1,4.579.855,9.763,9.763,0,0,1,3.553,2.489,11.4,11.4,0,0,1,2.3,4.009,16.477,16.477,0,0,1,.817,5.377,16.778,16.778,0,0,1-.817,5.434A11.782,11.782,0,0,1,113.544-3a9.956,9.956,0,0,1-3.553,2.565A11.446,11.446,0,0,1,105.412.456Zm0-4.826a4.627,4.627,0,0,0,4.028-2.185,10.46,10.46,0,0,0,1.482-5.947,9.918,9.918,0,0,0-1.482-5.814,4.684,4.684,0,0,0-4.028-2.09,4.7,4.7,0,0,0-4.009,2.09A9.823,9.823,0,0,0,99.9-12.5a13.1,13.1,0,0,0,.4,3.363,8.66,8.66,0,0,0,1.1,2.565,4.942,4.942,0,0,0,1.729,1.634A4.615,4.615,0,0,0,105.412-4.37Zm15.466-14.478h4.56l.38,3.306h.152a7.292,7.292,0,0,1,2.47-2.85,5.372,5.372,0,0,1,2.888-.912,7.42,7.42,0,0,1,1.311.095,4.006,4.006,0,0,1,.931.285l-.912,4.826a9.013,9.013,0,0,0-.988-.228,6.547,6.547,0,0,0-1.064-.076,4.075,4.075,0,0,0-2.223.76,5.5,5.5,0,0,0-1.919,2.7V0h-5.586Zm13.756,9.424a12.04,12.04,0,0,1,.665-4.142,10.025,10.025,0,0,1,1.748-3.1,7.582,7.582,0,0,1,2.508-1.957,6.652,6.652,0,0,1,2.907-.684,5.679,5.679,0,0,1,2.622.532,9.306,9.306,0,0,1,2.014,1.444l-.228-2.888v-6.422h5.586V0H147.9l-.38-1.862h-.152a8.836,8.836,0,0,1-2.318,1.653,5.975,5.975,0,0,1-2.7.665,7.238,7.238,0,0,1-3.173-.684,6.848,6.848,0,0,1-2.432-1.957,9.241,9.241,0,0,1-1.558-3.1A14.321,14.321,0,0,1,134.634-9.424Zm5.738-.076a7.357,7.357,0,0,0,.893,4.1A2.893,2.893,0,0,0,143.792-4.1a3.569,3.569,0,0,0,1.653-.38,4.2,4.2,0,0,0,1.425-1.33v-7.714a4.456,4.456,0,0,0-1.558-.95,4.911,4.911,0,0,0-1.558-.266,2.984,2.984,0,0,0-2.356,1.273A6.289,6.289,0,0,0,140.372-9.5Zm15.922.076a10.722,10.722,0,0,1,.76-4.123,9.756,9.756,0,0,1,1.995-3.116,8.672,8.672,0,0,1,2.831-1.957,8.311,8.311,0,0,1,3.306-.684,8.407,8.407,0,0,1,3.515.684,6.942,6.942,0,0,1,2.508,1.9,8.055,8.055,0,0,1,1.5,2.869,12.492,12.492,0,0,1,.494,3.591,11.585,11.585,0,0,1-.076,1.387q-.076.627-.152.969H161.69a4.714,4.714,0,0,0,1.691,3.135,5.252,5.252,0,0,0,3.211.969,7.757,7.757,0,0,0,4.066-1.254l1.862,3.382a12.379,12.379,0,0,1-3.211,1.558,11.283,11.283,0,0,1-3.477.57,10.492,10.492,0,0,1-3.762-.665,8.67,8.67,0,0,1-3.04-1.938,8.862,8.862,0,0,1-2.014-3.1A11.293,11.293,0,0,1,156.294-9.424Zm12.16-1.938a4.522,4.522,0,0,0-.722-2.66,2.765,2.765,0,0,0-2.432-1.026,3.415,3.415,0,0,0-2.337.893,4.564,4.564,0,0,0-1.311,2.793Zm8.626-7.486h4.56l.38,3.306h.152a7.292,7.292,0,0,1,2.47-2.85,5.372,5.372,0,0,1,2.888-.912,7.421,7.421,0,0,1,1.311.095,4.006,4.006,0,0,1,.931.285L188.86-14.1a9.013,9.013,0,0,0-.988-.228,6.547,6.547,0,0,0-1.064-.076,4.075,4.075,0,0,0-2.223.76,5.5,5.5,0,0,0-1.919,2.7V0H177.08ZM192.66-5.662a11.372,11.372,0,0,0,2.47,1.482,6.139,6.139,0,0,0,2.394.494,3.125,3.125,0,0,0,1.824-.418,1.376,1.376,0,0,0,.57-1.178A1.193,1.193,0,0,0,199.6-6.1a3.3,3.3,0,0,0-.874-.665,8.609,8.609,0,0,0-1.235-.551q-.684-.247-1.406-.551a17.814,17.814,0,0,1-1.748-.8,7.393,7.393,0,0,1-1.6-1.121,5.5,5.5,0,0,1-1.178-1.558,4.494,4.494,0,0,1-.456-2.071,5.6,5.6,0,0,1,.513-2.394,5.122,5.122,0,0,1,1.463-1.862,7.215,7.215,0,0,1,2.28-1.2,9.461,9.461,0,0,1,2.964-.437,9.121,9.121,0,0,1,3.8.741,15.193,15.193,0,0,1,2.85,1.653l-2.508,3.344a9.877,9.877,0,0,0-2.014-1.178,5.036,5.036,0,0,0-1.976-.418q-2.128,0-2.128,1.482a1.1,1.1,0,0,0,.3.779,3.018,3.018,0,0,0,.817.589,10.55,10.55,0,0,0,1.178.513l1.387.513q.912.342,1.805.779a7.474,7.474,0,0,1,1.634,1.083,4.957,4.957,0,0,1,1.2,1.577,5.008,5.008,0,0,1,.456,2.223,5.785,5.785,0,0,1-.494,2.394,5.27,5.27,0,0,1-1.482,1.919,7.4,7.4,0,0,1-2.432,1.292,10.706,10.706,0,0,1-3.344.475,11,11,0,0,1-3.819-.722,11.777,11.777,0,0,1-3.4-1.9Z" transform="translate(606 660)"/>
    <g id="Group_5237" data-name="Group 5237">
      <rect id="Rectangle_3818" data-name="Rectangle 3818" width="22" height="8" transform="translate(398 597)"/>
      <rect id="Rectangle_3819" data-name="Rectangle 3819" width="22" height="8" transform="translate(398 607)"/>
    </g>
    <rect id="Rectangle_3820" data-name="Rectangle 3820" width="487" height="12" transform="translate(465 600)"/>
  </g>
</svg>
