<?xml version="1.0" encoding="utf-8"?>
<!-- Generator: Adobe Illustrator 23.1.0, SVG Export Plug-In . SVG Version: 6.00 Build 0)  -->
<svg version="1.1" xmlns="http://www.w3.org/2000/svg" xmlns:xlink="http://www.w3.org/1999/xlink" x="0px" y="0px"
	 viewBox="0 0 500 500" style="enable-background:new 0 0 500 500;" xml:space="preserve">
<style type="text/css">
	.st0{fill:#F2F9F8;}
	.st1{fill:#37474F;}
	.st2{fill:#455A64;}
	.st3{fill:#263238;}
	.st4{clip-path:url(#XMLID_3_);}
	.st5{fill:#FFA8A7;}
	.st6{fill:#27DEBF;}
	.st7{fill:#EBEBEB;}
	.st8{opacity:0.1;}
	.st9{fill:#FAFAFA;}
	.st10{fill:#E0E0E0;}
	.st11{fill:#F28F8F;}
	.st12{fill:#F0F0F0;}
	.st13{fill:#9A4A4D;}
	.st14{fill:#B16668;}
</style>
<g id="Pencils">
	<path id="Floor_8_" class="st0" d="M102.7,429.9c87.9,45.9,230.4,45.9,318.2,0c87.9-45.9,87.9-120.3,0-166.3
		c-87.9-45.9-230.4-45.9-318.3,0C14.8,309.5,14.8,383.9,102.7,429.9z"/>
	<g id="Pencil_Can">
		<g id="Can">
			<path id="XMLID_3401_" class="st1" d="M257.3,159.5h-84l9.4,77.3h0c0.4,4.5,3.6,8.9,9.5,12.3c12.8,7.4,33.5,7.4,46.2,0
				c5.9-3.4,9.1-7.8,9.5-12.3h0L257.3,159.5z"/>
			<path id="XMLID_3385_" class="st2" d="M185.6,142.4c16.4-9.5,43-9.5,59.4,0c16.4,9.5,16.4,24.8,0,34.3c-16.4,9.5-43,9.5-59.4,0
				C169.2,167.2,169.2,151.8,185.6,142.4z"/>
			<path id="XMLID_3396_" class="st3" d="M215.3,178.9c-10.4,0-20.1-2.3-27.3-6.5c-6.4-3.7-9.9-8.3-9.9-12.9c0-4.7,3.5-9.3,9.9-12.9
				c7.2-4.2,16.9-6.5,27.3-6.5c10.4,0,20.1,2.3,27.3,6.5c6.4,3.7,9.9,8.3,9.9,12.9c0,4.7-3.5,9.3-9.9,12.9
				C235.4,176.6,225.7,178.9,215.3,178.9z"/>
		</g>
		<g id="XMLID_5201_">
			<defs>
				<path id="XMLID_5200_" d="M214.8,178.9c-10.4,0-20.1-2.3-27.3-6.5c-6.4-3.7-9.9-8.3-9.9-12.9c0-4.7-15.7-118.2-15.7-118.2
					l37.6-30.9l74.7,27.1c0,0-21.7,117.3-21.7,122c0,4.7-3.9,9.5-10.3,13.2C235,176.9,225.1,178.9,214.8,178.9z"/>
			</defs>
			<clipPath id="XMLID_3_">
				<use xlink:href="#XMLID_5200_"  style="overflow:visible;"/>
			</clipPath>
			<g id="Pencil_1_" class="st4">
				<path id="XMLID_873_" class="st5" d="M238.6,223l-15.5,29.5c-0.5,0.9-1.7,0.7-1.9-0.3l-5.7-33L238.6,223z"/>
				<path id="XMLID_1_" class="st5" d="M238.6,223l-15.5,29.5c-0.5,0.9-1.7,0.7-1.9-0.3l-5.7-33L238.6,223z"/>
				<path id="XMLID_801_" class="st3" d="M221.2,252.2c0.2,1,1.4,1.2,1.9,0.3l3-5.8l0,0c-2,0.7-4.2,0.2-5.7-1.2l-0.4-0.4
					L221.2,252.2z"/>
				<g>
					<path id="XMLID_800_" class="st6" d="M237.4,80.3l-0.5,3l-0.6,3.7l-20.8,132.1c2,3.2,5.4,5.1,9,6.1c5.5,1.4,11.5,0.5,14-2.3
						l20.7-131.2l1.1-7C259.4,89.3,236.5,84.8,237.4,80.3z"/>
					<g>
						<path id="XMLID_795_" class="st7" d="M235.5,91.9l-1.1,6.8c-0.4,2,3.6,3.9,8.4,5.1c6.3,1.6,14.1,1.9,14.6-0.7l0.8-5l0.3-1.8
							c-0.5,2.6-8.2,2.3-14.6,0.7c-4.6-1.2-8.5-3-8.4-4.9l0,0C235.5,92,235.5,91.9,235.5,91.9z"/>
						<path id="XMLID_794_" class="st6" d="M235.3,93.6c-0.9,4.6,22.1,9,23,4.4l1.1-6.8c-0.9,4.6-23.8,0.1-23-4.4L235.3,93.6z"/>
						<path id="XMLID_791_" class="st7" d="M237.4,80.3l-1.1,6.7c-0.9,4.5,21.2,8.9,22.9,4.8c0-0.1,0.1-0.2,0.1-0.2l1-6.8
							C259.4,89.3,236.5,84.8,237.4,80.3z"/>
					</g>
					<path id="XMLID_790_" class="st8" d="M259.2,91.8l1.1-7c-0.4,2-5.4,2.2-10.5,1.4l0,0l-21,139.7l-5.8,26.6l15.5-29.5l0,0l0,0
						L259.2,91.8z"/>
				</g>
				<path id="XMLID_709_" class="st5" d="M241.9,51.7l-4.5,28.5c-0.4,1.9,3.6,3.9,8.3,5.1c6.3,1.6,14.1,2,14.6-0.6c0,0,0,0,0,0
					l4.3-27.4c1.5-6.3-10.1-11-17.4-9.7C244.6,48.1,242.5,49.4,241.9,51.7z"/>
			</g>
			<g id="Pencil" class="st4">
				<path id="XMLID_883_" class="st6" d="M188.5,216.5l-0.4-3.1l-0.5-3.7L169.1,77.3c1.7,1.8,6.2,2.7,11,2.2
					c5.7-0.6,10.9-2.9,12.1-5.6l18.4,131.5l1,7C210.7,207.9,187.7,211.9,188.5,216.5z"/>
				<g>
					<path id="XMLID_882_" class="st7" d="M186.9,204.9l-0.9-6.8c-0.3-2,3.7-3.8,8.5-4.9c6.4-1.5,14.1-1.7,14.6,0.9l0.7,5l0.2,1.8
						c-0.5-2.6-8.2-2.4-14.6-0.9c-4.6,1.1-8.5,2.8-8.5,4.7l0,0C186.9,204.7,186.9,204.8,186.9,204.9z"/>
					<path id="XMLID_881_" class="st6" d="M186.7,203.2c-0.8-4.6,22.2-8.6,23-4l1,6.8c-0.8-4.6-23.8-0.6-23,4L186.7,203.2z"/>
					<path id="XMLID_880_" class="st7" d="M188.5,216.5l-1-6.7c-0.8-4.5,21.4-8.6,23-4.4c0,0.1,0.1,0.2,0.1,0.3l0.9,6.8
						C210.7,207.9,187.7,211.9,188.5,216.5z"/>
				</g>
				<g id="XMLID_322_">
					<path id="XMLID_323_" class="st5" d="M178.5,51.2c-3.4,0.9-4.6,0.2-4.6,0.2l-4.9,25.9c2.7,3.8,9.2,4.6,14.7,3l-0.2-1.3
						L178.5,51.2z"/>
					<path id="XMLID_885_" class="st9" d="M192.2,73.8L192.2,73.8L192.2,73.8L192.2,73.8C192.2,73.9,192.2,73.8,192.2,73.8l-12.1-24
						h0L192.2,73.8z"/>
					<polygon id="XMLID_889_" class="st10" points="180.1,49.9 177.2,44.1 180.1,49.9 					"/>
					<path id="XMLID_966_" class="st2" d="M175.3,44.3l-1.3,7c0,0,1.1,0.8,4.6-0.2l-1.3-7.1v0c-0.3-0.5-0.9-0.7-1.3-0.5
						C175.6,43.7,175.4,44,175.3,44.3z"/>
					<path id="XMLID_967_" class="st8" d="M210.6,205.3L192.2,73.9c-1.3,3.1-4.6,5.4-8.4,6.4l17.3,130.5l0,0
						c5.2-0.7,10.1-0.4,10.5,1.6L210.6,205.3z"/>
					<path id="XMLID_981_" class="st11" d="M192.2,73.9L192.2,73.9L192.2,73.9L192.2,73.9l-12-24c-0.4,0.6-0.9,1.1-1.6,1.3l5.1,27.8
						l0.2,1.3C187.6,79.2,190.9,77,192.2,73.9z"/>
					<path id="XMLID_984_" class="st1" d="M178.5,51.2c0.8-0.2,1.5-1,1.6-1.3l-2.9-5.8L178.5,51.2z"/>
				</g>
				<path id="XMLID_878_" class="st11" d="M192.6,245.1l-4-28.6c-0.4-1.9,3.6-3.8,8.4-4.9c6.4-1.5,14.1-1.8,14.6,0.8c0,0,0,0,0,0
					l3.9,27.5c1.4,6.3-10.3,10.8-17.6,9.4C195.2,248.8,193.1,247.5,192.6,245.1z"/>
			</g>
			<g id="Brush" class="st4">
				<g id="XMLID_911_">
					<path id="XMLID_913_" class="st6" d="M207.9,65.3L207.9,65.3c0,0-4.5,35.9-4.5,71.4c0,35.2,6.5,73.6,7.8,79.6c0,0,0,0,0,0.1
						c0,0,0,0.1,0,0.1l0,0c0.2,0.8,0.7,1.4,1.5,1.8c1.3,0.6,2.9-0.1,3.4-1.4c0.1-0.2,0.1-0.4,0.2-0.6l0,0c0,0,8.7-45.2,8.8-79.8
						s-4.4-71.1-4.4-71.1l0,0c-0.1-0.8-0.7-1.7-1.9-2.3c-2.5-1.4-6.6-1.4-9.1,0C208.6,63.6,208,64.4,207.9,65.3z"/>
					<path id="XMLID_912_" class="st8" d="M216.1,216.8c0.1-0.2,0.1-0.4,0.2-0.6l0,0c0,0,8.7-45.2,8.8-79.8c0-23.3-2-47.4-3.3-60.7
						l-8.1,1.4c0,0,1.3,141-1,141.1C214,218.7,215.6,218.1,216.1,216.8z"/>
				</g>
				<g>
					<path id="XMLID_788_" class="st12" d="M214.2,61.9c1.1-2.1,7.2-13.4,5.3-22.7c-1.1,0-2.3-0.2-3.6-0.8c-4.4-1.8-3.9-5.7-7-7.4
						c-3.2-1.7-6.9,3.6-7,3.6l0,0c-1.5,4.7-3.4,9.7-1.7,16.8c2.2,9.1,7.7,13.9,7.7,13.9l12.8,0c0.8-1.2,1.7-2.5,2.6-3.8
						c-0.9,1.4-1.8,2.6-2.6,3.8L214.2,61.9z"/>
					<path id="XMLID_951_" class="st8" d="M228.5,41.2c-2.7-3.3-5.5-1.9-9-2c2,9.2-4.1,20.6-5.3,22.7l6.4,3.4
						c0.8-1.2,1.7-2.5,2.6-3.8c0.2-0.3,0.4-0.7,0.7-1.1c0.4-0.7,0.9-1.5,1.3-2.3c0.6-1.2,1.2-2.5,1.7-3.8c0.3-0.9,0.6-1.9,0.9-2.9
						c0.5-2,0.9-4.3,1-6.8C228.7,43.4,228.7,42.3,228.5,41.2z"/>
				</g>
				<g>
					<path class="st6" d="M228.5,41.2c-0.1-0.6-0.2-1.1-0.3-1.7c0-0.1,0-0.1,0-0.2c-0.1-0.4-0.2-0.8-0.4-1.2
						c-0.1-0.2-0.1-0.3-0.2-0.5c0-0.1-0.1-0.2-0.1-0.4c-0.1-0.2-0.2-0.4-0.3-0.6c-0.1-0.3-0.2-0.5-0.3-0.8c-0.3-0.6-0.6-1.1-0.9-1.6
						c-0.3-0.5-0.6-1-1-1.5c-0.3-0.5-0.7-1-1.1-1.4c-2.6-3.2-5.8-5.5-8.5-6.9c-0.2-0.1-0.5-0.3-0.7-0.4c-0.1,0-0.1-0.1-0.2-0.1
						c-0.3-0.1-0.6-0.3-0.8-0.4c-1.9-0.8-3.6-1.3-5.2-1.7c-0.8-0.2-1.6-0.3-2.3-0.4c-0.7-0.1-1.4-0.2-2-0.2c-0.3,0-0.6,0-0.9-0.1
						c-0.3,0-0.5,0-0.8,0c-0.5,0-0.9,0-1.2,0c-0.7,0-1,0.1-1,0.1s3.3,3.1,2.5,9.3c-0.1,1.3-0.5,2.6-1,4c0,0,3.8-5.3,7-3.6
						c3.2,1.7,2.6,5.6,7,7.4c1.3,0.5,2.5,0.7,3.6,0.8C223,39.3,225.8,38,228.5,41.2C228.5,41.2,228.5,41.2,228.5,41.2z"/>
					<path id="XMLID_965_" class="st8" d="M200.4,21.3c0,0,10.1,2,17.3,13.2c0.9,1.4,1.5,3,1.9,4.6c3.5,0.1,6.3-1.2,9,2c0,0,0,0,0,0
						c-0.1-0.6-0.2-1.1-0.3-1.7c0-0.1,0-0.1,0-0.2c-0.1-0.4-0.2-0.8-0.4-1.2c-0.1-0.2-0.1-0.3-0.2-0.5c0-0.1-0.1-0.2-0.1-0.4
						c-0.1-0.2-0.2-0.4-0.3-0.6c-0.1-0.3-0.2-0.5-0.3-0.8c-0.3-0.6-0.6-1.1-0.9-1.6c-0.3-0.5-0.6-1-1-1.5c-0.3-0.5-0.7-1-1.1-1.4
						c-2.6-3.2-5.8-5.5-8.5-6.9c-0.2-0.1-0.5-0.3-0.7-0.4c-0.1,0-0.1-0.1-0.2-0.1c-0.3-0.1-0.6-0.3-0.8-0.4
						c-1.9-0.8-3.6-1.3-5.2-1.7c-0.8-0.2-1.6-0.3-2.3-0.4c-0.7-0.1-1.4-0.2-2-0.2c-0.3,0-0.6,0-0.9-0.1c-0.3,0-0.5,0-0.8,0
						c-0.5,0-0.9,0-1.2,0C200.7,21.3,200.4,21.3,200.4,21.3L200.4,21.3z"/>
				</g>
				<g id="XMLID_886_">
					<path id="XMLID_888_" class="st2" d="M220.6,65.3c-0.1-0.8-0.7-1.7-1.9-2.3c-2.5-1.4-6.6-1.4-9.1,0c-1.1,0.7-1.8,1.5-1.9,2.4
						c-0.6,5-1.2,10.4-1.7,16.2c0.1-1.1,0.9-2.2,2.4-3.1c3.2-1.8,8.3-1.8,11.4,0c1.5,0.9,2.3,2,2.4,3.1
						C221.7,75.2,221.1,69.3,220.6,65.3z"/>
					<path id="XMLID_887_" class="st1" d="M213.7,77.1c2.3-0.1,4.6,0.4,6.3,1.4c1.5,0.9,2.3,2,2.4,3.1c-0.6-6.3-1.2-12.2-1.7-16.3
						c-0.1-0.8-0.7-1.7-1.9-2.3c-1.3-0.7-2.9-1.1-4.6-1.1l-0.1,0.1L213.7,77.1L213.7,77.1z"/>
				</g>
			</g>
		</g>
	</g>
	<path class="st11" d="M260.3,84.8C260.4,84.8,260.4,84.8,260.3,84.8l4.4-27.5c0.1-0.3,0.1-0.6,0.1-0.9c-1.8,4.7-10.8,2.3-10.8,2.3
		l-4.2,27.4C255,87,259.9,86.8,260.3,84.8z"/>
	<g id="Draw">
		<g id="XMLID_294_">
			<path id="XMLID_279_" class="st7" d="M256.3,438.6l-102.3-59c-0.7-0.4-1.2-1.3-1.2-2.1v-1.6c0-0.8,0.5-1.7,1.2-2.1l124.7-72
				c0.7-0.4,1.7-0.4,2.4,0l102.3,59c0.7,0.4,1.2,1.3,1.2,2.1v1.6c0,0.8-0.5,1.7-1.2,2.1l-124.7,72C258,438.9,257,438.9,256.3,438.6z
				"/>
			<path id="XMLID_280_" class="st9" d="M383.4,362.3l-124.7,72c-0.7,0.4-1.7,0.4-2.4,0l-102.3-59c-0.7-0.4-0.7-1,0-1.4l124.7-72
				c0.7-0.4,1.7-0.4,2.4,0l102.3,59C384,361.3,384,361.9,383.4,362.3z"/>
			<path id="XMLID_293_" class="st9" d="M383.4,362.3l-124.7,72c-0.7,0.4-1.7,0.4-2.4,0l-102.3-59c-0.7-0.4-0.7-1,0-1.4l124.7-72
				c0.7-0.4,1.7-0.4,2.4,0l102.3,59C384,361.3,384,361.9,383.4,362.3z"/>
			<path id="XMLID_343_" class="st10" d="M257.5,434.9v3.9c-0.4,0-0.9-0.1-1.2-0.3l-102.3-59c-0.7-0.4-1.2-1.3-1.2-2.1v-1.6
				c0-0.7,0.4-1.5,1-1.9c-0.4,0.4-0.4,0.9,0.2,1.2l102.3,59c0.1,0.1,0.2,0.1,0.3,0.1L257.5,434.9z"/>
		</g>
		<g id="Rocket">
			<g id="XMLID_789_">
				<path id="XMLID_571_" class="st2" d="M195.9,369.2c0,0,0,0.1,0,0.2c0,0.1-0.1,0.1-0.1,0.1l-0.6,0.2l-13.3,0.7
					c-0.4,0-0.8,0.3-1,0.7c-0.2,0.4-0.1,0.7,0.3,0.7l12.5,0.6l0.3,0.2c0,0,0,0.1-0.1,0.1c-0.1,0.2-0.4,0.3-0.6,0.3l-12.6-0.6
					c-0.7,0-0.9-0.6-0.5-1.4c0.4-0.7,1.4-1.3,2.1-1.4l13.4-0.7C195.8,369,195.9,369.1,195.9,369.2z"/>
			</g>
			<g id="XMLID_786_">
				<path id="XMLID_798_" class="st2" d="M313,361.2c0,0.1,0,0.1-0.1,0.2c-0.1,0.2-0.4,0.3-0.6,0.3c0,0-3.3-0.4-9.4-0.9
					c-0.2,0-0.2-0.2-0.1-0.4c0.1-0.2,0.4-0.3,0.6-0.3c6.1,0.5,9.4,0.9,9.4,0.9C313,361,313,361.1,313,361.2z"/>
			</g>
			<g id="XMLID_782_">
				<path id="XMLID_797_" class="st2" d="M302,380.4c0,0,0,0.1,0,0.1c-0.1,0.2-0.3,0.4-0.5,0.4c0,0-3.8,0.4-10.5,0.9
					c-0.2,0-0.3-0.1-0.2-0.3c0.1-0.2,0.3-0.4,0.5-0.4c6.7-0.5,10.4-0.9,10.5-0.9C301.9,380.2,302,380.2,302,380.4z"/>
			</g>
			<g id="XMLID_779_">
				<path id="XMLID_796_" class="st2" d="M287.8,359.1c0,0.1,0,0.1-0.1,0.2c-0.1,0.2-0.4,0.3-0.6,0.3c-5.6-0.3-11.4-0.6-17.3-0.9
					c-27-1.1-35.9-0.1-44.1,1.2c-8.9,1.4-31.5,9.6-33.4,11.1c0.2,1.5,13.4,9.7,20.6,11.1c6.7,1.3,14.5,2.3,42.8,1.1
					c6.2-0.3,12.3-0.6,18.3-0.9c0.2,0,0.3,0.1,0.2,0.3c-0.1,0.2-0.3,0.4-0.6,0.4c-6,0.4-12.1,0.7-18.3,0.9
					c-28.3,1.2-36.2,0.2-42.9-1.1c-6.5-1.3-21.9-9.9-20.8-11.8c1.1-1.8,26.5-10.6,34.4-11.8c8.2-1.3,17.2-2.3,44.3-1.2
					c5.9,0.2,11.7,0.5,17.3,0.9C287.7,358.9,287.8,359,287.8,359.1z"/>
			</g>
			<g id="XMLID_778_">
				<path id="XMLID_793_" class="st2" d="M237.3,365.1c-0.7-1.6-2.3-2.4-4.5-2.4c-2.2,0-4.8,0.9-7.3,2.5c-1.2,0.8-2.4,1.7-3.4,2.7
					c-1,1-1.8,2.1-2.5,3.2c-1,1.8-1.4,3.4-1.2,4.9c0.3,2.2,2.1,3.5,4.8,3.5c2.2,0,4.8-0.9,7.3-2.5c2.5-1.6,4.6-3.7,5.9-5.9
					c0.8-1.4,1.3-2.8,1.3-4C237.7,366.3,237.5,365.7,237.3,365.1z M235.6,371c-1.2,2-3.1,4-5.4,5.4c-2.3,1.4-4.7,2.2-6.7,2.3
					c-2.5,0-4.1-1.2-4.4-3.2c0-0.2-0.1-0.5,0-0.8c0-1.1,0.4-2.4,1.2-3.7c1.2-2,3.1-4,5.4-5.4c2.3-1.4,4.7-2.2,6.7-2.2
					c2,0,3.5,0.8,4.1,2.2C237.1,367.1,236.8,369,235.6,371z"/>
				<path id="XMLID_620_" class="st6" d="M236.5,365.6c-0.6-1.4-2.1-2.2-4.1-2.2c-2,0-4.4,0.8-6.7,2.2c-2.3,1.5-4.2,3.4-5.4,5.4
					c-0.7,1.3-1.2,2.6-1.2,3.7c0,0.3,0,0.5,0,0.8c0.3,2,1.9,3.2,4.4,3.2c2,0,4.4-0.8,6.7-2.3c2.3-1.4,4.2-3.4,5.4-5.4
					C236.8,369,237.1,367.1,236.5,365.6z M233.8,371c-1.9,3.2-6,5.9-9.2,5.9c0,0,0,0,0,0c-3.2,0-4.3-2.6-2.5-5.9
					c1.9-3.2,6-5.9,9.2-5.9c2.2,0,3.4,1.2,3.4,3C234.7,369.1,234.4,370,233.8,371z"/>
			</g>
			<g id="XMLID_775_">
				<path id="XMLID_22_" class="st2" d="M213.3,362.7c-0.1,0-0.2,0-0.3,0c-6.3,2-20.5,6.9-21.4,8.4c-0.8,1.5,7.7,6.3,11.7,8.3
					c0.1,0,0.2,0,0.3,0c0.1,0,0.2-0.1,0.3-0.2c4.9-5.4,8.1-10.9,9.4-16.2c0,0,0,0,0-0.1C213.4,362.8,213.3,362.8,213.3,362.7z"/>
				<path id="XMLID_64_" class="st6" d="M212.5,363.5c-1.3,5-4.2,10-8.7,15.1c-6.1-3-11.2-6.6-11.4-7.5
					C193.6,370.2,202.8,366.6,212.5,363.5z"/>
			</g>
			<g id="XMLID_771_">
				<path id="XMLID_787_" class="st2" d="M313.1,362.1c0,0.8-0.3,2.1-1.1,4.2c-0.1,0.2-0.3,0.4-0.5,0.4c-0.2,0-0.3-0.1-0.2-0.3
					c1.3-3.2,1.1-4.5,1-4.8c-0.5-0.1-2.7-0.3-6.4-0.6c-0.1,1.3-0.6,3.3-2.2,6.5c-0.1,0.2-0.3,0.4-0.5,0.4c-0.2,0-0.3-0.1-0.2-0.3
					c1.7-3.6,2.1-5.7,2.1-6.8c0,0,0,0,0,0c0-0.1,0.1-0.3,0.2-0.4c0.1-0.1,0.3-0.2,0.4-0.2c4.6,0.4,7.1,0.7,7.1,0.7
					c0.1,0,0.1,0,0.1,0.1C313,361.1,313.2,361.4,313.1,362.1z"/>
			</g>
			<g id="XMLID_768_">
				<path id="XMLID_785_" class="st2" d="M306.8,375.3c0,0.1,0,0.1-0.1,0.2c-2.9,4-5,5.2-5.1,5.3c-0.1,0-0.2,0.1-0.2,0.1
					c0,0-2.9,0.3-8,0.7c-0.1,0-0.2-0.1-0.2-0.2c0-0.1,0.1-0.3,0.2-0.4c1.3-1.1,3.3-3.2,5.6-6.8c0.1-0.2,0.4-0.3,0.6-0.3
					c0.2,0,0.2,0.2,0.1,0.4c-2.1,3.2-3.9,5.2-5.3,6.5c4.1-0.3,6.5-0.6,7.1-0.7c0.4-0.3,2.2-1.6,4.5-4.8c0.1-0.2,0.4-0.3,0.6-0.3
					C306.8,375.1,306.8,375.2,306.8,375.3z"/>
			</g>
			<g id="XMLID_765_">
				<path id="XMLID_780_" class="st2" d="M319.6,389.2l-25.5,1.7l-2.5-9.7c0-0.1-0.1-0.1-0.1-0.1c-4.9-1.3-10.7-0.9-17.4,1.2
					c-0.1,0-0.3,0.1-0.4,0.2c-0.1,0.1-0.1,0.2-0.1,0.3l5.8,15.3c0,0.1,0.1,0.1,0.2,0.1l10,0.2c0,0,0.1,0,0.1,0l29.6-8.6
					c0.2-0.1,0.4-0.2,0.5-0.4c0,0,0-0.1,0-0.1C319.8,389.3,319.7,389.2,319.6,389.2z M289.9,397.8l-9.8-0.2l-5.6-14.8
					c6.2-1.9,11.7-2.2,16.2-1l2.6,9.7c0,0.1,0.1,0.1,0.2,0.1l22.9-1.5L289.9,397.8z"/>
				<path id="XMLID_1655_" class="st6" d="M316.4,390.1l-26.5,7.7l-9.8-0.2l-5.6-14.8c6.2-1.9,11.7-2.2,16.2-1l2.6,9.7
					c0,0.1,0.1,0.1,0.2,0.1L316.4,390.1z"/>
			</g>
			<g id="XMLID_762_">
				<path id="XMLID_774_" class="st2" d="M341.2,351.9l-19.8-8.5c0,0-0.1,0-0.1,0l-10.2,0.2c-0.1,0-0.2,0-0.3,0.1L287.3,359
					c-0.1,0.1-0.2,0.2-0.3,0.3c0,0.1,0,0.2,0.1,0.3c4.2,2.1,9.6,2.5,16,1.2c0.1,0,0.2-0.1,0.3-0.1l13.7-9.7l23.6,1.6
					c0.2,0,0.4-0.1,0.5-0.3c0.1-0.1,0.1-0.2,0.1-0.2C341.3,352,341.3,351.9,341.2,351.9z M317.3,350.2c-0.1,0-0.2,0-0.4,0.1
					l-13.8,9.8c-6,1.2-11,0.9-15.1-1l22.7-14.9l10-0.2l17.7,7.6L317.3,350.2z"/>
				<path id="XMLID_1652_" class="st6" d="M338.5,351.7l-21.2-1.5c-0.1,0-0.2,0-0.4,0.1l-13.8,9.8c-6,1.2-11,0.9-15.1-1l22.7-14.9
					l10-0.2L338.5,351.7z"/>
			</g>
			<g id="XMLID_759_">
				<path id="XMLID_769_" class="st2" d="M340.2,370.5l-24.9-4.8c0,0-0.1,0-0.1,0l-37,5c-0.2,0-0.4,0.2-0.5,0.4
					c-0.1,0.2-0.1,0.3,0.1,0.4l31.3,5h0.1l30.6-5.1c0.2,0,0.4-0.2,0.5-0.4c0-0.1,0.1-0.1,0.1-0.2
					C340.4,370.5,340.3,370.5,340.2,370.5z M309.6,375.6l-29-4.6l34.4-4.6l23.1,4.5L309.6,375.6z"/>
				<polygon id="XMLID_1657_" class="st6" points="337.9,370.8 309.6,375.6 280.5,371 314.9,366.3 				"/>
			</g>
			<g id="XMLID_749_">
				<g id="XMLID_750_">
					<g id="XMLID_755_">
						<path id="XMLID_764_" class="st2" d="M308.1,392.5C308,392.5,308,392.5,308.1,392.5l-2.9,0.8l-2.9,0.9l-3.2,0.9
							c-2.4,0.7-4.6,2.8-5.2,4.8c-0.6,2,0.8,3.2,3.1,2.7l3.1-0.7c0,0,0.1,0,0.1,0l2.8-0.6c0,0,0,0,0,0l2.8-0.6
							c1.5-0.4,2.7-2.7,3.2-4.6c0.2-0.7,0.3-1.4,0.4-2.1C309.3,393,309,392.3,308.1,392.5z M308.1,396.3c-0.5,1.9-1.5,3.6-2.2,3.8
							l-2,0.4l-0.9,0.2l-2,0.4l-0.9,0.2l-3,0.6c-1.6,0.3-2.7-0.3-2.6-1.6c0-0.2,0-0.4,0.1-0.6c0.5-1.6,2.3-3.3,4.2-3.9l3-0.9
							l0.9-0.3l2-0.6l1-0.3l2-0.6C308.5,393,308.7,394.4,308.1,396.3z"/>
					</g>
					<g id="XMLID_751_">
						<path id="XMLID_760_" class="st2" d="M305.8,393.8c-0.1-0.2-0.2-0.4-0.4-0.4c-0.1,0-0.1,0-0.2,0l-2.9,0.9
							c-0.2,0-0.3,0.2-0.4,0.3c-0.1,0.1-0.1,0.3,0,0.3c0,0,0.1,0,0.1,0.1c0.3,0.4,0.3,1.6-0.1,3c-0.4,1.4-1.1,2.7-1.7,3.4
							c0,0-0.1,0.1-0.1,0.1c-0.1,0.1-0.2,0.3-0.2,0.4c0,0.1,0.1,0.1,0.2,0.1c0,0,0.1,0,0.1,0l2.8-0.6c0,0,0,0,0,0
							c0.1,0,0.2-0.1,0.2-0.1c0.3-0.2,0.5-0.5,0.8-0.8c0.8-1,1.4-2.4,1.7-3.5c0.2-0.7,0.3-1.4,0.3-2
							C306,394.5,306,394.1,305.8,393.8z M304.9,397.2c-0.4,1.5-1.2,3-1.9,3.5l-2,0.4c0.7-1,1.3-2.3,1.6-3.4c0.3-1.1,0.5-2.3,0.2-3
							l2-0.6C305.3,394.4,305.3,395.6,304.9,397.2z"/>
						<path id="XMLID_770_" class="st6" d="M304.9,397.2c-0.4,1.5-1.2,3-1.9,3.5l-2,0.4c0.7-1,1.3-2.3,1.6-3.4
							c0.3-1.1,0.5-2.3,0.2-3l2-0.6C305.3,394.4,305.3,395.6,304.9,397.2z"/>
					</g>
				</g>
			</g>
			<g id="XMLID_612_">
				<g id="XMLID_619_">
					<g id="XMLID_743_">
						<path id="XMLID_754_" class="st2" d="M340.1,341.1l-2.1-0.6l-2.1-0.6l-2.4-0.7c-1.7-0.5-4.5,0.7-6.2,2.7
							c-1.7,2-1.9,4.1-0.3,4.8l2.1,0.9l1.9,0.8l1.9,0.8c0,0,0,0,0,0c0.4,0.1,1,0,2.4-1c0.8-0.7,1.8-1.6,2.7-2.6c0.9-1,1.6-2,2.1-2.8
							c0.3-0.6,0.4-1,0.4-1.2C340.5,341.3,340.3,341.1,340.1,341.1z M339.3,342.9c-0.4,0.7-1.1,1.7-1.9,2.6
							c-0.8,0.9-1.7,1.8-2.4,2.4c-0.7,0.5-1.2,0.8-1.4,0.7l-1.3-0.6l-0.7-0.3l-1.3-0.6h0l-0.6-0.3l-2-0.9c-1.3-0.6-1.2-2.3,0.2-3.9
							c1.4-1.6,3.6-2.6,5.1-2.2l2.2,0.6l0.7,0.2l1.5,0.4l0.7,0.2l1.5,0.4C339.7,341.8,339.6,342.3,339.3,342.9z"/>
					</g>
					<g id="XMLID_739_">
						<path id="XMLID_744_" class="st2" d="M338.1,340.6c0-0.1-0.1-0.1-0.1-0.1l-2.1-0.6c-0.1,0-0.3,0-0.4,0.1
							c-0.2,0.1-0.2,0.3-0.2,0.4c0,0,0,0,0,0c0,0,0,0.1,0,0.1c-0.1,0.6-1,2-2.2,3.4c-1.2,1.4-2.5,2.6-3.3,3c-0.1,0-0.1,0.1-0.2,0.1
							c-0.2,0.1-0.3,0.2-0.4,0.3c-0.1,0.1-0.1,0.3,0.1,0.3l1.9,0.8c0.1,0,0.1,0,0.2,0c0.3-0.1,0.6-0.2,1-0.4c1.1-0.7,2.4-2,3.5-3.2
							c1-1.2,2-2.6,2.4-3.5c0.1-0.2,0.1-0.4,0.1-0.5C338.1,340.7,338.1,340.7,338.1,340.6z M335.1,344.7c-1.3,1.5-2.8,2.8-3.5,3.1
							l-1.3-0.6c1.1-0.7,2.3-2,3.3-3.1c0.9-1.1,1.9-2.4,2.3-3.4l1.5,0.4C337.3,341.7,336.4,343.1,335.1,344.7z"/>
						<path id="XMLID_781_" class="st6" d="M337.3,341.1c0,0.5-0.9,2-2.2,3.5c-1.3,1.5-2.8,2.8-3.5,3.1l-1.3-0.6
							c1.1-0.7,2.3-2,3.3-3.1c0.9-1.1,1.9-2.4,2.3-3.4L337.3,341.1z"/>
					</g>
				</g>
			</g>
			<g id="XMLID_374_">
				<g id="XMLID_375_">
					<path id="XMLID_605_" class="st2" d="M231.4,365.2c-3.2,0-7.4,2.6-9.2,5.9c-1.9,3.2-0.7,5.9,2.5,5.9c0,0,0,0,0,0
						c3.2,0,7.4-2.6,9.2-5.9c0.6-1,0.9-2,0.9-2.8C234.8,366.4,233.6,365.2,231.4,365.2z M233.1,371c-1.6,2.8-5.3,5.2-8.1,5.2
						c-2.8,0-3.8-2.3-2.2-5.1c1.6-2.8,5.3-5.1,8.1-5.2C233.8,365.9,234.8,368.2,233.1,371z"/>
				</g>
			</g>
		</g>
	</g>
</g>
<g id="Character_2">
	<g>
		<path id="XMLID_175_" class="st13" d="M398.9,181c-4.2,5.6-12.6,15.5-16.8,20.7c-2.2,2.8-3.4,6.2-3.4,9.7c0,2.6,0.7,4.8,3.3,3.7
			c1.8-0.8,3-1.8,5.7-4.4c2.4-2.4,16.4-20.1,16.4-20.1s1.1-9.9,4.8-11c3.6-1.1-1.3-4.1-1.3-4.1C406.1,175.7,403.1,175.4,398.9,181z"
			/>
		<g id="Pencil_5_">
			<g id="XMLID_165_">
				<g id="XMLID_166_">
					<path id="XMLID_174_" class="st5" d="M347.7,313.7l-26.1,29.8c-0.8,0.9-2.2,0.3-2.1-0.9l2.6-39.8L347.7,313.7z"/>
					<path id="XMLID_173_" class="st3" d="M319.4,342.7c-0.1,1.2,1.4,1.7,2.1,0.9l5.1-5.8l0,0c-2.5,0.3-4.9-0.9-6.3-3l-0.4-0.6
						L319.4,342.7z"/>
					<path id="XMLID_172_" class="st6" d="M386,148.2l-1.4,3.4l-1.7,4.1L322,302.9c1.4,4.2,4.8,7.5,8.8,9.6c6,3.2,13.2,3.8,16.9,1.3
						L408,167.6l3.2-7.8C408.9,164.7,383.7,153.2,386,148.2z"/>
					<path id="XMLID_171_" class="st7" d="M380.6,161.1l-3.1,7.6c-1,2.2,3.1,5.5,8.3,8.2c6.9,3.6,15.7,6.1,17,3.3l2.3-5.6l0.8-2
						c-1.3,2.9-10.1,0.4-17-3.3c-5-2.6-9-5.8-8.4-8l0,0C380.5,161.3,380.5,161.2,380.6,161.1z"/>
					<path id="XMLID_170_" class="st6" d="M379.8,163c-2.3,5,23.1,16.5,25.4,11.5l3.1-7.6c-2.3,5-27.6-6.5-25.4-11.5L379.8,163z"/>
					<path id="XMLID_169_" class="st7" d="M386,148.2l-3.1,7.5c-2.3,4.9,22.1,16.3,25.2,11.9c0.1-0.1,0.1-0.2,0.2-0.3l3.1-7.6
						C408.9,164.7,383.7,153.2,386,148.2z"/>
					<path id="XMLID_168_" class="st8" d="M408,167.6l3.2-7.8c-1.1,2.2-6.8,1.1-12.6-1.3l0,0l-63.1,155.8l-14.1,29.2l26.1-29.8l0,0
						c0,0,0,0,0,0L408,167.6z"/>
					<path id="XMLID_167_" class="st5" d="M399.1,116.5L386,148.2c-1,2.1,3,5.5,8.2,8.2c6.9,3.6,15.8,6.2,17.1,3.4c0,0,0,0,0,0
						l12.7-30.6c3.5-6.9-8.7-15.5-17.4-16C403.2,113,400.5,113.9,399.1,116.5z"/>
					<path class="st11" d="M411.3,126.9l-12.6,31.6c5.1,2.1,10.2,3.2,12,1.9c0.2-0.1,0.3-0.3,0.4-0.4c0.1-0.1,0.1-0.2,0.2-0.2
						l13.1-31.5C422.7,132.1,411.3,126.9,411.3,126.9z"/>
				</g>
			</g>
		</g>
		<g id="Girl_1_">
			<g id="XMLID_139_">
				<polygon id="XMLID_164_" class="st14" points="450.7,336.3 443.5,338.4 440.4,327.9 447.7,325.4 				"/>
				<path id="XMLID_163_" class="st3" d="M442.4,334.8l-0.3-1c-0.6,0.5-0.8,6.9-2.5,10.6c-1.8,4-3.8,6.9-4.6,8.7
					c-1.1,2.4,3.2,3.7,7.9,1.4c2.3-1.2,6.1-4.2,6.7-6.1c0.6-1.9,0.4-4.5,0.9-5.9c0.5-1.4,2.1-3.4,2.2-4.9c0-0.8-0.8-2.4-1.5-3.7
					c-0.7-1.2-1.5-2.5-1.9-2.2c0,0.2,0.2,0.8,0.2,0.8c-0.4,0.7-1.5,2.2-3,2.9C445.4,335.9,442.8,336.1,442.4,334.8z"/>
				<path id="XMLID_162_" class="st1" d="M432.8,216.4c4.3,5.6,5.1,11.3,4.2,27.7c-0.9,16.3-1.2,30-1,30.9c0.2,0.9,5.4,7.5,7,13.4
					c1.7,6,6.1,39.8,6.1,39.8s-2.5,3.7-8.2,3.7c0,0-18.1-49.4-19.4-53.1c-1.2-3.7-9-42.3-9-42.3l1.2-21.8L432.8,216.4z"/>
				<path id="XMLID_161_" class="st3" d="M413.9,168.4h6c7.9,0,14.2-6.4,14.2-14.2l0,0c0-9.5-7.7-17.2-17.2-17.2l0,0
					c-9.5,0-17.2,7.7-17.2,17.2l0,0C399.7,162,406,168.4,413.9,168.4z"/>
				
					<rect id="XMLID_160_" x="397.3" y="322.4" transform="matrix(0.9999 1.319662e-02 -1.319662e-02 0.9999 4.3614 -5.2639)" class="st14" width="7.5" height="11"/>
				<path id="XMLID_159_" class="st1" d="M399.6,235.2c0.7-7.5,2.3-20.6,2.3-20.6l19.3-1.1c3.1,4.9,1.8,12.9,0.9,20.3l-11,43.1
					c0.2,2.1,2.1,6.4,0,17.5c-2.4,12.4-5.9,30.2-5.9,30.2s-5.5,2.8-8.2-0.2c0,0-1.5-40.3-0.4-51
					C397.6,261.7,399.2,240.3,399.6,235.2z"/>
				<path id="XMLID_158_" class="st3" d="M397.3,329.6l0-1.1c-0.7,0.3-2.8,6.3-5.5,9.3c-3,3.3-5.7,5.4-7,6.9c-1.8,2,1.9,4.5,7.1,3.7
					c2.6-0.4,7.1-2.2,8.2-3.8c1.1-1.7,1.7-4.1,2.6-5.4c0.9-1.2,3-2.6,3.6-4c0.3-0.8,0-2.5-0.4-4c-0.3-1.3-0.7-2.8-1.1-2.7
					c0,0.2,0,0.8,0,0.8c-0.6,0.6-2.1,1.6-3.8,1.9C399.8,331.5,397.3,330.9,397.3,329.6z"/>
				<g id="XMLID_156_">
					<path id="XMLID_157_" class="st12" d="M404.2,199.5c-0.5,4.4-3.3,23.5-3.3,23.5c14.5,7.7,32.5,2.6,35.3-0.6
						c-2.5-8.2-5.2-12.9-7.2-15.1l3.1-12.1c0,0-7-7.5-0.8-19.2l-7.7-0.6l-11.3-0.3c-2.7,0.2-4.6,0.4-4.6,0.4
						c-1.4,2.2-3.5,6.2-5.3,10.8C401.2,189.2,400,193.4,404.2,199.5z"/>
				</g>
				<g id="XMLID_154_">
					<path id="XMLID_155_" class="st14" d="M405.8,144.4c-1.8,1.1-4.1,5.7-3.9,15.3c0.2,8.1,2.8,10.2,4.2,10.7
						c1.3,0.6,3.9,0.2,6.4-0.2v4.9c0,0-3.4,4-3.2,6.2c0.2,2.2,5,2.8,8.2,0.6s5.9-6.5,5.9-6.5l-0.1-11.2c0,0,1.5,1.4,3.9-0.7
						c2-1.8,2.7-4.8,1.1-6.4c-1.6-1.6-4.5-1.2-5.7,1.1c0,0-4,0.1-9.2-2.8C408.2,152.5,406.2,147.5,405.8,144.4z"/>
				</g>
				<g id="XMLID_152_">
					<path id="XMLID_153_" class="st3" d="M411.1,157.6c0,0.6,0.4,1.1,1,1.1c0.6,0,1-0.4,1.1-1c0-0.6-0.4-1.1-1-1.1
						C411.6,156.6,411.1,157,411.1,157.6z"/>
				</g>
				<g id="XMLID_150_">
					<path id="XMLID_151_" class="st13" d="M410.8,164.5l-2.4,0.8c0.2,0.7,0.9,1.1,1.5,0.9C410.6,165.9,411,165.2,410.8,164.5z"/>
				</g>
				<g id="XMLID_148_">
					<path id="XMLID_149_" class="st3" d="M402.7,154.5l2.1-1.4c-0.4-0.6-1.1-0.7-1.7-0.4C402.4,153.1,402.3,153.9,402.7,154.5z"/>
				</g>
				<g id="XMLID_146_">
					<path id="XMLID_147_" class="st3" d="M403.1,156.9c0,0.6,0.4,1.1,1,1.1c0.6,0,1-0.4,1.1-1c0-0.6-0.4-1.1-1-1.1
						C403.7,155.8,403.2,156.3,403.1,156.9z"/>
				</g>
				<g id="XMLID_144_">
					<polygon id="XMLID_145_" class="st13" points="408,156.3 407.8,162.4 404.6,161.4 					"/>
				</g>
				<g id="XMLID_142_">
					<path id="XMLID_143_" class="st13" d="M412.5,170.2c2.6-0.3,8-1.9,8.8-4c0,0-0.3,1.3-1.9,2.7c-1.6,1.4-7,2.9-7,2.9V170.2z"/>
				</g>
				<path id="XMLID_141_" class="st3" d="M434,156.8l3.7-2.7c-0.7-1.1-2.1-1.3-3.1-0.6C433.5,154.3,433.3,155.7,434,156.8z"/>
				<path id="XMLID_140_" class="st3" d="M416,253.5l-3.1-15.8c0,0-4.7-1.6-7.9-4c0,0,2.6,3.3,5.5,5.1L416,253.5z"/>
			</g>
			<path id="XMLID_138_" class="st3" d="M432,168.4c-3.3-1.7-2.9-4.9-1.2-8.2c1.7-3.3,4-5.6,7.3-3.9c3.3,1.7,4.7,5.8,3,9.1
				C439.4,168.8,435.3,170.1,432,168.4z"/>
		</g>
		<g id="Arm_3_">
			<path id="XMLID_137_" class="st14" d="M378.1,218.4c1.7,0.4,3.3,0.3,5.6,1.1c2,0.7,2.9,1,4.9,0.8c2.2-0.1,7.9-2.8,12.9-5.9
				c6-3.6,12.1-10.2,14.4-13.4c4.6-6.5,9.6-16.7,12.1-20.6c2.4-3.9,3.2-4.5,3.2-4.5c3.2,0.1,6.3,3,4.2,10.7
				c-1.7,6.4-6.4,14.7-12.2,21.6c-2.8,3.4-7.7,8.4-15.3,13c-5.3,3.3-10,4.9-16,6.9c-1.6,0.5-2.7,1.3-5.6,2.7
				c-1.2,0.6-2.5,1.2-3.8,1.4c-1.7,0.2-3.4,0.3-5,0c-2.1-0.3-4.1-1.1-5.8-2.5c-0.9-0.7-1.7-1.7-2.1-2.7c-0.5-1.1-0.6-2.3-0.3-3.4
				c0.1-0.2,0.2-0.5,0.3-0.6c0.3-0.3,0.8-0.3,1.2-0.3c2.4,0.1,4.9,0.5,7.3,0.4c2-0.1,3.4-0.5,3.1-0.8c-0.3-0.3-1.5-0.1-3.1-0.8
				c-1.5-0.7-2.6-2.2-2.2-3C376.5,217.8,376.4,218,378.1,218.4z"/>
		</g>
		<path id="Hand_3_" class="st14" d="M367.1,193.9c0,0,3.2-1.6,7.4-0.9c2,0.3,2,7-4.4,9.1c-4.2,1.4-6.7,0.8-8.1,4.2
			c0,0-2.7-0.4-2.1-4.2c0.6-3.9,2.3-7.4,5.1-10.7c1.8-2.2,2-4,2.9-3.4c1,0.7,0.6,2.7,0.6,2.7L367.1,193.9z"/>
	</g>
</g>
<g id="Character_1">
	<g>
		<g id="Back_Arm">
			<path id="XMLID_300_" class="st11" d="M107.5,198.7c4.5,5.3,12.6,15.5,16.8,20.7c2.2,2.8,3.4,6.2,3.4,9.7c0,2.6-0.7,4.8-3.3,3.7
				c-1.8-0.8-3-1.8-5.7-4.4c-2.4-2.4-11-12.7-11-12.7s-6.6-17.3-10.2-18.4c-3.6-1.1-6.1-0.8-6.1-0.8C95.7,195,101.8,192,107.5,198.7
				z"/>
			<path id="XMLID_299_" class="st10" d="M89.1,193c4.5-3.4,12-2.5,16.2,2.6c3.1,3.7,10.4,12.8,10.4,12.8s-2.1,5.8-9.4,8.4L89.1,193
				z"/>
		</g>
		<g id="Brush_1_">
			<g id="XMLID_319_">
				<path id="XMLID_716_" class="st6" d="M174.7,312.5L174.7,312.5c0,0-12.6-45.5-30.3-88.4c-17.6-42.5-44.7-85.6-49.2-92.2
					c0,0,0-0.1-0.1-0.1c0,0-0.1-0.1-0.1-0.1l0,0c-0.6-0.8-1.6-1.4-2.7-1.4c-1.9,0-3.4,1.5-3.4,3.4c0,0.3,0,0.5,0.1,0.8l0,0
					c0,0,12,58.9,29.3,100.7c17.3,41.8,40.9,83.6,40.9,83.6l0,0c0.6,1,1.7,1.6,3.4,1.9c3.7,0.5,8.6-1.5,10.9-4.5
					C174.7,314.9,175,313.5,174.7,312.5z"/>
				<path id="XMLID_315_" class="st8" d="M88.9,133.8c0,0.3,0,0.5,0.1,0.8l0,0c0,0,12,58.9,29.3,100.7
					c11.6,28.1,26.1,56.3,34.4,71.7l9.1-5.7c0,0-72.1-169.5-69.4-170.8C90.4,130.3,88.9,131.9,88.9,133.8z"/>
			</g>
			<g id="XMLID_317_">
				<path id="XMLID_714_" class="st7" d="M159.3,318.9c-1.5,7.3-4,16.8,0.6,29c5.2,13.9,21,17.8,28.6,17.8c10.6,0,17.3-3.9,17.3-3.9
					s-5.5-2.1-7.7-10c-0.5-1.6-0.7-3.4-0.8-5.3c-0.5-6.4-0.7-13.4-6.3-21.1c-7.1-9.9-16.2-13-16.2-13L159.3,318.9z"/>
				<path id="XMLID_292_" class="st6" d="M198,351.8c-0.5-1.6-0.7-3.4-0.8-5.3c0,0-1.9,8.3-6.6,7.9c-4.7-0.5-6-5.5-12.2-5.5
					c-7.6,0-10.2,6.3-16.6,2.9c6.5,10.9,19.8,13.9,26.7,13.9c10.6,0,17.3-3.9,17.3-3.9S200.3,359.7,198,351.8z"/>
				<path id="XMLID_50_" class="st8" d="M178.3,354.5c-12.2-8.5-9.9-31-9.6-34.7l-9.4-0.9c-1.5,7.3-4,16.8,0.6,29
					c5.2,13.9,21,17.8,28.6,17.8c10.6,0,17.3-3.9,17.3-3.9S192.6,364.4,178.3,354.5z"/>
			</g>
			<g id="XMLID_318_">
				<path id="XMLID_713_" class="st2" d="M159.3,318.9c0.6,1,1.7,1.6,3.4,1.9c3.7,0.5,8.6-1.5,10.9-4.5c1-1.4,1.4-2.7,1.1-3.8
					c-1.8-6.3-3.8-13.2-6.1-20.4c0.4,1.4,0,3.1-1.3,4.9c-2.9,3.8-9.1,6.3-13.8,5.7c-2.3-0.3-3.8-1.3-4.4-2.6
					C153,307.4,156.7,314.2,159.3,318.9z"/>
				<path id="XMLID_316_" class="st1" d="M161.8,301.2c-2.7,1.2-5.7,1.9-8.3,1.5c-2.3-0.3-3.8-1.3-4.4-2.6
					c3.9,7.3,7.6,14.2,10.2,18.8c0.6,1,1.7,1.6,3.4,1.9c1.9,0.2,4-0.1,6-1l0.1-0.2L161.8,301.2L161.8,301.2z"/>
			</g>
		</g>
		<g id="Boy">
			<g id="XMLID_197_">
				
					<ellipse id="XMLID_261_" transform="matrix(0.9732 -0.2298 0.2298 0.9732 -35.7262 26.3863)" class="st3" cx="95.4" cy="166.6" rx="10.8" ry="10.8"/>
				<g id="XMLID_199_">
					<g id="XMLID_200_">
						<g id="XMLID_201_">
							
								<rect id="XMLID_255_" x="69.5" y="350.1" transform="matrix(-1 -1.224647e-16 1.224647e-16 -1 146.5895 713.3478)" class="st5" width="7.6" height="13.1"/>
							<polygon id="XMLID_254_" class="st5" points="96,349.4 103.6,349.7 104,335.9 96.3,335.6 							"/>
							<path id="XMLID_253_" class="st1" d="M70,246.5C70,253.8,69,298,69,298c-0.2,2.1-2.1,6-1.7,14c0.6,11,1.5,39.4,1.5,39.4
								s3.6,3.6,8.6,0c0,0,6.9-39.4,8.3-50.2C87,291.7,89,266,89,266l7.1,30.3c0,0-1.2,7.1-1.5,12.1c-0.3,5,1.3,31.3,1.3,31.3
								s3.9,2.7,8.3,0.3c0,0,6.1-39.7,6.9-44.2c0.8-4.5-5.4-49.4-5.4-49.4H70z"/>
							<path id="XMLID_252_" class="st12" d="M77.3,193.7c-3.3,0.6-6,3.1-6.7,6.4c-0.4,1.6-0.6,3.6-0.6,5.8v15v25.6
								c5.4,5.8,24,8.5,35.7,0c0,0-0.2-35.8-1.1-41.7c-1.5-10.2-6.4-13.9-11.3-13.5l-11.8,1.7L77.3,193.7z"/>
							<g id="XMLID_232_">
								<g id="XMLID_242_">
									<path id="XMLID_250_" class="st3" d="M76.7,174.3c0,0,1.8,8.3,2.5,9.6c0.7,1.4,2.2,1.7,2.2,1.7l-0.1-5.8L76.7,174.3z"/>
									<path id="XMLID_249_" class="st3" d="M78.9,162.5c0,0-1.9-0.3-3.4,1.2c-1.4,1.5-0.6,6.1,1.2,10.6l3.3,0.4L78.9,162.5z"/>
									<path id="XMLID_248_" class="st5" d="M81,174.7c-0.7,0.4-1.6-0.9-2.4-1.7c-0.8-0.9-3.5-2-4.8,0.8c-1.4,2.9,1.2,6.6,3.3,7.3
										c3.6,1.1,4.2-1.2,4.2-1.2l0.3,13.1c0,0,2.4,5.8,8.8,6.7c6.4,0.9,5.1-4.4,3-7l0-4c0,0,3.3,0.5,4.9,0.3
										c2.7-0.4,4.3-2.5,5.2-5.4c1.3-4.6,1.8-8.4,0.7-17.5c-1.2-10-12.8-10.1-19.1-6.1C78.6,163.8,81,174.7,81,174.7z"/>
									<path id="XMLID_247_" class="st3" d="M81,175.8c-0.3,0-1.6-2.1-2.4-2.9c-1.1-1,0.3-10.5,0.3-10.5s-1.1-2.3,1.1-4.8
										c1.6-1.7,4.2-1.9,8.7-2.6c2.3-0.4,5.9-1,8.3-1.5c2.8-0.5,5.1-1.1,7.1,0.6c1.5,1.3,2.2,3.7,1.4,5.6
										c-0.2,0.4-0.5,0.8-0.8,1.2c-0.6,0.6-1.2,1.1-2,1.4c0,0-1.2,1.1-5.5,1.6c-4.2,0.5-10.9-0.1-11.8-0.2c-1.2-0.2-1.5,1-2.2,4.3
										C82.6,170.9,82.1,175.8,81,175.8z"/>
									<path id="XMLID_244_" class="st3" d="M78.9,163.2l-4-2.2c0.6-1.2,1.9-1.6,3-1C79,160.7,79.5,162.1,78.9,163.2z"/>
									<path id="XMLID_243_" class="st11" d="M93.3,188.6c0,0-6-1.2-8-2.3c-1.4-0.7-2.5-2-2.9-2.8c0,0,0.4,1.8,1.6,3.4
										c1.5,1.9,9.3,3.4,9.3,3.4L93.3,188.6z"/>
								</g>
								<g id="XMLID_233_">
									<path id="XMLID_241_" class="st3" d="M91.8,173.2c0,0.7-0.5,1.2-1.2,1.2c-0.7,0-1.2-0.6-1.2-1.2c0-0.7,0.5-1.2,1.2-1.2
										C91.3,172,91.8,172.5,91.8,173.2z"/>
									<path id="XMLID_240_" class="st3" d="M90.6,168.7l-2.6,1.4c-0.4-0.7-0.1-1.6,0.6-2C89.3,167.7,90.2,168,90.6,168.7z"/>
									<path id="XMLID_239_" class="st11" d="M92.7,181.5l2.7,1c-0.3,0.8-1.1,1.2-1.8,0.9C92.8,183.1,92.5,182.2,92.7,181.5z"/>
									<path id="XMLID_238_" class="st3" d="M102.5,169.7l-2.3-1.8c0.5-0.7,1.4-0.8,2-0.3C102.8,168.1,102.9,169,102.5,169.7z"/>
									<path id="XMLID_236_" class="st3" d="M101.8,172.9c0,0.7-0.5,1.2-1.2,1.2c-0.7,0-1.2-0.6-1.2-1.2c0-0.7,0.5-1.2,1.2-1.2
										C101.2,171.6,101.8,172.2,101.8,172.9z"/>
									<polygon id="XMLID_234_" class="st11" points="95.7,171.7 96.1,178.9 99.8,177.6 									"/>
								</g>
							</g>
							<path id="XMLID_231_" class="st3" d="M77.1,359.4v-1.1c0.7,0.3,2.4,6.8,5.5,9.6c2.4,2.2,5.7,4.7,6.5,7.2
								c0.9,2.5-4.6,4-6.8,3.6c-2.6-0.5-7.1-2.3-8.3-4c-1.1-1.7-1.7-4.2-2.6-5.5c-0.9-1.3-3.1-2.6-3.6-4.1c-0.3-0.8,0.1-2.5,0.4-4
								c0.4-1.4,0.7-2.8,1.2-2.7c0,0.2,0,0.8,0,0.8c0.6,0.6,2.1,1.2,3.8,1.3C74.4,360.5,77.1,360.3,77.1,359.4z"/>
							<path id="XMLID_202_" class="st3" d="M103.7,347.3c0.4,0,0.7,0.6,1.6,1.5c1.1,1.1,2.8,2.4,4.5,3.2c2.9,1.4,8.4,3.6,10.9,4.8
								c1.6,0.7,1.5,2.6-0.1,3.7c-1.6,1.1-5.5,1.9-10.3,0.8c-2.6-0.6-5.9-2.9-8-2.8c-2.1,0.1-6.1,0.1-7.6-1
								c-1.6-1.1-0.9-3.4-0.5-5.3c0.5-2.2,1.2-5.5,1.9-5.3l0,0.7c0.9,1.4,5.6,2,7.6,0.9L103.7,347.3z"/>
						</g>
					</g>
				</g>
				<path id="XMLID_198_" class="st3" d="M89,266c0,0,6.1-1.7,10.6-6.1c0,0-2.1,3.8-8.2,7.4l2.3,19.5L89,266z"/>
			</g>
		</g>
		<g id="Arm">
			<g id="XMLID_194_">
				<path id="XMLID_195_" class="st5" d="M131.8,237.5c-1.7,0.4-3.3,0.3-5.6,1.1c-2,0.7-2.9,1-4.9,0.8c-2.2-0.1-7.9-2.8-12.9-5.9
					c-6-3.6-12.1-10.2-14.4-13.4c-4.6-6.5-9.6-16.7-12.1-20.6c-2.4-3.9-4.7-4.3-7.4-4.2c-3.2,0.1-5.2,3-2.4,9
					c2.8,6,8.8,16.1,14.5,23c2.8,3.4,7.7,8.4,15.3,13c5.3,3.3,10,4.9,16,6.9c1.6,0.5,2.7,1.3,5.6,2.7c1.2,0.6,2.5,1.2,3.8,1.4
					c1.7,0.2,3.4,0.3,5,0c2.1-0.3,4.1-1.1,5.8-2.5c0.9-0.7,1.7-1.7,2.1-2.7c0.5-1.1,0.6-2.3,0.3-3.4c-0.1-0.2-0.2-0.5-0.3-0.6
					c-0.3-0.3-0.8-0.3-1.2-0.3c-2.4,0.1-4.9,0.5-7.3,0.4c-2-0.1-3.4-0.5-3.1-0.8c0.3-0.3,1.5-0.1,3.1-0.8c1.5-0.7,2.6-2.2,2.2-3
					C133.4,236.9,133.4,237,131.8,237.5z"/>
			</g>
			<path id="XMLID_178_" class="st10" d="M75.5,194.2c-2.4,0.1-5.6,1.6-5.5,5.8c0.1,4.1,6.4,16.2,11.3,23.1c0,0,7.7-0.5,11.7-6.3
				c0,0-7.2-11.4-9.1-15C82.2,198.5,79,194.1,75.5,194.2z"/>
		</g>
		<path id="Hand" class="st5" d="M139,211.5c0,0-2.9-1.5-7-0.8c-2,0.3-2,7,4.4,9.1c4.2,1.4,6.7,0.8,8.1,4.2c0,0,2.7-0.4,2.1-4.2
			c-0.6-3.9-2.3-7.4-5.1-10.7c-1.8-2.2-2-4-2.9-3.4c-1,0.7-0.9,2.9-0.9,2.9L139,211.5z"/>
	</g>
</g>
<g id="Paint_Pot">
	<g id="Paint_Pot_2_">
		<path id="XMLID_94_" class="st1" d="M314.6,239.2l-36.7-0.5l-0.3,30l0,0c0,2.7,1.7,5.4,5.3,7.6c7.1,4.2,18.7,4.3,26,0.3
			c3.6-2,5.5-4.8,5.5-7.5L314.6,239.2z"/>
		<path id="XMLID_93_" class="st2" d="M283.4,231.3c-7.2,4.1-7.3,10.8-0.2,15c7.1,4.2,18.7,4.3,26,0.3c7.2-4.1,7.3-10.8,0.2-15
			C302.2,227.3,290.6,227.2,283.4,231.3z"/>
		<path id="XMLID_92_" class="st3" d="M313,239.1c0,0.5-0.1,1-0.3,1.4c-0.6,1.7-2.1,3.3-4.4,4.6c-3.3,1.8-7.6,2.8-12.2,2.8
			c-4.6-0.1-8.9-1.1-12.1-3c-2.3-1.3-3.7-3-4.3-4.6c-0.2-0.5-0.3-1-0.3-1.5c0-2.2,1.7-4.4,4.7-6.1c3.2-1.8,7.6-2.8,12.2-2.8
			c4.6,0,8.9,1.1,12.2,3C311.4,234.6,313,236.8,313,239.1z"/>
		<path id="XMLID_91_" class="st6" d="M312.8,240.5c-0.6,1.7-2.1,3.3-4.4,4.6c-3.3,1.8-7.6,2.8-12.2,2.8c-4.6-0.1-8.9-1.1-12.1-3
			c-2.3-1.3-3.7-3-4.3-4.6c0.6-1.7,2.1-3.3,4.4-4.6c3.2-1.8,7.6-2.8,12.2-2.8c4.6,0.1,8.9,1.1,12.2,3
			C310.8,237.2,312.2,238.8,312.8,240.5z"/>
		<path id="XMLID_90_" class="st3" d="M304.1,250.4c0.8-0.5,1.4-0.1,1.4,0.9c0,0.9-0.7,2-1.5,2.5c-0.8,0.5-1.4,0.1-1.4-0.9
			C302.6,252,303.3,250.9,304.1,250.4z"/>
		<g id="XMLID_41_">
			<path id="XMLID_89_" class="st10" d="M277.8,244c-2,4-6,13.4-0.8,17.3c0.2,0.2,0.4,0.3,0.6,0.4l0,1.9c-0.5-0.3-1.1-0.7-1.6-1.1
				c-7.8-5.8,1-20.6,1.4-21.2c0.1-0.2,0.3-0.3,0.4-0.3L277.8,244z"/>
			<path id="XMLID_42_" class="st10" d="M304.8,252.5c-0.2,0.5-5.9,11.3-15.2,13.5c-1.1,0.3-2.1,0.4-3.2,0.4c-2.9,0-5.8-0.9-8.7-2.7
				l0-1.9c3.9,2.7,7.7,3.6,11.5,2.7c8.6-2,14.1-12.6,14.2-12.7c0.2-0.4,0.7-0.5,1.1-0.3C304.8,251.6,305,252.1,304.8,252.5z"/>
		</g>
	</g>
</g>
</svg>
