<?xml version="1.0" encoding="utf-8"?>
<!-- Generator: Adobe Illustrator 23.1.0, SVG Export Plug-In . SVG Version: 6.00 Build 0)  -->
<svg version="1.1" id="Layer_1" xmlns="http://www.w3.org/2000/svg" xmlns:xlink="http://www.w3.org/1999/xlink" x="0px" y="0px"
	 viewBox="0 0 2000 2000" style="enable-background:new 0 0 2000 2000;" xml:space="preserve">
<style type="text/css">
	.st0{fill:#E0E0E0;}
	.st1{fill:#EBEBEB;}
	.st2{fill:#FAFBFB;}
	.st3{fill:#F5F5F5;}
	.st4{clip-path:url(#SVGID_2_);}
	.st5{fill:#E1F2F1;}
	.st6{fill:#8BCFBA;}
	.st7{fill:#475B65;}
	.st8{fill:#263238;}
	.st9{fill:#FFFFFF;}
	.st10{fill:#F7A7A8;}
	.st11{fill:#58C2B1;}
	.st12{opacity:0.1;}
	.st13{fill:#37474F;}
	.st14{fill:#F3908F;}
</style>
<g>
	<g>
		<g>
			<polygon class="st0" points="560.7,191.6 594.1,277 573.4,276.9 556.7,224.4 			"/>
			<g>
				<g>
					<polygon class="st1" points="446.7,112.6 435.2,276.3 553.7,278.8 567.1,112.6 					"/>
					<polygon class="st2" points="458.5,125.8 449,262.1 537.1,266.2 549.4,125 					"/>
				</g>
				<polygon class="st0" points="477.9,145.1 470.7,240.9 519.3,240.9 527.9,145.1 				"/>
			</g>
		</g>
		<g>
			<polygon class="st3" points="329.8,277.4 329.8,195.4 389.8,195.4 389.8,277.3 			"/>
			<path class="st0" d="M363.9,195.4c0,0,14.5-105.8,10.4-105.7c-4.1,0.1-14.2,96.5-14.2,96.5s-0.4-79.8-4.2-79.4
				c-3.8,0.4,0,84.5,0,84.5s-6.5-68.2-10.1-66.6c-3.5,1.6,1.5,70.7,1.5,70.7H363.9"/>
			<path class="st1" d="M353,195.4c0,0,5-52.7,6.7-49.1c1.7,3.6,0,31.4,0,31.4s13.9-68.2,17.5-65.8c3.6,2.3-14.2,74-14.2,74
				s13.6-40.9,16.5-36.6c3,4.3-11.3,42.7-11.3,42.7s14.6-27.1,15.6-23.5c1,3.6-6.9,27-6.9,27H353z"/>
			<path class="st1" d="M344.5,195.7c0,0-32.1-63-28.1-61c4,2,24.5,42.6,24.5,42.6s-13.6-39.3-10.6-40.5c3-1.2,17.9,44.1,17.9,44.1
				l3.3,14.8H344.5z"/>
			<polygon class="st0" points="357.6,195.5 359.1,277.5 330.6,277.5 330,195.3 			"/>
			<polygon class="st1" points="329.9,202.6 357.5,203.1 389.8,202.6 390.8,194.8 329.1,194.8 			"/>
		</g>
		<rect x="269" y="275.1" class="st0" width="420.2" height="21.6"/>
	</g>
	<g>
		<g>
			<g>
				<g>
					<g>
						<rect x="1279.7" y="298.3" class="st2" width="416.4" height="728.5"/>
					</g>
				</g>
			</g>
			<g>
				<g>
					<path class="st1" d="M1409.4,1033.8c0,0-45.6-327.7-69.5-363.8c0,0,136.4-102.4,140.6-380h-207v743.8H1409.4z"/>
				</g>
			</g>
			<g>
				<g>
					<path class="st1" d="M1566.3,1032.3c0,0,45.6-327.7,69.5-363.8c0,0-136.4-102.4-140.6-380h207v743.8H1566.3z"/>
				</g>
			</g>
			<g>
				<g>
					<defs>
						<path id="SVGID_1_" d="M1279.7,298.3"/>
					</defs>
					<use xlink:href="#SVGID_1_"  style="overflow:visible;fill:#E0E0E0;"/>
					<clipPath id="SVGID_2_">
						<use xlink:href="#SVGID_1_"  style="overflow:visible;"/>
					</clipPath>
					<g class="st4">
						<g>
							<path class="st0" d="M1279.7,298.3L1279.7,298.3L1279.7,298.3z"/>
						</g>
					</g>
					<g class="st4">
						<g>
							<path class="st0" d="M1279.7,298.3L1279.7,298.3L1279.7,298.3z"/>
						</g>
					</g>
					<g class="st4">
						<g>
							<path class="st0" d="M1279.7,298.3L1279.7,298.3L1279.7,298.3z"/>
						</g>
					</g>
					<g class="st4">
						<g>
							<path class="st0" d="M1279.7,298.3L1279.7,298.3L1279.7,298.3z"/>
						</g>
					</g>
					<g class="st4">
						<g>
							<path class="st0" d="M1279.7,298.3L1279.7,298.3L1279.7,298.3z"/>
						</g>
					</g>
					<g class="st4">
						<g>
							<path class="st0" d="M1279.7,298.3L1279.7,298.3L1279.7,298.3z"/>
						</g>
					</g>
					<g class="st4">
						<g>
							<path class="st0" d="M1279.7,298.3L1279.7,298.3L1279.7,298.3z"/>
						</g>
					</g>
					<g class="st4">
						<g>
							<path class="st0" d="M1279.7,298.3L1279.7,298.3L1279.7,298.3z"/>
						</g>
					</g>
					<g class="st4">
						<g>
							<path class="st0" d="M1279.7,298.3L1279.7,298.3L1279.7,298.3z"/>
						</g>
					</g>
					<g class="st4">
						<g>
							<path class="st0" d="M1279.7,298.3L1279.7,298.3L1279.7,298.3z"/>
						</g>
					</g>
					<g class="st4">
						<g>
							<path class="st0" d="M1279.7,298.3L1279.7,298.3L1279.7,298.3z"/>
						</g>
					</g>
					<g class="st4">
						<g>
							<path class="st0" d="M1279.7,298.3L1279.7,298.3L1279.7,298.3z"/>
						</g>
					</g>
					<g class="st4">
						<g>
							<path class="st0" d="M1279.7,298.3L1279.7,298.3L1279.7,298.3z"/>
						</g>
					</g>
					<g class="st4">
						<g>
							<path class="st0" d="M1279.7,298.3L1279.7,298.3L1279.7,298.3z"/>
						</g>
					</g>
					<g class="st4">
						<g>
							<path class="st0" d="M1279.7,298.3L1279.7,298.3L1279.7,298.3z"/>
						</g>
					</g>
					<g class="st4">
						<g>
							<path class="st0" d="M1279.7,298.3L1279.7,298.3L1279.7,298.3z"/>
						</g>
					</g>
					<g class="st4">
						<g>
							<path class="st0" d="M1279.7,298.3L1279.7,298.3L1279.7,298.3z"/>
						</g>
					</g>
					<g class="st4">
						<g>
							<path class="st0" d="M1279.7,298.3L1279.7,298.3L1279.7,298.3z"/>
						</g>
					</g>
					<g class="st4">
						<g>
							<path class="st0" d="M1279.7,298.3L1279.7,298.3L1279.7,298.3z"/>
						</g>
					</g>
					<g class="st4">
						<g>
							<path class="st0" d="M1279.7,298.3L1279.7,298.3L1279.7,298.3z"/>
						</g>
					</g>
					<g class="st4">
						<g>
							<path class="st0" d="M1279.7,298.3L1279.7,298.3L1279.7,298.3z"/>
						</g>
					</g>
					<g class="st4">
						<g>
							<path class="st0" d="M1279.7,298.3L1279.7,298.3L1279.7,298.3z"/>
						</g>
					</g>
					<g class="st4">
						<g>
							<path class="st0" d="M1279.7,298.3L1279.7,298.3L1279.7,298.3z"/>
						</g>
					</g>
					<g class="st4">
						<g>
							<path class="st0" d="M1279.7,298.3L1279.7,298.3L1279.7,298.3z"/>
						</g>
					</g>
					<g class="st4">
						<g>
							<path class="st0" d="M1279.7,298.3L1279.7,298.3L1279.7,298.3z"/>
						</g>
					</g>
					<g class="st4">
						<g>
							<path class="st0" d="M1279.7,298.3L1279.7,298.3L1279.7,298.3z"/>
						</g>
					</g>
					<g class="st4">
						<g>
							<path class="st0" d="M1279.7,298.3L1279.7,298.3L1279.7,298.3z"/>
						</g>
					</g>
					<g class="st4">
						<g>
							<path class="st0" d="M1279.7,298.3L1279.7,298.3L1279.7,298.3z"/>
						</g>
					</g>
					<g class="st4">
						<g>
							<path class="st0" d="M1279.7,298.3L1279.7,298.3L1279.7,298.3z"/>
						</g>
					</g>
					<g class="st4">
						<g>
							<path class="st0" d="M1279.7,298.3L1279.7,298.3L1279.7,298.3z"/>
						</g>
					</g>
					<g class="st4">
						<g>
							<path class="st0" d="M1279.7,298.3L1279.7,298.3L1279.7,298.3z"/>
						</g>
					</g>
					<g class="st4">
						<g>
							<path class="st0" d="M1279.7,298.3L1279.7,298.3L1279.7,298.3z"/>
						</g>
					</g>
					<g class="st4">
						<g>
							<path class="st0" d="M1279.7,298.3L1279.7,298.3L1279.7,298.3z"/>
						</g>
					</g>
					<g class="st4">
						<g>
							<path class="st0" d="M1279.7,298.3L1279.7,298.3L1279.7,298.3z"/>
						</g>
					</g>
					<g class="st4">
						<g>
							<path class="st0" d="M1279.7,298.3L1279.7,298.3L1279.7,298.3z"/>
						</g>
					</g>
					<g class="st4">
						<g>
							<path class="st0" d="M1279.7,298.3L1279.7,298.3L1279.7,298.3z"/>
						</g>
					</g>
					<g class="st4">
						<g>
							<path class="st0" d="M1279.7,298.3L1279.7,298.3L1279.7,298.3z"/>
						</g>
					</g>
				</g>
			</g>
		</g>
		<g>
			<g>
				<path class="st0" d="M1707,272.4h-19.3h-446.6v11.5v16.3v728.6v12v12h485.2v-12v-12V272.4H1707z M1363.4,677.8v185.6h-83.7
					V677.8H1363.4z M1279.7,664.4V472.3h83.7v192.1H1279.7z M1490.8,664.4V472.3h104.7v192.1H1490.8z M1595.5,677.8v185.6h-104.7
					V677.8H1595.5z M1367.1,664.4V472.3h110.2v192.1H1367.1z M1477.4,677.8v185.6h-110.2V677.8H1477.4z M1367.1,469V300.1h110.2V469
					H1367.1z M1477.4,866.7v162h-110.2v-162H1477.4z M1490.8,866.7h104.7v162h-104.7V866.7z M1490.8,469V300.1h104.7V469H1490.8z
					 M1599.2,677.8h88.6v185.6h-88.6V677.8z M1599.2,664.4V472.3h88.6v192.1H1599.2z M1687.7,469h-88.6V300.1h88.6V469z
					 M1363.4,300.1V469h-83.7V300.1H1363.4z M1279.7,866.7h83.7v162h-83.7V866.7z M1599.2,1028.7v-162h88.6v162H1599.2z"/>
			</g>
		</g>
	</g>
	<g>
		<g>
			<g>
				<path class="st3" d="M1499.1,1218.4c-18.4,3-26.7,25.6-25.1,44.2c1.6,18.6,9.3,36.8,7.2,55.4c-2.6,23.6-20.4,43.5-22.5,67.1
					c-2.4,27.9,17.3,52.6,23.1,79.9c2.9,13.3,2.5,27.4,7.4,40c8.4,21.4,32.8,35.1,55.4,31.1c22.6-4,40.8-25.4,41.3-48.3
					c0.4-21.4-12.8-41.5-11.2-62.9c1.2-15.8,10.4-30.7,8.5-46.4c-2.4-18.7-19.7-31.9-25.8-49.7c-6.1-17.8-0.2-37.4-2.3-56.1
					C1551.4,1239.1,1532.8,1215.7,1499.1,1218.4"/>
			</g>
			<g>
				<path class="st1" d="M1404.9,1380.9c-3.1,31.1,10.6,67.7,26.6,94.5c16,26.9,40.8,48.4,69.6,60.4c3.3,1.4,7.3,2.5,10,0.3
					c2.2-1.8,2.5-5.1,2.5-8c0.2-32.7-10.4-65.4-29.9-91.7C1464.4,1410,1436.3,1390.3,1404.9,1380.9"/>
			</g>
			<g>
				<g>
					<path class="st0" d="M1540.4,1600.8c-0.1,0-0.4-0.6-0.9-1.7c-0.6-1.3-1.3-3-2.2-5.1c-1.9-4.4-4.7-10.8-8.2-18.7
						c-7.1-15.7-17.6-37.1-30.9-59.8c-13.3-22.7-26.7-42.3-36.9-56.2c-5.1-7-9.3-12.5-12.2-16.3c-1.4-1.8-2.5-3.3-3.3-4.4
						c-0.7-1-1.1-1.6-1.1-1.6c0,0,0.5,0.4,1.4,1.4c1,1.1,2.1,2.5,3.6,4.2c3.1,3.7,7.5,9.1,12.7,16c10.5,13.7,24.1,33.3,37.4,56.1
						c13.3,22.8,23.7,44.3,30.5,60.1c3.4,7.9,6,14.4,7.7,18.9c0.8,2.1,1.4,3.8,1.9,5.2C1540.2,1600.1,1540.4,1600.8,1540.4,1600.8z"
						/>
				</g>
			</g>
			<g>
				<g>
					<path class="st0" d="M1520.4,1304.4c0.1,0,0.2,1,0.3,3c0.2,2.1,0.4,5,0.6,8.6c0.5,7.6,1.2,18.3,2,31.5
						c1.7,26.6,4,63.4,6.9,103.9c2.9,40.6,5.7,77.3,7.7,103.9c1,13.2,1.8,23.9,2.4,31.5c0.2,3.6,0.4,6.5,0.6,8.6c0.1,2,0.1,3,0.1,3
						c-0.1,0-0.2-1-0.4-3c-0.2-2.1-0.5-5-0.9-8.5c-0.7-7.6-1.7-18.3-3-31.4c-2.4-26.6-5.4-63.3-8.3-103.9c-2.9-40.6-5-77.3-6.4-104
						c-0.6-13.2-1.1-23.9-1.5-31.5c-0.1-3.6-0.2-6.5-0.3-8.6C1520.3,1305.4,1520.3,1304.4,1520.4,1304.4z"/>
				</g>
			</g>
		</g>
		<g>
			<path class="st0" d="M1491.8,1556.5h77.9v57.2c0,20.6-16.7,37.4-37.4,37.4l0,0c-19.9,0-36.3-15.5-37.3-35.4L1491.8,1556.5z"/>
		</g>
	</g>
</g>
<g>
	<path id="Shadow_1_" class="st5" d="M773.2,1673.5c-95.9,45.7-251.3,45.7-347.2,0c-95.9-45.7-95.9-119.8,0-165.5
		c95.9-45.7,251.3-45.7,347.2,0C869,1553.7,869,1627.8,773.2,1673.5z"/>
	<g>
		<g>
			<g>
				<path class="st6" d="M1350.7,1233.8c-52.8-36.9-64.7-105.3-62.6-166.8c0.3-10.3-0.8-21.1,4.1-30.1c4.9-9,16.3-15.2,25.5-10.8
					c7.6,3.6,10.9,12.5,15.2,19.8c5.7,9.8,14.1,17.8,24.1,23c6.5,3.4,14.6,5.5,21.1,1.9c8.9-4.9,9.9-17.1,9.8-27.3
					c-0.1-19-0.2-38.1-0.4-57.1c-0.1-10.2-0.1-20.6,3.1-30.3c3.2-9.7,10.2-18.7,19.9-21.4c9.7-2.7,21.7,2.9,23.8,12.9
					c0.9,4.2,0,8.5,0.3,12.7c0.3,4.2,2.3,8.9,6.3,10.1c4.1,1.2,8.2-1.7,11.2-4.7c10.5-10.3,17.7-23.6,24.4-36.8
					c6.7-13.2,13.2-26.7,22.7-38c9.6-11.2,22.8-20.2,37.4-21c14.6-0.8,30.2,8.2,33.9,22.5c3.7,14.4-4.7,29-13.8,40.6
					c-13.6,17.3-29.6,32.6-47.4,45.2c-3.2,2.3-6.7,4.8-7.9,8.5c-2.2,6.8,4.2,13.6,11,15.8c7.6,2.5,15.9,1.7,23.8,2.7
					c8,0.9,16.6,4.4,19.6,12c4.2,10.4-4.5,21.4-13.1,28.5c-17.2,14.3-36.8,25.7-57.8,33.3c-7.5,2.7-15.4,5.2-21.5,10.4
					c-6.1,5.3-9.7,14.5-6.1,21.6c3.7,7.2,13.1,9.5,20.9,8c7.9-1.5,14.9-5.7,22.4-8.6c14-5.3,32.1-4.3,41.1,7.8
					c5.9,8,6.4,19.1,3.4,28.6c-3,9.5-9,17.7-15.5,25.2c-22.5,26.4-51.3,47.6-83.8,58.9C1413.2,1242.6,1383.1,1245.6,1350.7,1233.8"
					/>
			</g>
		</g>
	</g>
	<g>
		<g>
			<g>
				<g>
					<path class="st7" d="M1349.9,1279.4c2.2-24.4,7.6-53.1,16.7-84.1c9.1-31,21.8-64.2,36.3-98.5c3.7-8.5,7.3-17,10.8-25.3
						c3.6-8.3,7.1-16.5,11.1-24.4c7.9-15.7,16.6-30.2,25.4-43.7c8.7-13.5,17.5-26,25.8-37.7c8.3-11.6,16.3-22.3,24-31.8
						c15.3-18.9,29.4-32.7,39.5-41.8c5-4.6,9.1-8,11.8-10.2c1.3-1.1,2.4-1.9,3.2-2.6c0.7-0.6,1.1-0.8,1.1-0.8c0,0-0.3,0.4-1,1
						c-0.8,0.7-1.8,1.6-3,2.7c-2.7,2.4-6.6,5.9-11.6,10.5c-9.9,9.2-23.9,23.1-39,42.1c-7.6,9.5-15.5,20.2-23.8,31.8
						c-8.2,11.7-17,24.2-25.7,37.7c-8.7,13.5-17.4,28-25.2,43.6c-3.9,7.8-7.4,16-11,24.3c-3.6,8.3-7.2,16.8-10.8,25.3
						c-14.5,34.2-27.3,67.3-36.4,98.2c-9.2,30.9-14.6,59.5-17,83.8"/>
				</g>
			</g>
		</g>
	</g>
	<g>
		<g>
			<g>
				<g>
					<path class="st7" d="M1425.4,1047c-0.1,0-0.5-1.5-1-4.4c-0.5-2.8-1.2-6.9-1.9-12c-1.4-10.2-3-24.3-4.6-39.8
						c-1.6-15.6-3.3-29.6-4.9-39.7c-0.8-5.1-1.5-9.1-2-12c-0.5-2.8-0.7-4.4-0.6-4.4c0.1,0,0.6,1.5,1.3,4.3c0.7,2.8,1.6,6.8,2.6,11.9
						c1.9,10.1,3.9,24.2,5.5,39.7c1.6,15.4,3,29.2,4,39.9c0.5,4.8,1,8.8,1.3,12.1C1425.4,1045.4,1425.5,1047,1425.4,1047z"/>
				</g>
			</g>
		</g>
	</g>
	<g>
		<g>
			<g>
				<g>
					<path class="st7" d="M1556.6,1022.4c0,0.1-1.9,0.3-5.2,0.6c-3.4,0.3-8.2,0.7-14.2,1.4c-12,1.3-28.6,3.7-46.7,7.1
						c-18.1,3.5-34.4,7.3-46.1,10.4c-5.9,1.5-10.6,2.9-13.8,3.8c-3.3,0.9-5.1,1.4-5.1,1.3c0-0.1,1.7-0.8,4.9-2
						c3.2-1.1,7.9-2.7,13.7-4.4c11.6-3.4,27.9-7.5,46.1-11c18.2-3.4,34.8-5.6,46.9-6.6c6-0.5,10.9-0.7,14.3-0.8
						C1554.7,1022.3,1556.6,1022.3,1556.6,1022.4z"/>
				</g>
			</g>
		</g>
	</g>
	<g>
		<g>
			<g>
				<g>
					<path class="st7" d="M1368.2,1192.8c-0.1,0-0.4-0.5-0.9-1.6c-0.6-1.3-1.3-2.9-2.2-4.7c-1.9-4.1-4.6-10.2-7.7-17.7
						c-6.3-15-14.4-36.1-23-59.4c-8.6-23.4-16.5-44.4-22.5-59.6c-2.9-7.4-5.4-13.4-7.2-17.9c-0.8-2-1.4-3.6-1.9-4.9
						c-0.4-1.1-0.6-1.7-0.6-1.8c0.1,0,0.4,0.5,0.9,1.6c0.6,1.3,1.3,2.8,2.2,4.7c1.9,4.1,4.6,10.2,7.7,17.7c6.3,15,14.4,36.1,23,59.4
						c8.6,23.3,16.5,44.4,22.5,59.6c2.9,7.4,5.4,13.4,7.2,17.9c0.8,2,1.4,3.6,1.9,4.9C1368.1,1192.2,1368.3,1192.8,1368.2,1192.8z"
						/>
				</g>
			</g>
		</g>
	</g>
	<g>
		<g>
			<g>
				<g>
					<path class="st7" d="M1542.6,1136.6c0,0.1-0.6,0.3-1.7,0.7c-1.4,0.5-3,1-5.1,1.7c-4.7,1.5-11,3.6-18.7,6.1
						c-15.8,5.1-37.5,12.4-61.4,20.5c-24,8.1-45.8,15.2-61.6,20c-7.9,2.4-14.4,4.3-18.9,5.5c-2.1,0.5-3.8,1-5.2,1.4
						c-1.2,0.3-1.8,0.4-1.8,0.3c0-0.1,0.6-0.3,1.7-0.7c1.4-0.5,3-1,5.1-1.7c4.7-1.5,11-3.6,18.7-6.1c15.8-5.1,37.5-12.4,61.4-20.5
						c24-8.1,45.8-15.2,61.6-20c7.9-2.4,14.4-4.3,18.9-5.5c2.1-0.5,3.8-1,5.2-1.4C1542,1136.7,1542.6,1136.6,1542.6,1136.6z"/>
				</g>
			</g>
		</g>
	</g>
</g>
<g>
	<g>
		<g>
			<g>
				<g>
					<g>
						<g>
							<path class="st8" d="M1288.3,1386l-365.9-1.7c-44-0.2-79.5-36-79.3-80l3.9-917.4c0.2-44,36-79.6,80.1-79.4l365.9,1.7
								c44,0.2,79.5,36,79.3,80l-3.9,917.4C1368.2,1350.7,1332.4,1386.2,1288.3,1386z"/>
						</g>
						<g>
							<path class="st9" d="M1292.4,339l-70.9-0.3c-9.5,0-17.3,8-17.3,17.9l-0.1,12.9c0,9.9-7.8,18-17.3,17.9l-138.3-0.6
								c-9.5,0-17.2-8.1-17.2-18.1l0.1-12.9c0-9.9-7.6-18-17.2-18.1l-25-0.1l-62.1-0.3c-30.8-0.1-56,24.7-56.1,55.6l-3.8,895.4
								c-0.1,30.8,24.7,55.9,55.6,56.1l365.2,1.7c30.8,0.1,55.9-24.7,56.1-55.6l3.8-895.4C1348.1,364.3,1323.3,339.2,1292.4,339z"/>
						</g>
					</g>
				</g>
			</g>
		</g>
	</g>
</g>
<g>
	<path class="st8" d="M1590.3,1656.3c0,0.5-306,0.9-683.5,0.9c-377.6,0-683.5-0.4-683.5-0.9c0-0.5,306-0.9,683.5-0.9
		C1284.2,1655.4,1590.3,1655.8,1590.3,1656.3z"/>
</g>
<g>
	<g>
		<path class="st9" d="M1292.1,858.9c1-0.9,2.4-1.9,3.7-1.9c1.4,0,3.3,0.9,4.3,1.9c0.9,0.9,1.4,2.4,1.4,3.8c0,1.9-0.5,3.3-1.4,4.3
			c-0.9,1-2.8,1.4-4.3,1.4c-1.4,0-2.8-0.5-3.7-1.4c-1.4-0.9-1.9-2.4-1.9-4.3C1290.3,861.3,1290.7,859.8,1292.1,858.9z"/>
		<path class="st7" d="M1295.9,876.5c-3.7,0-7-1.4-9.4-3.8h-0.5c-2.3-2.8-3.8-6.2-3.8-10c0-3.8,1.5-7.2,4.3-9.5
			c2.4-2.9,5.7-4.3,9.4-4.3c3.8,0,7.1,1.9,9.9,4.3c2.4,2.4,3.8,5.7,3.8,9.5c0,3.8-1.4,7.6-3.8,10h-0.5
			C1303,875.1,1299.7,876.5,1295.9,876.5z M1295.9,857c-1.4,0-2.8,0.9-3.7,1.9c-1.4,0.9-1.9,2.4-1.9,3.8c0,1.9,0.5,3.3,1.9,4.3
			c1,1,2.4,1.4,3.7,1.4c1.4,0,3.3-0.5,4.3-1.4c0.9-0.9,1.4-2.4,1.4-4.3c0-1.5-0.5-2.9-1.4-3.8C1299.2,857.9,1297.3,857,1295.9,857z"
			/>
		<path class="st7" d="M1240.7,1066.5c1.9,0,3.8,1.9,3.8,4.3c0,2.4-1.9,3.8-3.8,3.8h-21.2c-1.9,0-3.8-1.5-3.8-3.8
			c0-2.4,1.9-4.3,3.8-4.3H1240.7z"/>
		<path class="st7" d="M1254.5,647.5l-14.6,8.6c-1.9,1.4-4.3,0.5-5.2-1.4c-1.4-1.9-0.5-4.3,1.4-5.3l8.5-5.3l-8.5-4.7
			c-1.9-1.4-2.8-3.8-1.4-5.7c0.9-1.9,3.3-2.4,5.2-1.4l14.6,8.6c1.8,0.9,2.3,3.3,1.4,5.3C1255.4,647.1,1254.9,647.5,1254.5,647.5z"/>
		<path class="st6" d="M1238,867.9h1.4l-17.4,173.3c-0.5,1.4-0.9,2.8-2.4,3.3c-0.9,0.9-2.4,1.4-3.8,1.4h-206.9
			c-1.4,0-2.8-0.5-3.8-1.4c-0.9-0.9-1.4-1.9-1.9-3.3l-32-309c0-3.3,3.3-4.3,6.6-4.8c1.4,0,3.3,0,4.7,0h263.4h2.4
			c1.4,0.5,3.3,1,4.7,1.5c0.5,0.4,0.9,1.4,0.9,2.4l-1.4,14.7c-2.8-1.4-5.7-1.9-8.5-2.8c-4.7-0.9-9.4-1.4-14.1-1.4
			c-16.9,0-32.5,7.1-44.3,18.6c-11.3,11.5-17.9,27.6-17.9,44.8c0,7.2,0.9,13.8,3.3,20c1.9,6.2,4.7,12.4,8.5,17.1l-15.1,160.4
			c-0.5,5.7,2.8,9.5,7,11.5c1.4,1,3.3,1.4,5.2,1.4c1.4,0,3.3,0,5.2-0.5c4.7-1.4,8.5-4.8,8.9-11l13.2-141.3c3.3,1.4,6.6,2.8,9.9,3.8
			c5.2,1.4,10.4,2.4,16,2.4C1232.8,868.9,1235.1,868.4,1238,867.9z M1125.8,1004.1V783.7c0-5.7-3.8-9.5-8-10.9
			c-1.4-0.5-3.3-0.9-5.2-0.9c-1.4,0-3.3,0.5-5.2,0.9c-4.3,1.4-8,5.2-8,10.9v220.4c0,5.7,3.7,9.6,8,11c1.9,0.9,3.8,0.9,5.2,0.9
			c1.8,0,3.7,0,5.2-0.9C1122,1013.6,1125.8,1009.8,1125.8,1004.1z M1052.7,1013.6c4.7-1.9,7.5-6.2,7-11.9l-24.5-219
			c-0.9-5.7-4.7-9-9.4-10c-1.9-0.5-3.3-0.5-5.2,0c-1.9,0-3.3,0.5-5.2,1.4c-4.3,1.9-7.1,5.7-6.6,11.9l24.5,218.6
			c0.9,6.1,4.7,9.5,9.5,10.5c1.4,0.5,3.3,0.5,5.1,0C1049.4,1015.1,1051.3,1014.6,1052.7,1013.6z"/>
		<path class="st7" d="M1226.6,1077.4c2.4,0,4.3,1.9,4.3,4.3c0,1.9-1.9,3.8-4.3,3.8h-44.3c-2.4,0-4.3-1.9-4.3-3.8
			c0-2.4,1.9-4.3,4.3-4.3H1226.6z"/>
		<path class="st7" d="M1218.6,827.7c-5.5-5.2-10.2-10.3-15.3-15.5c-0.4-0.4-0.7-1-0.8-1.7c-0.2-1.1,0.1-2.3,0.8-3l5.9-6
			c1.2-1.6,3.6-1.6,4.7,0l7.1,6.7l25.5-25.8c1.2-1.2,3.2-1.2,4.7,0l5.9,6.4c0.4,0.3,0.7,0.7,0.9,1.1c0.6,1.2,0.3,2.8-0.9,3.7
			l-27.9,28.2l-5.9,6C1222.1,828.9,1219.8,828.9,1218.6,827.7z M1211.5,808.7l-1.2,1.2l6.7,7.1l3.9,3.6l29.1-29.4l-1.2-1.6
			l-25.5,25.8c-1.2,1.6-3.6,1.6-4.7,0L1211.5,808.7z"/>
		<path class="st9" d="M1197.9,813.6c6.1,6.2,11.8,12.4,18.3,18.6c1.4,1.4,4.3,1.4,5.7,0l7-7.1l33.5-33.8c1.4-1,1.8-2.9,1-4.4
			l1.1-0.6c0.4,0.8,0.8,1.7,1.2,2.6c2.4,5.2,3.3,10.5,3.3,16.2c0,5.7-0.9,11.4-3.3,16.7c-5.2,12.8-17,23.3-35.8,23.3
			c-10.8,0-20.2-4.7-27.8-11.9c-5.5-5.5-9.2-12.8-10.6-20.8l5.4-0.8C1197.1,812.4,1197.4,813.1,1197.9,813.6z"/>
		<path class="st9" d="M1205,800.8l-7,7.1c-0.9,0.9-1.2,2.4-1,3.6l-5.4,0.8c-0.5-2.4-0.7-4.8-0.7-7.3c0-11,4.3-20.5,11.3-27.6
			c7.6-7.6,17-11.9,27.8-11.9c17.6,0,29.1,8.7,34.7,20.7l-1.1,0.6c-0.2-0.5-0.6-0.9-1-1.3l-7.1-7.6c-1.8-1.4-4.2-1.4-5.6,0l-30.6,31
			l-8.5-8.1C1209.2,798.9,1206.4,798.9,1205,800.8z"/>
		<path class="st7" d="M1229.9,765.6c-10.8,0-20.2,4.3-27.8,11.9c-7,7.1-11.3,16.7-11.3,27.6c0,2.5,0.2,4.9,0.7,7.3
			c1.4,8,5.1,15.3,10.6,20.8c7.6,7.2,17,11.9,27.8,11.9c18.9,0,30.6-10.5,35.8-23.3c2.4-5.3,3.3-11,3.3-16.7c0-5.7-0.9-11-3.3-16.2
			c-0.4-0.9-0.7-1.8-1.2-2.6C1259,774.3,1247.5,765.6,1229.9,765.6z M1229.9,853.2c-12.7,0-24.5-5.7-33-14.3
			c-9-8.6-14.1-20.5-14.1-33.8c0-12.9,5.2-24.8,13.7-33.3c8.9-9,20.7-14.3,33.4-14.3c22.7,0,37.3,12.3,43.4,28.5
			c2.4,5.7,3.8,12.4,3.8,19.1c0,6.6-1.4,13.3-3.8,19.5C1267.2,840.3,1252.6,853.2,1229.9,853.2z"/>
		<path class="st9" d="M1117.8,1004.1c0,1.9-1.4,2.9-2.8,3.4c-0.5,0.5-1.4,0.5-2.3,0.5c-0.9,0-1.4,0-2.4-0.5
			c-1.4-0.5-2.8-1.4-2.8-3.4V783.7c0-1.9,1.4-2.8,2.8-3.3c0.9-0.5,1.4-0.5,2.4-0.5c1,0,1.8,0,2.3,0.5c1.9,0.5,2.8,1.4,2.8,3.3
			V1004.1z"/>
		<path class="st7" d="M1114.9,1007.4c1.4-0.5,2.8-1.4,2.8-3.4V783.7c0-1.9-0.9-2.8-2.8-3.3c-0.5-0.5-1.4-0.5-2.3-0.5
			c-0.9,0-1.4,0-2.4,0.5c-1.4,0.5-2.8,1.4-2.8,3.3v220.4c0,1.9,1.4,2.9,2.8,3.4c0.9,0.5,1.4,0.5,2.4,0.5
			C1113.5,1007.9,1114.4,1007.9,1114.9,1007.4z M1125.8,783.7v220.4c0,5.7-3.8,9.6-8,11c-1.4,0.9-3.3,0.9-5.2,0.9
			c-1.4,0-3.3,0-5.2-0.9c-4.3-1.4-8-5.3-8-11V783.7c0-5.7,3.7-9.5,8-10.9c1.9-0.5,3.8-0.9,5.2-0.9c1.8,0,3.7,0.5,5.2,0.9
			C1122,774.2,1125.8,777.9,1125.8,783.7z"/>
		<path class="st9" d="M1027.3,783.7l24.5,219c0,2-0.9,3.4-2.4,3.8c-0.9,0.5-1.4,0.5-2.4,0.9c-0.9,0-1.9,0-2.4-0.5
			c-1.4,0-2.8-1.4-3.3-3.4l-24.5-218.5c0-1.9,0.9-3.3,2.3-3.8c0.5-0.5,1.4-0.5,2.4-0.9c0.9,0,1.4,0,2.4,0.5
			C1025.4,780.8,1026.8,782.3,1027.3,783.7z"/>
		<path class="st7" d="M1051.8,1002.6l-24.5-219c-0.5-1.4-1.9-2.8-3.3-2.8c-0.9-0.5-1.4-0.5-2.4-0.5c-0.9,0.5-1.9,0.5-2.4,0.9
			c-1.4,0.5-2.3,1.9-2.3,3.8l24.5,218.5c0.5,1.9,1.9,3.4,3.3,3.4c0.5,0.5,1.4,0.5,2.4,0.5c0.9-0.5,1.4-0.5,2.4-0.9
			C1050.8,1006,1051.8,1004.6,1051.8,1002.6z M1059.8,1001.7c0.5,5.7-2.3,10-7,11.9c-1.4,0.9-3.3,1.4-4.7,1.4
			c-1.9,0.5-3.8,0.5-5.1,0c-4.7-1-8.5-4.3-9.5-10.5L1008.9,786c-0.5-6.1,2.4-10,6.6-11.9c1.8-0.9,3.3-1.4,5.2-1.4
			c1.9-0.5,3.3-0.5,5.2,0c4.7,0.9,8.5,4.3,9.4,10L1059.8,1001.7z"/>
		<path class="st7" d="M1015.5,607.5c0.5,1.9-1,4.3-2.8,4.8c-2.4,0.5-4.7-0.5-5.2-2.9l-1.9-7.1c-0.5-1.9,0.9-4.3,2.8-4.8
			c2.4-0.5,4.3,0.9,5.1,2.8L1015.5,607.5z"/>
		<path class="st7" d="M1025.4,589.9c0.5,2.4-0.9,4.3-2.8,5.3l-7,1.9c-2.4,0.5-4.7-0.9-5.2-2.8c-0.5-2.4,0.9-4.3,2.8-5.3l7-1.9
			C1022.6,586.6,1024.5,588,1025.4,589.9z"/>
		<path class="st7" d="M1009.8,586.6c0.5,2.4-0.9,4.7-2.8,5.3c-2.4,0.4-4.3-1-4.7-2.9l-1.8-6.7c-0.5-2.4,0.5-4.7,2.8-5.2
			c1.9-0.5,4.3,0.9,4.7,2.8L1009.8,586.6z"/>
		<path class="st7" d="M1059.3,645.2h106.5c1.4,0,2.8,0.5,3.3,1.9l8.5,15.2l48,0.5c0.9,0,1.9,0,2.8,0.9l32.1,28.5
			c0.9,0.5,1.4,1.9,1.4,3.4c0,1.9-1.9,3.8-3.8,3.8H967.4c-1.4,0-2.4-0.5-3.3-1.4c-1.4-1.4-0.9-4.3,0.5-5.7l32.1-28.5
			c0.9-0.5,1.9-0.9,2.8-0.9l48-0.5l8.5-14.8C1056.5,646.1,1057.9,645.2,1059.3,645.2z M1171.9,668.5l-8.5-15.2h-101.8l-8.5,15.2
			c-0.5,0.9-1.9,1.9-3.3,1.9l-49,0.5l-23.1,20.4h269.6l-23.1-20.4l-49-0.5C1173.8,670.4,1172.4,669.4,1171.9,668.5z"/>
		<path class="st7" d="M1005.1,595.7c0.9,1.9-0.5,4.3-2.8,4.7l-7,1.9c-1.9,0.5-4.3-0.5-4.7-2.9c-0.5-1.9,0.5-4.3,2.8-4.8l7.1-1.9
			C1002.7,591.9,1004.6,593.3,1005.1,595.7z"/>
		<path class="st7" d="M1202.6,852.7c4.3,2.4,8.5,4.8,13.2,6.2c4.7,0.9,9.5,1.9,14.1,1.9c2.4,0,4.7-0.5,6.6-0.5
			c2.4-0.5,4.7-0.9,6.6-1.4c2.4-0.5,4.3,0.9,4.7,3.4c0,0,0,0.5,0,0.9l-18.4,179.4c-0.5,3.3-2.4,6.2-4.7,8.1c-2.4,2.4-5.2,3.3-9,3.3
			h-206.9c-3.3,0-6.6-1.4-8.9-3.3c-2.4-2.4-4.3-5.3-4.3-8.6c-10.4-102.8-23.5-206.6-32.5-309.4c-0.5-10,7.1-12.4,14.1-12.9
			c1.9-0.5,3.8-0.5,5.2-0.5h263.4c0.9,0,1.9,0,2.8,0.5c2.8,0,6.1,1,8.5,2.4c2.8,1.9,4.7,4.7,4.7,9v1.4l-2.4,19
			c0,2.4-1.9,3.8-4.3,3.8c-0.4,0-0.9,0-1.4-0.5c-3.8-1.5-7.6-2.9-11.8-3.8c-3.7-0.9-8-1.4-12.2-1.4c-15.1,0-28.7,6.2-38.6,16.2
			c-9.9,10-16,23.8-16,39.1c0,6.2,1.4,11.9,3.3,17.6c1.9,5.7,4.7,11.4,8.5,16.2c0.5,0.9,0.5,1.9,0.5,2.8l-15.1,161.4
			c0,1.9,0.9,3.4,2.4,3.8c0.5,0.5,1.4,0.5,2.4,0.5c0.9,0,1.9,0,2.4,0h0.5c1.4-0.5,2.8-1.9,3.3-3.8l13.2-147.5
			c0.5-2.4,2.4-3.8,4.7-3.8C1201.6,852.2,1202.1,852.7,1202.6,852.7z M1171,825.1c-2.3-6.2-3.3-12.8-3.3-20
			c0-17.2,6.6-33.3,17.9-44.8c11.8-11.4,27.4-18.6,44.3-18.6c4.7,0,9.5,0.5,14.1,1.4c2.8,0.9,5.7,1.4,8.5,2.8l1.4-14.7
			c0-0.9-0.5-1.9-0.9-2.4c-1.4-0.5-3.3-1-4.7-1.5h-2.4H982.5c-1.4,0-3.3,0-4.7,0c-3.3,0.5-6.6,1.5-6.6,4.8l32,309
			c0.5,1.4,0.9,2.4,1.9,3.3c0.9,0.9,2.4,1.4,3.8,1.4h206.9c1.4,0,2.8-0.5,3.8-1.4c1.4-0.5,1.9-1.9,2.4-3.3l17.4-173.3h-1.4
			c-2.8,0.5-5.2,0.9-8,0.9c-5.6,0-10.8-0.9-16-2.4c-3.4-0.9-6.6-2.4-9.9-3.8l-13.2,141.3c-0.5,6.2-4.3,9.6-8.9,11
			c-1.9,0.5-3.8,0.5-5.2,0.5c-1.9,0-3.8-0.5-5.2-1.4c-4.2-1.9-7.5-5.7-7-11.5l15.1-160.4C1175.7,837.4,1172.9,831.3,1171,825.1z"/>
		<path class="st9" d="M957.5,1026.5c0.5,0.5,0.9,0.9,0.9,1.9c0,0.5-0.5,0.9-0.9,1.4c-0.4,0.5-0.9,1-1.8,1c-0.5,0-1.4-0.5-1.9-1
			c-0.5-0.5-0.5-0.9-0.5-1.4c0-0.9,0-1.4,0.5-1.9c0.5-0.5,1.4-0.9,1.9-0.9C956.6,1025.5,957.1,1026,957.5,1026.5z"/>
		<path class="st7" d="M966.5,1028.3c0,2.8-1.4,5.3-3.3,7.1c-1.9,1.9-4.7,3.3-7.5,3.3c-2.8,0-5.7-1.4-7.6-3.3
			c-1.8-1.9-2.8-4.3-2.8-7.1c0-3.3,0.9-5.7,2.8-7.6c1.9-1.9,4.7-3.3,7.6-3.3c2.8,0,5.6,1.4,7.5,3.3
			C965.1,1022.7,966.5,1025,966.5,1028.3z M958.4,1028.3c0-0.9-0.5-1.4-0.9-1.9c-0.4-0.5-0.9-0.9-1.8-0.9c-0.5,0-1.4,0.5-1.9,0.9
			c-0.5,0.5-0.5,0.9-0.5,1.9c0,0.5,0,0.9,0.5,1.4c0.5,0.5,1.4,1,1.9,1c0.9,0,1.4-0.5,1.8-1C958,1029.3,958.4,1028.8,958.4,1028.3z"
			/>
		<polygon class="st7" points="916.5,773.2 918.4,780.4 910.9,782.7 909,775.6 		"/>
		<polygon class="st7" points="913.2,789.9 905.2,792.2 903.3,785.1 910.9,782.7 		"/>
		<polygon class="st9" points="910.9,782.7 903.3,785.1 901.1,777.9 909,775.6 		"/>
		<polygon class="st7" points="909,775.6 901.1,777.9 901,777.5 900.9,777.5 899.1,770.4 906.6,768 		"/>
		<polygon class="st7" points="901,777.9 901.1,777.9 903.3,785.1 895.8,787.5 893.4,779.9 900.9,777.5 		"/>
		<polygon class="st9" points="901.1,777.9 901,777.9 900.9,777.5 901,777.5 		"/>
	</g>
</g>
<g id="Character">
	<path id="XMLID_600_" class="st10" d="M757.1,891.4c-90.8-122.1-120.7-135.7-137.8-139.9l29.9,81.9l62.1,80.1"/>
	<path id="XMLID_609_" class="st11" d="M610.4,750.2c0,0,19.3-5.9,47.2,21.5c27.9,27.4,61.8,67.2,61.8,67.2s-9.1,32.6-37.5,42.7
		l-41.2-42.7L610.4,750.2z"/>
	<path id="XMLID_610_" class="st12" d="M610.4,750.2c0,0,19.3-5.9,47.2,21.5c27.9,27.4,61.8,67.2,61.8,67.2s-9.1,32.6-37.5,42.7
		l-41.2-42.7L610.4,750.2z"/>
	
		<ellipse id="XMLID_526_" transform="matrix(0.9732 -0.2298 0.2298 0.9732 -128.6703 158.4612)" class="st8" cx="616.1" cy="631.8" rx="52.1" ry="52.1"/>
	<g id="XMLID_492_">
		<g id="XMLID_493_">
			<g id="XMLID_494_">
				
					<rect id="XMLID_515_" x="491.3" y="1514.2" transform="matrix(-1 -1.224647e-16 1.224647e-16 -1 1019.2544 3091.1995)" class="st10" width="36.7" height="62.9"/>
				<polygon id="XMLID_514_" class="st10" points="611,1531.4 647.8,1532.6 649.6,1466.1 612.9,1464.8 				"/>
				<path id="XMLID_513_" class="st13" d="M493.7,1015.7c0,35.1,0,254.1,0,254.1c-0.9,10.1-8.3,27.6-10.3,70.5
					c-2.5,52.7,5.6,197.7,5.6,197.7s17.2,17.1,41.5,0c0,0,32.6-207,39.2-259.2c5.7-45.5,15.5-169.3,15.5-169.3l22,186.4
					c0,0-6,34.2-7.3,58.4c-1.3,24.2,10.6,153,10.6,153s18.7,12.9,40,1.5c0,0,25.2-193.2,29-215.1c3.8-21.8-13.8-278.1-13.8-278.1
					H493.7z"/>
				<path id="XMLID_512_" class="st11" d="M529,761.9c-4.9,0.9-10.7,1.7-15.2,3.5c-10.1,4-14.7,16.4-17.1,27.3
					c-1.7,7.9-3,17.3-3,27.9v72v123c25.8,28,115.6,41.1,171.8,0c0,0-1.1-172.3-5.3-200.6c-7.3-49.2-30.9-66.7-54.5-64.9l-56.7,8.1
					L529,761.9z"/>
				<g id="XMLID_497_">
					<g id="XMLID_505_">
						<path id="XMLID_511_" class="st8" d="M526,668.9c0,0,8.4,39.7,11.8,46.2c3.4,6.5,10.4,8.4,10.4,8.4l-0.6-27.9L526,668.9z"/>
						<path id="XMLID_510_" class="st8" d="M536.6,612c0,0-9.1-1.6-16.2,5.7c-7,7.1-3.1,29.4,5.6,51.2l15.9,1.8L536.6,612z"/>
						<path id="XMLID_509_" class="st10" d="M546.7,670.7c-3.2,1.9-7.7-4.2-11.7-8.3c-3.9-4.1-16.8-9.7-23.2,3.8
							c-6.5,13.8,5.7,32,15.8,35.1c17.4,5.5,20.1-5.7,20.1-5.7l1.3,62.9c0,0,11.4,27.9,42.3,32.1c30.9,4.2,24.5-21.3,14.4-33.8
							l0-19.1c0,0,15.8,2.4,23.5,1.2c12.8-2,20.9-12.1,24.8-26c6.2-22.3,8.6-40.3,3.3-84.1c-5.8-48-61.7-48.6-91.9-29.6
							C535.2,618.2,546.7,670.7,546.7,670.7z"/>
						<path id="XMLID_508_" class="st8" d="M546.7,676.1c-1.6,0-7.7-10.1-11.7-13.7c-5.5-5,1.6-50.4,1.6-50.4s-5.3-11.3,5.3-22.9
							c7.5-8.3,20.1-9.2,41.7-12.6c11.3-1.8,28.4-4.9,39.7-7c13.5-2.5,24.6-5.2,34.1,3.1c7.4,6.4,10.6,17.8,6.6,26.7
							c-0.9,2.1-2.3,4-3.8,5.7c-2.7,3-3.2,7.1-7.1,8.4c0,0-8.1,7.4-28.5,9.8c-20.4,2.5-52.2-0.5-56.6-1.1
							c-5.9-0.8-7.5,1.1-10.7,16.7C554.4,652.6,552.1,676,546.7,676.1z"/>
						<path id="XMLID_507_" class="st8" d="M536.6,615.5l-19.3-10.4c2.7-5.5,9.3-7.7,14.6-4.8C537.3,603.2,539.4,610,536.6,615.5z"
							/>
						<path id="XMLID_506_" class="st14" d="M605.6,737.6c0,0-28.6-5.8-38.6-11.1c-6.7-3.6-12.2-9.7-13.8-13.7c0,0,1.9,8.5,7.9,16.1
							c7.3,9.4,44.6,16.2,44.6,16.2L605.6,737.6z"/>
					</g>
					<g id="XMLID_498_">
						<path id="XMLID_504_" class="st8" d="M600.6,668.8c0,3.3-2.6,6-5.7,5.9c-3.2,0-5.7-2.7-5.7-6c0-3.3,2.6-6,5.7-5.9
							C598,662.8,600.6,665.5,600.6,668.8z"/>
						<path id="XMLID_503_" class="st8" d="M594.5,647.1l-12.3,6.8c-1.8-3.5-0.5-7.9,2.9-9.8C588.5,642.3,592.7,643.6,594.5,647.1z"
							/>
						<path id="XMLID_502_" class="st14" d="M603,703.2l13.1,4.9c-1.3,3.8-5.3,5.7-8.9,4.3C603.6,711.1,601.8,706.9,603,703.2z"/>
						<path id="XMLID_501_" class="st8" d="M651.7,651.9l-11.2-8.6c2.3-3.2,6.6-3.9,9.7-1.5C653.3,644.2,654,648.7,651.7,651.9z"/>
						<path id="XMLID_500_" class="st8" d="M648.3,667.2c0,3.3-2.6,6-5.7,5.9c-3.2,0-5.7-2.7-5.7-6c0-3.3,2.6-6,5.7-5.9
							C645.7,661.2,648.3,663.9,648.3,667.2z"/>
						<polygon id="XMLID_499_" class="st14" points="617.2,656.5 619.1,691 637.1,684.8 						"/>
					</g>
				</g>
				<path id="XMLID_496_" class="st8" d="M528,1558.9v-5.3c3.5,1.5,11.7,32.7,26.3,46c11.6,10.6,27.4,22.8,31.4,34.6
					c4.2,12.3-22,19-32.8,17.1c-12.6-2.2-34.4-11.1-39.9-19.3c-5.5-8.2-8-20.3-12.5-26.3c-4.4-6-14.7-12.7-17.1-19.7
					c-1.3-3.8,0.2-12.2,2.1-19.3c1.7-6.5,3.5-13.6,5.8-13c0,0.8,0,4,0,4c2.7,3,10,5.9,18.4,6.2C515,1564.1,528,1563,528,1558.9z"/>
				<path id="XMLID_495_" class="st8" d="M648.1,1521.3c1.9,0.1,3.5,2.8,7.7,7.3c5.1,5.5,13.4,11.4,21.6,15.5
					c13.8,6.9,40.5,17.5,52.6,22.9c7.6,3.4,7.2,12.5-0.6,17.7c-7.8,5.2-26.7,8.9-49.3,3.9c-12.3-2.8-28.4-14.2-38.6-13.5
					c-10.2,0.6-29.2,0.5-36.7-4.7c-7.5-5.2-4.5-16.2-2.4-25.7c2.3-10.4,5.6-26.2,9.1-25.5l-0.1,3.3c4.4,6.7,26.9,9.4,36.6,4.5
					L648.1,1521.3z"/>
			</g>
		</g>
	</g>
	<path id="XMLID_491_" class="st8" d="M585.1,1109.5c0,0,29.4-8.3,51.2-29.3c0,0-9.9,18.5-39.2,35.7l0.6,100.1L585.1,1109.5z"/>
	<g id="XMLID_554_">
		<path id="XMLID_555_" class="st10" d="M515.5,1107.8c-6.1-5.2-9.9-11.8-19-18.4c-8.1-5.9-11.3-8.5-16.1-16.4
			c-5.2-8.6-10.1-37.4-11.8-64.6c-2.1-32.2,6.6-73,12.7-90c12.5-34.5,37.8-80.6,46.2-100.1c8.4-19.5,3.9-29.3-3.6-39.2
			c-8.9-11.6-25.2-11.6-40.6,14.8c-15.4,26.4-37.8,75.8-49,116c-5.4,19.5-11.4,51.4-8.9,92.7c1.7,28.9,8,51,16.2,78.7
			c2.2,7.6,2,13.7,4.5,28.7c1,6,2,12.7,4.7,18.1c3.5,6.9,7.8,13.4,13.2,19.1c6.7,7.1,15.2,12.7,24.6,15.3c5.2,1.4,10.7,2,16,0.9
			c5.3-1.1,10.3-3.8,13.6-8c0.7-0.9,1.3-1.8,1.4-2.9c0.3-1.9-1-3.8-2.1-5.3c-6.6-8.8-15-17.3-20.6-26.7c-4.7-8-7-14.2-5.2-13.9
			c1.8,0.3,4.3,5.2,11.1,9.5c6.6,4.1,15.4,4.2,17.4,0.3C522,1112.4,521.6,1113.1,515.5,1107.8z"/>
	</g>
	<path id="XMLID_569_" class="st11" d="M518,764.3c-14.7,0.9-28,4.2-42.7,33.3c-14.7,29.1-37.7,83.6-37.7,83.6s15.8,32.3,56.1,32.4
		c0,0,33.7-70.5,39.2-89.1C538.4,805.9,542.4,776,518,764.3z"/>
	<path id="XMLID_570_" class="st12" d="M518,764.3c-14.7,0.9-28,4.2-42.7,33.3c-14.7,29.1-37.7,83.6-37.7,83.6s15.8,32.3,56.1,32.4
		c0,0,33.7-70.5,39.2-89.1C538.4,805.9,542.4,776,518,764.3z"/>
	<g id="XMLID_584_">
		<path id="XMLID_585_" class="st10" d="M711.3,913.5c-3.4,9.8-35.4,39.4-59,48.9c-4.2,1.7-13.1,2.6-17.3,1.1
			c-5.2-1.9-11.9-3.9-17.5-3.4c-6.8,0.6-13.9,2-20.8,2.8c-1.4,0.2-2.9,0.3-4.2,1c-4.2,2.3-1.8,5.9,1.6,7.1c5.4,2,10.9,3.5,16.5,4.7
			c0,0.5,0,1-0.1,1.5c-14.1,5.6-29.4,7.3-44.5,8.9c-2.7,0.3-5.6,0.7-7.5,2.6c-1.8,1.8-2.3,4.7-1.7,7.3c0.6,2.5,2.1,4.8,3.6,6.8
			c6.6,8.7,15.6,16.7,26.8,18.2c11,1.5,22.3-1.2,32.8-4.1c5.1-1.4,10.1-3,15-4.8c11.5-4,28.7-11.6,42.3-18.9
			c35.4-19,64.8-41.2,80.8-56.8c14.8-14.4,11.2-28.3-1.3-45"/>
	</g>
	<path id="XMLID_599_" class="st13" d="M649.2,963.3c0,0,5.3-1.9,11,7.5c5.7,9.4,9.6,26.6,2.2,29.9c0,0,7.2,1.1,13-6.4
		c0,0,5.8-21.8-13-36.5C662.4,957.8,652.9,958.2,649.2,963.3z"/>
	<path id="XMLID_613_" class="st11" d="M676.3,966.8c2.9,5.1,1.1,11.7-4.2,14.7c-5.2,3-11.8,1.2-14.7-3.9
		c-2.9-5.1-1.1-11.7,4.2-14.7C666.8,959.9,673.4,961.7,676.3,966.8z"/>
	<path id="XMLID_614_" class="st2" d="M673.8,968.2c2.2,3.8,0.8,8.6-3.1,10.8c-3.8,2.2-8.7,0.9-10.9-2.9c-2.2-3.8-0.8-8.6,3.1-10.8
		C666.8,963.1,671.7,964.4,673.8,968.2z"/>
</g>
</svg>
