<svg xmlns="http://www.w3.org/2000/svg" width="60" height="60" viewBox="0 0 60 60">
  <g id="manual" transform="translate(-353 -361)">
    <g id="Ellipse_3" data-name="Ellipse 3" transform="translate(353 361)" fill="#00a9a2" stroke="#fff" stroke-width="3">
      <circle cx="30" cy="30" r="30" stroke="none"/>
      <circle cx="30" cy="30" r="28.5" fill="none"/>
    </g>
    <g id="manual-2" data-name="manual" transform="translate(368 376)">
      <path id="Path_3303" data-name="Path 3303" d="M6.211,5.273H26.426V0H6.211a2.637,2.637,0,0,0,0,5.273Z" fill="#fff"/>
      <path id="Path_3304" data-name="Path 3304" d="M15,24.609a6.152,6.152,0,1,0-6.152-6.152A6.159,6.159,0,0,0,15,24.609Zm-.879-10.547h1.758V15.82H14.121Zm0,3.516h1.758v5.273H14.121Z" fill="#fff"/>
      <path id="Path_3305" data-name="Path 3305" d="M3.574,27.363A2.641,2.641,0,0,0,6.211,30H26.426V7.031H6.211a4.356,4.356,0,0,1-2.637-.9ZM15,10.547a7.91,7.91,0,1,1-7.91,7.91A7.922,7.922,0,0,1,15,10.547Z" fill="#fff"/>
    </g>
  </g>
</svg>
