<svg xmlns="http://www.w3.org/2000/svg" width="169" height="190.02" viewBox="0 0 169 190.02">
  <g id="image_3" data-name="image 3" transform="translate(-749 -185.98)">
    <g id="Rectangle_3813" data-name="Rectangle 3813" transform="translate(749 203)" fill="#fff" stroke="#000" stroke-width="1">
      <rect width="169" height="173" rx="5" stroke="none"/>
      <rect x="0.5" y="0.5" width="168" height="172" rx="4.5" fill="none"/>
    </g>
    <rect id="Rectangle_3815" data-name="Rectangle 3815" width="169" height="1" rx="0.5" transform="translate(749 246)"/>
    <rect id="Rectangle_3816" data-name="Rectangle 3816" width="169" height="1" rx="0.5" transform="translate(749 289)"/>
    <rect id="Rectangle_3817" data-name="Rectangle 3817" width="169" height="1" rx="0.5" transform="translate(749 332)"/>
    <rect id="Rectangle_3814" data-name="Rectangle 3814" width="1" height="173" rx="0.5" transform="translate(827 203)"/>
    <path id="Path_4998" data-name="Path 4998" d="M1.3-9.84H4.23A6.484,6.484,0,0,1,5.6-9.7a3.293,3.293,0,0,1,1.072.42,1.986,1.986,0,0,1,.7.742,2.287,2.287,0,0,1,.248,1.1A2.241,2.241,0,0,1,7.2-6.113a2.185,2.185,0,0,1-1.3.818v.06a2.98,2.98,0,0,1,1.68.75,2.138,2.138,0,0,1,.6,1.605,2.784,2.784,0,0,1-.27,1.26,2.458,2.458,0,0,1-.765.9,3.5,3.5,0,0,1-1.178.54A5.907,5.907,0,0,1,4.455,0H1.3ZM4.02-5.64a2.97,2.97,0,0,0,1.815-.435,1.505,1.505,0,0,0,.555-1.26A1.251,1.251,0,0,0,5.8-8.5,3.393,3.393,0,0,0,4.08-8.85H2.565v3.21ZM4.275-.99a3.5,3.5,0,0,0,1.972-.472,1.659,1.659,0,0,0,.7-1.477,1.469,1.469,0,0,0-.683-1.342A3.775,3.775,0,0,0,4.275-4.71H2.565V-.99Zm5.895-6.3h1.245v4.455a2.654,2.654,0,0,0,.323,1.492,1.186,1.186,0,0,0,1.042.458,1.758,1.758,0,0,0,1.005-.293,4.716,4.716,0,0,0,.96-.938V-7.29h1.23V0h-1.02l-.1-1.14h-.045a4.863,4.863,0,0,1-1.073.96,2.409,2.409,0,0,1-1.327.36,1.977,1.977,0,0,1-1.7-.72,3.559,3.559,0,0,1-.533-2.13Zm8.07,9.3.27.068a1.176,1.176,0,0,0,.285.037,1.318,1.318,0,0,0,1.027-.442A3.127,3.127,0,0,0,20.445.555l.165-.54-2.925-7.3H18.96l1.485,4.035q.165.48.352,1.012T21.15-1.2h.06q.165-.5.315-1.035t.3-1.02L23.13-7.29h1.2L21.585.6a8.439,8.439,0,0,1-.435,1.005,3.307,3.307,0,0,1-.57.8,2.535,2.535,0,0,1-.75.532,2.293,2.293,0,0,1-.975.2A2.654,2.654,0,0,1,18.39,3.1,1.862,1.862,0,0,1,18,2.985Zm11.2-11.85H30.93l1.9,5.28.705,2.01h.06l.69-2.01,1.89-5.28h1.47V0H36.465V-5.415q0-.66.06-1.455t.1-1.455h-.06l-.78,2.19L33.9-.99h-.72L31.29-6.135l-.78-2.19h-.06q.045.66.1,1.455T30.6-5.415V0H29.445ZM39.96-3.63a4.46,4.46,0,0,1,.278-1.627,3.7,3.7,0,0,1,.743-1.208,3.111,3.111,0,0,1,1.073-.75,3.28,3.28,0,0,1,1.282-.255,3.28,3.28,0,0,1,1.283.255,3.111,3.111,0,0,1,1.073.75,3.7,3.7,0,0,1,.742,1.208A4.46,4.46,0,0,1,46.71-3.63a4.415,4.415,0,0,1-.278,1.612,3.615,3.615,0,0,1-.742,1.2,3.159,3.159,0,0,1-1.073.742A3.28,3.28,0,0,1,43.335.18a3.28,3.28,0,0,1-1.282-.255A3.159,3.159,0,0,1,40.98-.817a3.615,3.615,0,0,1-.743-1.2A4.415,4.415,0,0,1,39.96-3.63Zm1.275,0a4.035,4.035,0,0,0,.15,1.14,2.709,2.709,0,0,0,.427.877,1.965,1.965,0,0,0,.667.57,1.827,1.827,0,0,0,.855.2,1.827,1.827,0,0,0,.855-.2,1.965,1.965,0,0,0,.667-.57,2.709,2.709,0,0,0,.427-.877,4.035,4.035,0,0,0,.15-1.14,4.114,4.114,0,0,0-.15-1.148,2.792,2.792,0,0,0-.427-.892,1.934,1.934,0,0,0-.667-.577,1.827,1.827,0,0,0-.855-.2,1.827,1.827,0,0,0-.855.2,1.934,1.934,0,0,0-.667.577,2.792,2.792,0,0,0-.427.892A4.114,4.114,0,0,0,41.235-3.63ZM48.93-7.29h1.02l.1,1.32H50.1a3.368,3.368,0,0,1,.907-1.095A1.879,1.879,0,0,1,52.17-7.47a1.938,1.938,0,0,1,.78.15l-.24,1.08a2.774,2.774,0,0,0-.33-.09,1.958,1.958,0,0,0-.375-.03,1.633,1.633,0,0,0-.967.375,2.984,2.984,0,0,0-.878,1.3V0H48.93Zm4.815,3.66a4.415,4.415,0,0,1,.278-1.612,3.774,3.774,0,0,1,.735-1.208A3.189,3.189,0,0,1,55.8-7.207a2.937,2.937,0,0,1,1.215-.262,3.053,3.053,0,0,1,1.238.24,2.413,2.413,0,0,1,.915.69,3.166,3.166,0,0,1,.563,1.08,4.758,4.758,0,0,1,.195,1.41,4.214,4.214,0,0,1-.045.675H54.96A2.9,2.9,0,0,0,55.688-1.5a2.236,2.236,0,0,0,1.7.69,2.866,2.866,0,0,0,.968-.157,4.281,4.281,0,0,0,.847-.413l.435.81a6.21,6.21,0,0,1-1.065.525A3.7,3.7,0,0,1,57.24.18a3.569,3.569,0,0,1-1.373-.263,3.253,3.253,0,0,1-1.11-.75,3.473,3.473,0,0,1-.743-1.193A4.464,4.464,0,0,1,53.745-3.63Zm5.1-.555A2.7,2.7,0,0,0,58.373-5.9a1.6,1.6,0,0,0-1.327-.592,1.8,1.8,0,0,0-.743.157,2.059,2.059,0,0,0-.638.45,2.4,2.4,0,0,0-.472.72,3.329,3.329,0,0,0-.248.982Zm6.96,1.56a1.808,1.808,0,0,0,.15.743,1.717,1.717,0,0,0,.412.577,1.815,1.815,0,0,0,.615.367,2.21,2.21,0,0,0,.757.127,2.343,2.343,0,0,0,.975-.21,3.74,3.74,0,0,0,.9-.585,15.694,15.694,0,0,1-1.387-1.38A13.59,13.59,0,0,1,67.035-4.53a5.2,5.2,0,0,0-.878.877A1.641,1.641,0,0,0,65.805-2.625ZM66.96-7.71a2.982,2.982,0,0,0,.128.84,6.257,6.257,0,0,0,.338.885q.33-.225.637-.458a4.279,4.279,0,0,0,.54-.48,2.126,2.126,0,0,0,.368-.525,1.37,1.37,0,0,0,.135-.608,1.322,1.322,0,0,0-.218-.757.8.8,0,0,0-.712-.323,1.083,1.083,0,0,0-.885.4A1.562,1.562,0,0,0,66.96-7.71ZM72.705.18a6.75,6.75,0,0,1-1.1-.428,8.669,8.669,0,0,1-1.17-.7,4.783,4.783,0,0,1-1.268.817A3.846,3.846,0,0,1,67.605.18a3.5,3.5,0,0,1-1.223-.2,2.877,2.877,0,0,1-.945-.563,2.476,2.476,0,0,1-.615-.862,2.746,2.746,0,0,1-.217-1.1,2.465,2.465,0,0,1,.157-.9,2.94,2.94,0,0,1,.428-.75,4.159,4.159,0,0,1,.622-.637q.353-.293.728-.548a7.86,7.86,0,0,1-.473-1.193A3.9,3.9,0,0,1,65.895-7.7a2.481,2.481,0,0,1,.165-.915,2.243,2.243,0,0,1,.465-.735,2.152,2.152,0,0,1,.72-.495,2.337,2.337,0,0,1,.93-.18,1.865,1.865,0,0,1,1.425.54,1.97,1.97,0,0,1,.51,1.41,2.013,2.013,0,0,1-.195.885,3.251,3.251,0,0,1-.51.758,5.3,5.3,0,0,1-.713.66q-.4.307-.8.607a9.956,9.956,0,0,0,1.132,1.47A14.253,14.253,0,0,0,70.38-2.4a8.828,8.828,0,0,0,.8-1.335A8.483,8.483,0,0,0,71.76-5.31h1.155a13.792,13.792,0,0,1-.72,1.86,9.7,9.7,0,0,1-1,1.665,9.656,9.656,0,0,0,.975.585,5.037,5.037,0,0,0,.87.36ZM78.24-2.145a4.133,4.133,0,0,0,1.23.893,3.4,3.4,0,0,0,1.485.337,2.328,2.328,0,0,0,1.515-.442,1.43,1.43,0,0,0,.54-1.163,1.449,1.449,0,0,0-.128-.638,1.344,1.344,0,0,0-.353-.45A2.707,2.707,0,0,0,82-3.945q-.3-.15-.645-.315l-1.41-.615a6.179,6.179,0,0,1-.7-.36,3.149,3.149,0,0,1-.645-.51,2.362,2.362,0,0,1-.472-.713,2.363,2.363,0,0,1-.18-.952,2.343,2.343,0,0,1,.232-1.035,2.5,2.5,0,0,1,.652-.832,3.081,3.081,0,0,1,.983-.547,3.757,3.757,0,0,1,1.237-.195,3.887,3.887,0,0,1,1.628.337,4.128,4.128,0,0,1,1.268.877l-.66.81a3.473,3.473,0,0,0-1-.682,2.987,2.987,0,0,0-1.23-.248,2.162,2.162,0,0,0-1.342.382,1.255,1.255,0,0,0-.5,1.058,1.152,1.152,0,0,0,.15.608,1.664,1.664,0,0,0,.382.435,2.753,2.753,0,0,0,.525.33q.292.142.577.263l1.41.6a5.965,5.965,0,0,1,.795.413,2.847,2.847,0,0,1,.645.54,2.35,2.35,0,0,1,.428.72,2.66,2.66,0,0,1,.157.952,2.608,2.608,0,0,1-.232,1.1,2.633,2.633,0,0,1-.667.892,3.158,3.158,0,0,1-1.058.6,4.235,4.235,0,0,1-1.4.218,4.656,4.656,0,0,1-1.913-.39A4.751,4.751,0,0,1,77.49-1.275ZM86-1.89a2.022,2.022,0,0,1,1.072-1.837A8.866,8.866,0,0,1,90.48-4.62a3.359,3.359,0,0,0-.068-.675,1.606,1.606,0,0,0-.24-.585,1.3,1.3,0,0,0-.458-.413,1.511,1.511,0,0,0-.735-.158,2.937,2.937,0,0,0-1.193.24,5.894,5.894,0,0,0-.982.54l-.5-.855a7.959,7.959,0,0,1,1.245-.637,4.157,4.157,0,0,1,1.62-.307,2.239,2.239,0,0,1,1.935.817,3.608,3.608,0,0,1,.6,2.182V0H90.69l-.105-.87h-.03a6.057,6.057,0,0,1-1.132.742A2.8,2.8,0,0,1,88.14.18,2.228,2.228,0,0,1,86.6-.36,1.94,1.94,0,0,1,86-1.89Zm1.215-.09a1.043,1.043,0,0,0,.368.9,1.491,1.491,0,0,0,.908.27,2.12,2.12,0,0,0,1-.248,4.851,4.851,0,0,0,1-.728V-3.81a12.778,12.778,0,0,0-1.545.285,4.041,4.041,0,0,0-1.012.39,1.447,1.447,0,0,0-.548.517A1.276,1.276,0,0,0,87.21-1.98Zm6.075-5.31H94.56l1.38,4.14q.165.54.338,1.08T96.615-1h.06q.165-.525.33-1.065l.33-1.08,1.38-4.14H99.93L97.35,0H95.91Zm7.755,3.66a4.415,4.415,0,0,1,.277-1.612,3.774,3.774,0,0,1,.735-1.208,3.189,3.189,0,0,1,1.043-.757,2.937,2.937,0,0,1,1.215-.262,3.053,3.053,0,0,1,1.238.24,2.413,2.413,0,0,1,.915.69,3.166,3.166,0,0,1,.563,1.08,4.759,4.759,0,0,1,.195,1.41,4.213,4.213,0,0,1-.045.675h-4.92a2.9,2.9,0,0,0,.728,1.875,2.236,2.236,0,0,0,1.7.69,2.866,2.866,0,0,0,.967-.157,4.281,4.281,0,0,0,.848-.413l.435.81a6.21,6.21,0,0,1-1.065.525,3.7,3.7,0,0,1-1.335.225,3.569,3.569,0,0,1-1.372-.263,3.253,3.253,0,0,1-1.11-.75,3.473,3.473,0,0,1-.743-1.193A4.464,4.464,0,0,1,101.04-3.63Zm5.1-.555a2.7,2.7,0,0,0-.473-1.717,1.6,1.6,0,0,0-1.327-.592,1.8,1.8,0,0,0-.743.157,2.058,2.058,0,0,0-.637.45,2.4,2.4,0,0,0-.473.72,3.329,3.329,0,0,0-.247.982Zm6.585-5.655h1.485l1.9,5.28.705,2.01h.06l.69-2.01,1.89-5.28h1.47V0h-1.185V-5.415q0-.66.06-1.455t.1-1.455h-.06l-.78,2.19L117.18-.99h-.72l-1.89-5.145-.78-2.19h-.06q.045.66.1,1.455t.052,1.455V0h-1.155ZM123.24-3.63a4.46,4.46,0,0,1,.277-1.627,3.7,3.7,0,0,1,.743-1.208,3.111,3.111,0,0,1,1.073-.75,3.28,3.28,0,0,1,1.283-.255,3.28,3.28,0,0,1,1.283.255,3.111,3.111,0,0,1,1.072.75,3.7,3.7,0,0,1,.743,1.208,4.46,4.46,0,0,1,.277,1.627,4.415,4.415,0,0,1-.277,1.612,3.615,3.615,0,0,1-.743,1.2,3.159,3.159,0,0,1-1.072.742,3.28,3.28,0,0,1-1.283.255,3.28,3.28,0,0,1-1.283-.255,3.159,3.159,0,0,1-1.073-.742,3.615,3.615,0,0,1-.743-1.2A4.415,4.415,0,0,1,123.24-3.63Zm1.275,0a4.035,4.035,0,0,0,.15,1.14,2.709,2.709,0,0,0,.428.877,1.965,1.965,0,0,0,.667.57,1.827,1.827,0,0,0,.855.2,1.827,1.827,0,0,0,.855-.2,1.965,1.965,0,0,0,.667-.57,2.709,2.709,0,0,0,.428-.877,4.035,4.035,0,0,0,.15-1.14,4.115,4.115,0,0,0-.15-1.148,2.791,2.791,0,0,0-.428-.892,1.934,1.934,0,0,0-.667-.577,1.827,1.827,0,0,0-.855-.2,1.827,1.827,0,0,0-.855.2,1.934,1.934,0,0,0-.667.577,2.792,2.792,0,0,0-.428.892A4.114,4.114,0,0,0,124.515-3.63Zm7.695-3.66h1.02l.1,1.32h.045a3.368,3.368,0,0,1,.908-1.095,1.879,1.879,0,0,1,1.163-.405,1.938,1.938,0,0,1,.78.15l-.24,1.08a2.774,2.774,0,0,0-.33-.09,1.958,1.958,0,0,0-.375-.03,1.633,1.633,0,0,0-.967.375,2.984,2.984,0,0,0-.877,1.3V0h-1.23Zm4.815,3.66a4.415,4.415,0,0,1,.277-1.612,3.774,3.774,0,0,1,.735-1.208,3.189,3.189,0,0,1,1.042-.757A2.937,2.937,0,0,1,140.3-7.47a3.053,3.053,0,0,1,1.237.24,2.413,2.413,0,0,1,.915.69,3.166,3.166,0,0,1,.563,1.08,4.759,4.759,0,0,1,.195,1.41,4.214,4.214,0,0,1-.045.675h-4.92a2.9,2.9,0,0,0,.728,1.875,2.236,2.236,0,0,0,1.7.69,2.866,2.866,0,0,0,.967-.157,4.281,4.281,0,0,0,.847-.413l.435.81a6.211,6.211,0,0,1-1.065.525A3.7,3.7,0,0,1,140.52.18a3.569,3.569,0,0,1-1.372-.263,3.253,3.253,0,0,1-1.11-.75,3.473,3.473,0,0,1-.742-1.193A4.464,4.464,0,0,1,137.025-3.63Zm5.1-.555a2.7,2.7,0,0,0-.472-1.717,1.6,1.6,0,0,0-1.327-.592,1.8,1.8,0,0,0-.743.157,2.059,2.059,0,0,0-.637.45,2.4,2.4,0,0,0-.473.72,3.328,3.328,0,0,0-.247.982Z" transform="translate(762 196)"/>
    <path id="Path_4997" data-name="Path 4997" d="M2.01-4.965a6.146,6.146,0,0,0,.21,1.673,4.059,4.059,0,0,0,.592,1.275,2.68,2.68,0,0,0,.915.817A2.487,2.487,0,0,0,4.92-.915,2.487,2.487,0,0,0,6.113-1.2a2.68,2.68,0,0,0,.915-.817A4.059,4.059,0,0,0,7.62-3.293a6.146,6.146,0,0,0,.21-1.673,6,6,0,0,0-.21-1.65A3.789,3.789,0,0,0,7.027-7.86a2.692,2.692,0,0,0-.915-.788A2.541,2.541,0,0,0,4.92-8.925a2.541,2.541,0,0,0-1.193.278,2.692,2.692,0,0,0-.915.788A3.789,3.789,0,0,0,2.22-6.615,6,6,0,0,0,2.01-4.965Zm7.335,7.2a5.189,5.189,0,0,1-.6.15,4.131,4.131,0,0,1-.81.075,3.828,3.828,0,0,1-2.28-.653A3.9,3.9,0,0,1,4.3.135a3.68,3.68,0,0,1-1.47-.51A3.884,3.884,0,0,1,1.7-1.44,5,5,0,0,1,.975-2.992,7.166,7.166,0,0,1,.72-4.965a6.8,6.8,0,0,1,.307-2.122,4.667,4.667,0,0,1,.863-1.59,3.709,3.709,0,0,1,1.327-1,4.128,4.128,0,0,1,1.7-.345,4.053,4.053,0,0,1,1.7.352A3.86,3.86,0,0,1,7.957-8.662a4.6,4.6,0,0,1,.87,1.59,6.743,6.743,0,0,1,.307,2.108,7.144,7.144,0,0,1-.248,1.943,5.011,5.011,0,0,1-.7,1.53A3.916,3.916,0,0,1,7.08-.428,3.828,3.828,0,0,1,5.655.12,2.189,2.189,0,0,0,6.63,1.1a3.177,3.177,0,0,0,1.44.315,3.263,3.263,0,0,0,.578-.045q.247-.045.457-.105ZM11.31-7.29h1.245v4.455a2.654,2.654,0,0,0,.323,1.492,1.186,1.186,0,0,0,1.042.458,1.758,1.758,0,0,0,1.005-.293,4.716,4.716,0,0,0,.96-.938V-7.29h1.23V0H16.1L15.99-1.14h-.045a4.863,4.863,0,0,1-1.073.96,2.409,2.409,0,0,1-1.328.36,1.977,1.977,0,0,1-1.7-.72,3.559,3.559,0,0,1-.533-2.13Zm8.205,5.4a2.022,2.022,0,0,1,1.072-1.837A8.866,8.866,0,0,1,24-4.62a3.36,3.36,0,0,0-.067-.675,1.606,1.606,0,0,0-.24-.585,1.3,1.3,0,0,0-.458-.413A1.511,1.511,0,0,0,22.5-6.45a2.937,2.937,0,0,0-1.192.24,5.894,5.894,0,0,0-.983.54l-.5-.855a7.959,7.959,0,0,1,1.245-.637,4.157,4.157,0,0,1,1.62-.307,2.239,2.239,0,0,1,1.935.817,3.608,3.608,0,0,1,.6,2.182V0H24.21L24.1-.87h-.03a6.057,6.057,0,0,1-1.132.742A2.8,2.8,0,0,1,21.66.18a2.228,2.228,0,0,1-1.537-.54A1.94,1.94,0,0,1,19.515-1.89Zm1.215-.09a1.043,1.043,0,0,0,.368.9,1.491,1.491,0,0,0,.908.27,2.12,2.12,0,0,0,1-.248,4.851,4.851,0,0,0,1-.728V-3.81a12.777,12.777,0,0,0-1.545.285,4.041,4.041,0,0,0-1.012.39,1.447,1.447,0,0,0-.548.517A1.276,1.276,0,0,0,20.73-1.98Zm7.125-5.31h1.02l.1,1.05h.045a5.939,5.939,0,0,1,1.1-.877A2.525,2.525,0,0,1,31.47-7.47a1.96,1.96,0,0,1,1.687.72,3.559,3.559,0,0,1,.532,2.13V0H32.46V-4.455a2.605,2.605,0,0,0-.33-1.492A1.206,1.206,0,0,0,31.08-6.4a1.792,1.792,0,0,0-1,.285,6.52,6.52,0,0,0-.99.84V0h-1.23ZM36.57-6.285H35.49v-.93l1.14-.075.15-2.04h1.035v2.04H39.78v1.005H37.815v4.05a1.857,1.857,0,0,0,.247,1.043.981.981,0,0,0,.878.368,1.635,1.635,0,0,0,.42-.06,3.2,3.2,0,0,0,.4-.135l.24.93A6.377,6.377,0,0,1,39.353.1a3.053,3.053,0,0,1-.7.083A2.379,2.379,0,0,1,37.673,0a1.69,1.69,0,0,1-.645-.5,1.929,1.929,0,0,1-.353-.765,4.358,4.358,0,0,1-.1-.99ZM42.36-8.79a.87.87,0,0,1-.608-.225.737.737,0,0,1-.247-.57.731.731,0,0,1,.247-.578.888.888,0,0,1,.608-.217.888.888,0,0,1,.607.217.731.731,0,0,1,.248.578.737.737,0,0,1-.248.57A.87.87,0,0,1,42.36-8.79Zm-.63,1.5h1.23V0H41.73Zm4.2,1.005H44.85v-.93l1.14-.075.15-2.04h1.035v2.04H49.14v1.005H47.175v4.05a1.857,1.857,0,0,0,.247,1.043.981.981,0,0,0,.878.368,1.635,1.635,0,0,0,.42-.06,3.2,3.2,0,0,0,.4-.135l.24.93A6.377,6.377,0,0,1,48.713.1a3.053,3.053,0,0,1-.7.083A2.379,2.379,0,0,1,47.033,0a1.69,1.69,0,0,1-.645-.5,1.929,1.929,0,0,1-.353-.765,4.358,4.358,0,0,1-.1-.99ZM50.6,2.01l.27.068a1.176,1.176,0,0,0,.285.037,1.318,1.318,0,0,0,1.028-.442A3.127,3.127,0,0,0,52.8.555l.165-.54L50.04-7.29h1.275L52.8-3.255q.165.48.353,1.012T53.505-1.2h.06q.165-.5.315-1.035t.3-1.02L55.485-7.29h1.2L53.94.6a8.439,8.439,0,0,1-.435,1.005,3.307,3.307,0,0,1-.57.8,2.535,2.535,0,0,1-.75.532,2.293,2.293,0,0,1-.975.2,2.654,2.654,0,0,1-.465-.038,1.862,1.862,0,0,1-.39-.112Z" transform="translate(760 230)"/>
    <path id="Path_4996" data-name="Path 4996" d="M-16.575-9.84h2.925a6.484,6.484,0,0,1,1.373.135,3.293,3.293,0,0,1,1.072.42,1.986,1.986,0,0,1,.7.742,2.287,2.287,0,0,1,.248,1.1,2.241,2.241,0,0,1-.42,1.327,2.185,2.185,0,0,1-1.3.818v.06a2.98,2.98,0,0,1,1.68.75A2.138,2.138,0,0,1-9.7-2.88a2.784,2.784,0,0,1-.27,1.26,2.458,2.458,0,0,1-.765.9,3.5,3.5,0,0,1-1.178.54A5.907,5.907,0,0,1-13.425,0h-3.15Zm2.715,4.2a2.97,2.97,0,0,0,1.815-.435,1.505,1.505,0,0,0,.555-1.26A1.251,1.251,0,0,0-12.075-8.5,3.393,3.393,0,0,0-13.8-8.85h-1.515v3.21ZM-13.6-.99a3.5,3.5,0,0,0,1.972-.472,1.659,1.659,0,0,0,.7-1.477,1.469,1.469,0,0,0-.682-1.342A3.775,3.775,0,0,0-13.6-4.71h-1.71V-.99Zm5.9-6.3h1.245v4.455a2.654,2.654,0,0,0,.323,1.492A1.186,1.186,0,0,0-5.1-.885a1.758,1.758,0,0,0,1.005-.293,4.716,4.716,0,0,0,.96-.938V-7.29H-1.9V0h-1.02L-3.03-1.14h-.045a4.863,4.863,0,0,1-1.073.96A2.409,2.409,0,0,1-5.475.18a1.977,1.977,0,0,1-1.7-.72A3.559,3.559,0,0,1-7.71-2.67ZM.36,2.01l.27.068a1.176,1.176,0,0,0,.285.037,1.318,1.318,0,0,0,1.027-.442A3.127,3.127,0,0,0,2.565.555L2.73.015-.195-7.29H1.08L2.565-3.255q.165.48.353,1.012T3.27-1.2h.06q.165-.5.315-1.035t.3-1.02L5.25-7.29h1.2L3.705.6A8.439,8.439,0,0,1,3.27,1.605a3.307,3.307,0,0,1-.57.8,2.535,2.535,0,0,1-.75.532,2.293,2.293,0,0,1-.975.2A2.654,2.654,0,0,1,.51,3.1a1.862,1.862,0,0,1-.39-.112Zm12.96-7.1L10.635-9.84h1.38l1.35,2.52q.18.345.353.668t.412.758h.06q.21-.435.36-.758t.33-.668l1.305-2.52h1.32l-2.67,4.815L17.7,0H16.32L14.865-2.655q-.2-.36-.4-.743t-.443-.832h-.06q-.21.45-.4.832t-.382.743L11.76,0H10.455Z" transform="translate(788 273)"/>
    <path id="Path_4995" data-name="Path 4995" d="M-16.575-9.84h2.925a6.484,6.484,0,0,1,1.373.135,3.293,3.293,0,0,1,1.072.42,1.986,1.986,0,0,1,.7.742,2.287,2.287,0,0,1,.248,1.1,2.241,2.241,0,0,1-.42,1.327,2.185,2.185,0,0,1-1.3.818v.06a2.98,2.98,0,0,1,1.68.75A2.138,2.138,0,0,1-9.7-2.88a2.784,2.784,0,0,1-.27,1.26,2.458,2.458,0,0,1-.765.9,3.5,3.5,0,0,1-1.178.54A5.907,5.907,0,0,1-13.425,0h-3.15Zm2.715,4.2a2.97,2.97,0,0,0,1.815-.435,1.505,1.505,0,0,0,.555-1.26A1.251,1.251,0,0,0-12.075-8.5,3.393,3.393,0,0,0-13.8-8.85h-1.515v3.21ZM-13.6-.99a3.5,3.5,0,0,0,1.972-.472,1.659,1.659,0,0,0,.7-1.477,1.469,1.469,0,0,0-.682-1.342A3.775,3.775,0,0,0-13.6-4.71h-1.71V-.99Zm5.9-6.3h1.245v4.455a2.654,2.654,0,0,0,.323,1.492A1.186,1.186,0,0,0-5.1-.885a1.758,1.758,0,0,0,1.005-.293,4.716,4.716,0,0,0,.96-.938V-7.29H-1.9V0h-1.02L-3.03-1.14h-.045a4.863,4.863,0,0,1-1.073.96A2.409,2.409,0,0,1-5.475.18a1.977,1.977,0,0,1-1.7-.72A3.559,3.559,0,0,1-7.71-2.67ZM.36,2.01l.27.068a1.176,1.176,0,0,0,.285.037,1.318,1.318,0,0,0,1.027-.442A3.127,3.127,0,0,0,2.565.555L2.73.015-.195-7.29H1.08L2.565-3.255q.165.48.353,1.012T3.27-1.2h.06q.165-.5.315-1.035t.3-1.02L5.25-7.29h1.2L3.705.6A8.439,8.439,0,0,1,3.27,1.605a3.307,3.307,0,0,1-.57.8,2.535,2.535,0,0,1-.75.532,2.293,2.293,0,0,1-.975.2A2.654,2.654,0,0,1,.51,3.1a1.862,1.862,0,0,1-.39-.112Zm12.96-7.1L10.635-9.84h1.38l1.35,2.52q.18.345.353.668t.412.758h.06q.21-.435.36-.758t.33-.668l1.305-2.52h1.32l-2.67,4.815L17.7,0H16.32L14.865-2.655q-.2-.36-.4-.743t-.443-.832h-.06q-.21.45-.4.832t-.382.743L11.76,0H10.455Z" transform="translate(788 316)"/>
    <path id="Path_4994" data-name="Path 4994" d="M-16.575-9.84h2.925a6.484,6.484,0,0,1,1.373.135,3.293,3.293,0,0,1,1.072.42,1.986,1.986,0,0,1,.7.742,2.287,2.287,0,0,1,.248,1.1,2.241,2.241,0,0,1-.42,1.327,2.185,2.185,0,0,1-1.3.818v.06a2.98,2.98,0,0,1,1.68.75A2.138,2.138,0,0,1-9.7-2.88a2.784,2.784,0,0,1-.27,1.26,2.458,2.458,0,0,1-.765.9,3.5,3.5,0,0,1-1.178.54A5.907,5.907,0,0,1-13.425,0h-3.15Zm2.715,4.2a2.97,2.97,0,0,0,1.815-.435,1.505,1.505,0,0,0,.555-1.26A1.251,1.251,0,0,0-12.075-8.5,3.393,3.393,0,0,0-13.8-8.85h-1.515v3.21ZM-13.6-.99a3.5,3.5,0,0,0,1.972-.472,1.659,1.659,0,0,0,.7-1.477,1.469,1.469,0,0,0-.682-1.342A3.775,3.775,0,0,0-13.6-4.71h-1.71V-.99Zm5.9-6.3h1.245v4.455a2.654,2.654,0,0,0,.323,1.492A1.186,1.186,0,0,0-5.1-.885a1.758,1.758,0,0,0,1.005-.293,4.716,4.716,0,0,0,.96-.938V-7.29H-1.9V0h-1.02L-3.03-1.14h-.045a4.863,4.863,0,0,1-1.073.96A2.409,2.409,0,0,1-5.475.18a1.977,1.977,0,0,1-1.7-.72A3.559,3.559,0,0,1-7.71-2.67ZM.36,2.01l.27.068a1.176,1.176,0,0,0,.285.037,1.318,1.318,0,0,0,1.027-.442A3.127,3.127,0,0,0,2.565.555L2.73.015-.195-7.29H1.08L2.565-3.255q.165.48.353,1.012T3.27-1.2h.06q.165-.5.315-1.035t.3-1.02L5.25-7.29h1.2L3.705.6A8.439,8.439,0,0,1,3.27,1.605a3.307,3.307,0,0,1-.57.8,2.535,2.535,0,0,1-.75.532,2.293,2.293,0,0,1-.975.2A2.654,2.654,0,0,1,.51,3.1a1.862,1.862,0,0,1-.39-.112Zm12.96-7.1L10.635-9.84h1.38l1.35,2.52q.18.345.353.668t.412.758h.06q.21-.435.36-.758t.33-.668l1.305-2.52h1.32l-2.67,4.815L17.7,0H16.32L14.865-2.655q-.2-.36-.4-.743t-.443-.832h-.06q-.21.45-.4.832t-.382.743L11.76,0H10.455Z" transform="translate(788 359)"/>
    <path id="Path_4993" data-name="Path 4993" d="M1.3-9.84h2.46A4.53,4.53,0,0,1,7.23-8.58,5.08,5.08,0,0,1,8.415-4.965a6.754,6.754,0,0,1-.3,2.093,4.185,4.185,0,0,1-.885,1.56,3.831,3.831,0,0,1-1.44.975A5.324,5.324,0,0,1,3.825,0H1.3Zm2.37,8.82A3.172,3.172,0,0,0,6.27-2.055a4.448,4.448,0,0,0,.855-2.91A4.262,4.262,0,0,0,6.27-7.83a3.244,3.244,0,0,0-2.595-.99H2.565v7.8ZM11.34-8.79a.87.87,0,0,1-.608-.225.737.737,0,0,1-.247-.57.731.731,0,0,1,.247-.578.888.888,0,0,1,.608-.217.888.888,0,0,1,.608.217.731.731,0,0,1,.248.578.737.737,0,0,1-.248.57A.87.87,0,0,1,11.34-8.79Zm-.63,1.5h1.23V0H10.71Zm3.8,5.64a4.935,4.935,0,0,0,.983.63,2.668,2.668,0,0,0,1.162.24,1.551,1.551,0,0,0,1.08-.33,1.056,1.056,0,0,0,.36-.81.829.829,0,0,0-.15-.495,1.492,1.492,0,0,0-.382-.368,2.8,2.8,0,0,0-.533-.277l-.6-.24q-.39-.135-.78-.308a3.115,3.115,0,0,1-.7-.42,2.125,2.125,0,0,1-.5-.577,1.536,1.536,0,0,1-.2-.8,1.965,1.965,0,0,1,.173-.817,1.882,1.882,0,0,1,.495-.66,2.345,2.345,0,0,1,.787-.435,3.263,3.263,0,0,1,1.05-.157,3.271,3.271,0,0,1,1.267.24,3.944,3.944,0,0,1,1,.585l-.585.78a3.919,3.919,0,0,0-.78-.465,2.154,2.154,0,0,0-.885-.18,1.4,1.4,0,0,0-1.012.315,1,1,0,0,0-.323.735.7.7,0,0,0,.135.435,1.445,1.445,0,0,0,.36.33,2.636,2.636,0,0,0,.517.262l.608.233q.39.15.788.315a3.019,3.019,0,0,1,.712.412,2.028,2.028,0,0,1,.517.608,1.749,1.749,0,0,1,.2.87,2.053,2.053,0,0,1-.172.84,2,2,0,0,1-.51.69,2.438,2.438,0,0,1-.84.473A3.526,3.526,0,0,1,16.6.18,3.925,3.925,0,0,1,15.12-.105a4.633,4.633,0,0,1-1.23-.72Zm6.24-1.98a4.355,4.355,0,0,1,.285-1.627A3.667,3.667,0,0,1,21.8-6.465a3.191,3.191,0,0,1,1.118-.75,3.581,3.581,0,0,1,1.343-.255,2.707,2.707,0,0,1,1.237.262,3.942,3.942,0,0,1,.892.608l-.615.8a3.44,3.44,0,0,0-.682-.465,1.706,1.706,0,0,0-.788-.18,2.079,2.079,0,0,0-.915.2,2.058,2.058,0,0,0-.72.577,2.862,2.862,0,0,0-.472.892A3.613,3.613,0,0,0,22.02-3.63a3.692,3.692,0,0,0,.165,1.14,2.756,2.756,0,0,0,.457.877,2.023,2.023,0,0,0,.712.57,2.079,2.079,0,0,0,.915.2,2.07,2.07,0,0,0,.952-.217,3.432,3.432,0,0,0,.757-.517l.555.81a4.011,4.011,0,0,1-1.1.69A3.243,3.243,0,0,1,24.165.18a3.564,3.564,0,0,1-1.35-.255,3.033,3.033,0,0,1-1.087-.742,3.492,3.492,0,0,1-.72-1.2A4.642,4.642,0,0,1,20.745-3.63Zm6.825,0a4.46,4.46,0,0,1,.278-1.627,3.7,3.7,0,0,1,.743-1.208,3.111,3.111,0,0,1,1.072-.75,3.28,3.28,0,0,1,1.283-.255,3.28,3.28,0,0,1,1.283.255,3.111,3.111,0,0,1,1.072.75,3.7,3.7,0,0,1,.743,1.208A4.46,4.46,0,0,1,34.32-3.63a4.415,4.415,0,0,1-.278,1.612,3.615,3.615,0,0,1-.743,1.2,3.159,3.159,0,0,1-1.072.742A3.28,3.28,0,0,1,30.945.18a3.28,3.28,0,0,1-1.283-.255A3.159,3.159,0,0,1,28.59-.817a3.615,3.615,0,0,1-.743-1.2A4.415,4.415,0,0,1,27.57-3.63Zm1.275,0a4.035,4.035,0,0,0,.15,1.14,2.709,2.709,0,0,0,.427.877,1.965,1.965,0,0,0,.668.57,1.827,1.827,0,0,0,.855.2,1.827,1.827,0,0,0,.855-.2,1.965,1.965,0,0,0,.667-.57A2.709,2.709,0,0,0,32.9-2.49a4.035,4.035,0,0,0,.15-1.14,4.114,4.114,0,0,0-.15-1.148,2.792,2.792,0,0,0-.428-.892,1.934,1.934,0,0,0-.667-.577,1.827,1.827,0,0,0-.855-.2,1.827,1.827,0,0,0-.855.2,1.934,1.934,0,0,0-.668.577,2.792,2.792,0,0,0-.427.892A4.114,4.114,0,0,0,28.845-3.63Zm7.59-3.66H37.68v4.455A2.654,2.654,0,0,0,38-1.343a1.186,1.186,0,0,0,1.042.458,1.758,1.758,0,0,0,1.005-.293,4.716,4.716,0,0,0,.96-.938V-7.29h1.23V0H41.22l-.1-1.14H41.07A4.863,4.863,0,0,1,40-.18,2.409,2.409,0,0,1,38.67.18a1.977,1.977,0,0,1-1.7-.72,3.559,3.559,0,0,1-.533-2.13ZM45-7.29h1.02l.1,1.05h.045a5.939,5.939,0,0,1,1.1-.877,2.525,2.525,0,0,1,1.343-.352,1.96,1.96,0,0,1,1.688.72,3.559,3.559,0,0,1,.532,2.13V0H49.6V-4.455a2.605,2.605,0,0,0-.33-1.492,1.206,1.206,0,0,0-1.05-.457,1.792,1.792,0,0,0-1,.285,6.52,6.52,0,0,0-.99.84V0H45Zm8.715,1.005h-1.08v-.93l1.14-.075.15-2.04H54.96v2.04h1.965v1.005H54.96v4.05a1.857,1.857,0,0,0,.247,1.043.981.981,0,0,0,.878.368,1.635,1.635,0,0,0,.42-.06,3.2,3.2,0,0,0,.4-.135l.24.93A6.377,6.377,0,0,1,56.5.1a3.053,3.053,0,0,1-.7.083A2.379,2.379,0,0,1,54.818,0a1.69,1.69,0,0,1-.645-.5,1.929,1.929,0,0,1-.353-.765,4.358,4.358,0,0,1-.1-.99Z" transform="translate(844 230)"/>
    <path id="Path_4992" data-name="Path 4992" d="M-33.42-4.92a6.3,6.3,0,0,1,.337-2.13,4.641,4.641,0,0,1,.945-1.605A4.115,4.115,0,0,1-30.7-9.668a4.627,4.627,0,0,1,1.822-.352,3.454,3.454,0,0,1,1.7.382,4.765,4.765,0,0,1,1.125.832l-.72.8a3.47,3.47,0,0,0-.863-.653,2.558,2.558,0,0,0-1.222-.263,3.179,3.179,0,0,0-1.35.278,2.894,2.894,0,0,0-1.028.795A3.688,3.688,0,0,0-31.9-6.6a5.459,5.459,0,0,0-.232,1.65,5.947,5.947,0,0,0,.217,1.673,3.719,3.719,0,0,0,.63,1.268,2.782,2.782,0,0,0,1.02.81,3.268,3.268,0,0,0,1.4.285,3.2,3.2,0,0,0,1-.157,2.152,2.152,0,0,0,.78-.428V-4.065H-29.16V-5.1h3.225V-.96a3.883,3.883,0,0,1-1.275.81,4.616,4.616,0,0,1-1.785.33A4.509,4.509,0,0,1-30.78-.165a3.907,3.907,0,0,1-1.4-1,4.651,4.651,0,0,1-.915-1.6A6.552,6.552,0,0,1-33.42-4.92Zm9.435,1.29a4.415,4.415,0,0,1,.278-1.612,3.774,3.774,0,0,1,.735-1.208,3.189,3.189,0,0,1,1.042-.757,2.937,2.937,0,0,1,1.215-.262,3.053,3.053,0,0,1,1.238.24,2.413,2.413,0,0,1,.915.69A3.166,3.166,0,0,1-18-5.46a4.758,4.758,0,0,1,.195,1.41,4.214,4.214,0,0,1-.045.675h-4.92A2.9,2.9,0,0,0-22.042-1.5a2.236,2.236,0,0,0,1.7.69,2.866,2.866,0,0,0,.968-.157,4.281,4.281,0,0,0,.847-.413l.435.81a6.21,6.21,0,0,1-1.065.525A3.7,3.7,0,0,1-20.49.18a3.569,3.569,0,0,1-1.373-.263,3.253,3.253,0,0,1-1.11-.75,3.473,3.473,0,0,1-.743-1.193A4.464,4.464,0,0,1-23.985-3.63Zm5.1-.555A2.7,2.7,0,0,0-19.357-5.9a1.6,1.6,0,0,0-1.328-.592,1.8,1.8,0,0,0-.743.157,2.059,2.059,0,0,0-.637.45,2.4,2.4,0,0,0-.472.72,3.329,3.329,0,0,0-.248.982Zm3.18-2.1h-1.08v-.93l1.14-.075.15-2.04h1.035v2.04h1.965v1.005H-14.46v4.05a1.857,1.857,0,0,0,.247,1.043.981.981,0,0,0,.878.368,1.635,1.635,0,0,0,.42-.06,3.2,3.2,0,0,0,.405-.135l.24.93A6.377,6.377,0,0,1-12.922.1a3.053,3.053,0,0,1-.7.083A2.379,2.379,0,0,1-14.6,0a1.69,1.69,0,0,1-.645-.5A1.929,1.929,0,0,1-15.6-1.26a4.358,4.358,0,0,1-.1-.99ZM-5.535-3.81-8.5-9.84h1.35l1.26,2.775L-5.422-6q.233.525.488,1.08h.06q.255-.555.5-1.08T-3.9-7.065L-2.625-9.84h1.29L-4.29-3.81V0H-5.535Zm7.215,0A1.932,1.932,0,0,1,.053-4.62,3.793,3.793,0,0,1-.555-6.93,3.73,3.73,0,0,1,.053-9.217a1.938,1.938,0,0,1,1.628-.8,1.943,1.943,0,0,1,1.62.8A3.7,3.7,0,0,1,3.915-6.93,3.759,3.759,0,0,1,3.3-4.62,1.937,1.937,0,0,1,1.68-3.81Zm0-.765a1.066,1.066,0,0,0,.93-.592A3.451,3.451,0,0,0,2.97-6.93a3.364,3.364,0,0,0-.36-1.747,1.069,1.069,0,0,0-.93-.578,1.079,1.079,0,0,0-.945.578A3.364,3.364,0,0,0,.375-6.93a3.451,3.451,0,0,0,.36,1.763A1.076,1.076,0,0,0,1.68-4.575ZM1.95.18l5.43-10.2h.84L2.79.18Zm6.585,0A1.932,1.932,0,0,1,6.908-.63,3.793,3.793,0,0,1,6.3-2.94a3.73,3.73,0,0,1,.608-2.288,1.938,1.938,0,0,1,1.627-.8,1.943,1.943,0,0,1,1.62.8A3.7,3.7,0,0,1,10.77-2.94a3.759,3.759,0,0,1-.615,2.31A1.937,1.937,0,0,1,8.535.18Zm0-.765a1.066,1.066,0,0,0,.93-.592,3.451,3.451,0,0,0,.36-1.762,3.364,3.364,0,0,0-.36-1.748,1.069,1.069,0,0,0-.93-.578,1.079,1.079,0,0,0-.945.578A3.364,3.364,0,0,0,7.23-2.94a3.451,3.451,0,0,0,.36,1.762A1.076,1.076,0,0,0,8.535-.585ZM19.86.18a3.981,3.981,0,0,1-1.7-.36,3.863,3.863,0,0,1-1.335-1.027,4.742,4.742,0,0,1-.87-1.62,6.939,6.939,0,0,1-.307-2.138,6.8,6.8,0,0,1,.307-2.122,4.6,4.6,0,0,1,.87-1.59,3.779,3.779,0,0,1,1.335-1,4.128,4.128,0,0,1,1.7-.345,4.016,4.016,0,0,1,1.688.352,3.86,3.86,0,0,1,1.335,1.005,4.6,4.6,0,0,1,.87,1.59,6.743,6.743,0,0,1,.308,2.108,6.939,6.939,0,0,1-.308,2.138,4.742,4.742,0,0,1-.87,1.62A3.863,3.863,0,0,1,21.548-.18,3.945,3.945,0,0,1,19.86.18Zm0-1.1A2.487,2.487,0,0,0,21.052-1.2a2.68,2.68,0,0,0,.915-.817,4.059,4.059,0,0,0,.593-1.275,6.146,6.146,0,0,0,.21-1.673,6,6,0,0,0-.21-1.65,3.789,3.789,0,0,0-.593-1.245,2.692,2.692,0,0,0-.915-.788,2.541,2.541,0,0,0-1.192-.278,2.586,2.586,0,0,0-1.2.278,2.67,2.67,0,0,0-.923.788,3.789,3.789,0,0,0-.592,1.245,6,6,0,0,0-.21,1.65,6.146,6.146,0,0,0,.21,1.673,4.059,4.059,0,0,0,.592,1.275,2.658,2.658,0,0,0,.923.817A2.531,2.531,0,0,0,19.86-.915Zm9.75-8.76a2.013,2.013,0,0,0-.825-.18q-1.02,0-1.02,1.41V-7.29H29.31v1.005H27.765V0h-1.23V-6.285h-.99v-.93l.99-.075V-8.445a2.753,2.753,0,0,1,.517-1.77,1.944,1.944,0,0,1,1.612-.645,3.038,3.038,0,0,1,.653.067,3.38,3.38,0,0,1,.563.173Zm4.68,0a2.013,2.013,0,0,0-.825-.18q-1.02,0-1.02,1.41V-7.29H33.99v1.005H32.445V0h-1.23V-6.285h-.99v-.93l.99-.075V-8.445a2.753,2.753,0,0,1,.517-1.77,1.944,1.944,0,0,1,1.612-.645,3.038,3.038,0,0,1,.653.067,3.38,3.38,0,0,1,.563.173Z" transform="translate(872 273)"/>
    <path id="Path_4991" data-name="Path 4991" d="M-30.968-4.92a6.3,6.3,0,0,1,.337-2.13,4.641,4.641,0,0,1,.945-1.605,4.115,4.115,0,0,1,1.44-1.012,4.627,4.627,0,0,1,1.823-.352,3.454,3.454,0,0,1,1.695.382,4.765,4.765,0,0,1,1.125.832l-.72.8a3.47,3.47,0,0,0-.862-.653,2.558,2.558,0,0,0-1.222-.263,3.179,3.179,0,0,0-1.35.278,2.894,2.894,0,0,0-1.028.795,3.688,3.688,0,0,0-.66,1.253,5.459,5.459,0,0,0-.233,1.65,5.947,5.947,0,0,0,.218,1.673,3.719,3.719,0,0,0,.63,1.268,2.782,2.782,0,0,0,1.02.81,3.268,3.268,0,0,0,1.4.285,3.2,3.2,0,0,0,1-.157,2.152,2.152,0,0,0,.78-.428V-4.065h-2.085V-5.1h3.225V-.96a3.883,3.883,0,0,1-1.275.81,4.616,4.616,0,0,1-1.785.33,4.509,4.509,0,0,1-1.785-.345,3.907,3.907,0,0,1-1.4-1,4.651,4.651,0,0,1-.915-1.6A6.552,6.552,0,0,1-30.968-4.92Zm9.435,1.29a4.415,4.415,0,0,1,.278-1.612A3.774,3.774,0,0,1-20.52-6.45a3.189,3.189,0,0,1,1.043-.757,2.937,2.937,0,0,1,1.215-.262,3.053,3.053,0,0,1,1.237.24,2.413,2.413,0,0,1,.915.69,3.166,3.166,0,0,1,.562,1.08,4.758,4.758,0,0,1,.2,1.41,4.214,4.214,0,0,1-.045.675h-4.92A2.9,2.9,0,0,0-19.59-1.5a2.236,2.236,0,0,0,1.7.69,2.866,2.866,0,0,0,.967-.157,4.281,4.281,0,0,0,.847-.413l.435.81A6.21,6.21,0,0,1-16.7-.045,3.7,3.7,0,0,1-18.038.18,3.569,3.569,0,0,1-19.41-.082a3.253,3.253,0,0,1-1.11-.75,3.473,3.473,0,0,1-.742-1.193A4.464,4.464,0,0,1-21.533-3.63Zm5.1-.555A2.7,2.7,0,0,0-16.905-5.9a1.6,1.6,0,0,0-1.327-.592,1.8,1.8,0,0,0-.743.157,2.059,2.059,0,0,0-.637.45,2.4,2.4,0,0,0-.472.72,3.329,3.329,0,0,0-.248.982Zm3.18-2.1h-1.08v-.93l1.14-.075.15-2.04h1.035v2.04h1.965v1.005h-1.965v4.05a1.857,1.857,0,0,0,.247,1.043.981.981,0,0,0,.878.368,1.635,1.635,0,0,0,.42-.06,3.2,3.2,0,0,0,.405-.135l.24.93A6.377,6.377,0,0,1-10.47.1a3.053,3.053,0,0,1-.7.083A2.379,2.379,0,0,1-12.15,0,1.69,1.69,0,0,1-12.8-.5a1.929,1.929,0,0,1-.352-.765,4.358,4.358,0,0,1-.1-.99ZM-.293-7.86a4.134,4.134,0,0,0-.817-.63,2.037,2.037,0,0,0-1.013-.225,1.512,1.512,0,0,0-1.095.39,1.39,1.39,0,0,0-.4,1.05,1.28,1.28,0,0,0,.307.885,2.993,2.993,0,0,0,.773.607q.465.263,1.013.51a5.248,5.248,0,0,1,1.013.6,3.006,3.006,0,0,1,.772.87A2.57,2.57,0,0,1,.563-2.475,2.542,2.542,0,0,1-.06-.7a2.705,2.705,0,0,1-1.7.84V1.65h-.9V.165a4.233,4.233,0,0,1-1.395-.4A4.764,4.764,0,0,1-5.213-.99l.57-.855a5.094,5.094,0,0,0,1.058.713A2.765,2.765,0,0,0-2.318-.84a1.685,1.685,0,0,0,1.253-.42A1.536,1.536,0,0,0-.653-2.385a1.582,1.582,0,0,0-.307-1,2.949,2.949,0,0,0-.773-.69A9.176,9.176,0,0,0-2.745-4.62,6.449,6.449,0,0,1-3.758-5.2a2.949,2.949,0,0,1-.773-.8,2.175,2.175,0,0,1-.308-1.207,2.427,2.427,0,0,1,.593-1.672A2.615,2.615,0,0,1-2.663-9.72v-1.5h.9v1.485a2.823,2.823,0,0,1,1.222.39,4.5,4.5,0,0,1,.908.75ZM4.672-3.81,1.7-9.84h1.35l1.26,2.775L4.785-6q.233.525.488,1.08h.06q.255-.555.5-1.08t.473-1.065L7.582-9.84h1.29L5.917-3.81V0H4.672ZM17.407.18a3.981,3.981,0,0,1-1.7-.36A3.863,3.863,0,0,1,14.37-1.207a4.742,4.742,0,0,1-.87-1.62,6.939,6.939,0,0,1-.307-2.138A6.8,6.8,0,0,1,13.5-7.088a4.6,4.6,0,0,1,.87-1.59,3.779,3.779,0,0,1,1.335-1,4.128,4.128,0,0,1,1.7-.345,4.016,4.016,0,0,1,1.687.352A3.86,3.86,0,0,1,20.43-8.662a4.6,4.6,0,0,1,.87,1.59,6.743,6.743,0,0,1,.307,2.108A6.939,6.939,0,0,1,21.3-2.828a4.742,4.742,0,0,1-.87,1.62A3.863,3.863,0,0,1,19.095-.18,3.945,3.945,0,0,1,17.407.18Zm0-1.1A2.487,2.487,0,0,0,18.6-1.2a2.68,2.68,0,0,0,.915-.817,4.059,4.059,0,0,0,.592-1.275,6.146,6.146,0,0,0,.21-1.673,6,6,0,0,0-.21-1.65,3.789,3.789,0,0,0-.592-1.245,2.692,2.692,0,0,0-.915-.788,2.541,2.541,0,0,0-1.192-.278,2.586,2.586,0,0,0-1.2.278,2.67,2.67,0,0,0-.922.788,3.789,3.789,0,0,0-.592,1.245,6,6,0,0,0-.21,1.65,6.146,6.146,0,0,0,.21,1.673,4.059,4.059,0,0,0,.592,1.275,2.658,2.658,0,0,0,.922.817A2.531,2.531,0,0,0,17.407-.915Zm9.75-8.76a2.013,2.013,0,0,0-.825-.18q-1.02,0-1.02,1.41V-7.29h1.545v1.005H25.313V0h-1.23V-6.285h-.99v-.93l.99-.075V-8.445a2.753,2.753,0,0,1,.517-1.77,1.944,1.944,0,0,1,1.612-.645,3.038,3.038,0,0,1,.653.067,3.38,3.38,0,0,1,.563.173Zm4.68,0a2.013,2.013,0,0,0-.825-.18q-1.02,0-1.02,1.41V-7.29h1.545v1.005H29.993V0h-1.23V-6.285h-.99v-.93l.99-.075V-8.445a2.753,2.753,0,0,1,.517-1.77,1.944,1.944,0,0,1,1.612-.645,3.038,3.038,0,0,1,.653.067,3.38,3.38,0,0,1,.562.173Z" transform="translate(872 316)"/>
    <path id="Path_4990" data-name="Path 4990" d="M-31.4-4.92a6.3,6.3,0,0,1,.337-2.13,4.641,4.641,0,0,1,.945-1.605,4.115,4.115,0,0,1,1.44-1.012,4.627,4.627,0,0,1,1.822-.352,3.454,3.454,0,0,1,1.7.382,4.765,4.765,0,0,1,1.125.832l-.72.8a3.47,3.47,0,0,0-.863-.653,2.558,2.558,0,0,0-1.222-.263,3.179,3.179,0,0,0-1.35.278,2.894,2.894,0,0,0-1.028.795A3.688,3.688,0,0,0-29.88-6.6a5.459,5.459,0,0,0-.233,1.65A5.947,5.947,0,0,0-29.9-3.278a3.719,3.719,0,0,0,.63,1.268,2.782,2.782,0,0,0,1.02.81,3.268,3.268,0,0,0,1.4.285,3.2,3.2,0,0,0,1-.157,2.152,2.152,0,0,0,.78-.428V-4.065h-2.085V-5.1h3.225V-.96a3.883,3.883,0,0,1-1.275.81,4.616,4.616,0,0,1-1.785.33,4.509,4.509,0,0,1-1.785-.345,3.907,3.907,0,0,1-1.4-1,4.651,4.651,0,0,1-.915-1.6A6.552,6.552,0,0,1-31.4-4.92Zm9.435,1.29a4.415,4.415,0,0,1,.278-1.612,3.774,3.774,0,0,1,.735-1.208,3.189,3.189,0,0,1,1.042-.757A2.937,2.937,0,0,1-18.7-7.47a3.053,3.053,0,0,1,1.238.24,2.413,2.413,0,0,1,.915.69,3.166,3.166,0,0,1,.563,1.08,4.758,4.758,0,0,1,.2,1.41,4.214,4.214,0,0,1-.045.675h-4.92A2.9,2.9,0,0,0-20.025-1.5a2.236,2.236,0,0,0,1.7.69,2.866,2.866,0,0,0,.968-.157,4.281,4.281,0,0,0,.847-.413l.435.81a6.21,6.21,0,0,1-1.065.525A3.7,3.7,0,0,1-18.472.18a3.569,3.569,0,0,1-1.373-.263,3.253,3.253,0,0,1-1.11-.75A3.473,3.473,0,0,1-21.7-2.025,4.464,4.464,0,0,1-21.968-3.63Zm5.1-.555A2.7,2.7,0,0,0-17.34-5.9a1.6,1.6,0,0,0-1.328-.592,1.8,1.8,0,0,0-.743.157,2.059,2.059,0,0,0-.637.45,2.4,2.4,0,0,0-.472.72,3.329,3.329,0,0,0-.248.982Zm3.18-2.1h-1.08v-.93l1.14-.075.15-2.04h1.035v2.04h1.965v1.005h-1.965v4.05A1.857,1.857,0,0,0-12.2-1.192a.981.981,0,0,0,.878.368,1.635,1.635,0,0,0,.42-.06,3.2,3.2,0,0,0,.405-.135l.24.93A6.377,6.377,0,0,1-10.905.1a3.053,3.053,0,0,1-.7.083A2.379,2.379,0,0,1-12.585,0a1.69,1.69,0,0,1-.645-.5,1.929,1.929,0,0,1-.352-.765,4.358,4.358,0,0,1-.1-.99ZM-3.517-3.81l-2.97-6.03h1.35l1.26,2.775L-3.4-6q.232.525.487,1.08h.06q.255-.555.5-1.08t.473-1.065L-.607-9.84H.683L-2.272-3.81V0H-3.517Zm9.09-6.03h5.685v1.05H6.832v3.33h3.75v1.05H6.832V0H5.572Zm7.26,2.55h1.02l.1,1.32H14a3.368,3.368,0,0,1,.908-1.095,1.879,1.879,0,0,1,1.163-.405,1.938,1.938,0,0,1,.78.15l-.24,1.08a2.774,2.774,0,0,0-.33-.09,1.958,1.958,0,0,0-.375-.03,1.633,1.633,0,0,0-.968.375,2.984,2.984,0,0,0-.877,1.3V0h-1.23Zm4.815,3.66a4.415,4.415,0,0,1,.278-1.612A3.774,3.774,0,0,1,18.66-6.45,3.189,3.189,0,0,1,19.7-7.207a2.937,2.937,0,0,1,1.215-.262,3.053,3.053,0,0,1,1.238.24,2.413,2.413,0,0,1,.915.69,3.166,3.166,0,0,1,.563,1.08,4.758,4.758,0,0,1,.195,1.41,4.214,4.214,0,0,1-.045.675h-4.92A2.9,2.9,0,0,0,19.59-1.5a2.236,2.236,0,0,0,1.7.69,2.866,2.866,0,0,0,.968-.157,4.281,4.281,0,0,0,.847-.413l.435.81a6.21,6.21,0,0,1-1.065.525A3.7,3.7,0,0,1,21.143.18,3.569,3.569,0,0,1,19.77-.082a3.253,3.253,0,0,1-1.11-.75,3.473,3.473,0,0,1-.743-1.193A4.464,4.464,0,0,1,17.648-3.63Zm5.1-.555A2.7,2.7,0,0,0,22.275-5.9a1.6,1.6,0,0,0-1.328-.592,1.8,1.8,0,0,0-.743.157,2.059,2.059,0,0,0-.637.45,2.4,2.4,0,0,0-.472.72,3.329,3.329,0,0,0-.248.982Zm2.64.555a4.415,4.415,0,0,1,.278-1.612A3.774,3.774,0,0,1,26.4-6.45a3.189,3.189,0,0,1,1.042-.757,2.937,2.937,0,0,1,1.215-.262,3.053,3.053,0,0,1,1.238.24,2.413,2.413,0,0,1,.915.69,3.166,3.166,0,0,1,.563,1.08,4.758,4.758,0,0,1,.195,1.41,4.214,4.214,0,0,1-.045.675H26.6A2.9,2.9,0,0,0,27.33-1.5a2.236,2.236,0,0,0,1.7.69A2.866,2.866,0,0,0,30-.967a4.281,4.281,0,0,0,.847-.413l.435.81a6.21,6.21,0,0,1-1.065.525A3.7,3.7,0,0,1,28.882.18,3.569,3.569,0,0,1,27.51-.082a3.253,3.253,0,0,1-1.11-.75,3.473,3.473,0,0,1-.743-1.193A4.464,4.464,0,0,1,25.387-3.63Zm5.1-.555A2.7,2.7,0,0,0,30.015-5.9a1.6,1.6,0,0,0-1.328-.592,1.8,1.8,0,0,0-.743.157,2.059,2.059,0,0,0-.637.45,2.4,2.4,0,0,0-.472.72,3.329,3.329,0,0,0-.248.982Z" transform="translate(872 359)"/>
  </g>
</svg>
